#Size	#Para	 Time		 Diff		 Proc		 Diff
8		1	     0.244	     0.244	     0.081	     0.081
12		2	     0.327	     0.083	     0.082	     0.000
16		3	     0.570	     0.242	     0.114	     0.032
20		4	     0.663	     0.093	     0.110	    -0.003
24		5	     0.872	     0.210	     0.125	     0.014
28		6	     1.107	     0.234	     0.138	     0.014
32		7	     1.536	     0.430	     0.171	     0.032
36		8	     1.712	     0.176	     0.171	     0.001
40		9	     2.063	     0.350	     0.188	     0.016
44		10	     2.479	     0.417	     0.207	     0.019
48		11	     2.784	     0.305	     0.214	     0.008
52		12	     3.322	     0.538	     0.237	     0.023
56		13	     3.645	     0.323	     0.243	     0.006
60		14	     4.108	     0.463	     0.257	     0.014
64		15	     4.674	     0.566	     0.275	     0.018
68		16	     5.135	     0.461	     0.285	     0.010
72		17	     5.692	     0.556	     0.300	     0.014
76		18	     6.378	     0.686	     0.319	     0.019
80		19	     6.839	     0.461	     0.326	     0.007
84		20	     7.655	     0.816	     0.348	     0.022
88		21	     8.394	     0.740	     0.365	     0.017
92		22	     9.162	     0.768	     0.382	     0.017
96		23	     9.725	     0.563	     0.389	     0.007
100		24	    10.587	     0.862	     0.407	     0.018
104		25	    11.317	     0.729	     0.419	     0.012
108		26	    12.164	     0.848	     0.434	     0.015
112		27	    12.969	     0.805	     0.447	     0.013
116		28	    14.047	     1.078	     0.468	     0.021
120		29	    14.793	     0.746	     0.477	     0.009
124		30	    15.809	     1.016	     0.494	     0.017
128		31	    16.928	     1.119	     0.513	     0.019
132		32	    18.811	     1.883	     0.553	     0.040
136		33	    20.283	     1.472	     0.580	     0.026
140		34	    20.828	     0.545	     0.579	    -0.001
144		35	    20.233	    -0.595	     0.547	    -0.032
148		36	    21.668	     1.434	     0.570	     0.023
152		37	    24.031	     2.364	     0.616	     0.046
156		38	    23.522	    -0.509	     0.588	    -0.028
160		39	    24.655	     1.133	     0.601	     0.013
164		40	    25.830	     1.175	     0.615	     0.014
168		41	    26.902	     1.072	     0.626	     0.011
172		42	    28.070	     1.168	     0.638	     0.012
176		43	    29.509	     1.439	     0.656	     0.018
180		44	    30.893	     1.384	     0.672	     0.016
184		45	    32.108	     1.215	     0.683	     0.012
188		46	    33.842	     1.734	     0.705	     0.022
192		47	    34.749	     0.908	     0.709	     0.004
196		48	    36.610	     1.860	     0.732	     0.023
200		49	    37.755	     1.146	     0.740	     0.008
204		50	    39.214	     1.459	     0.754	     0.014
208		51	    40.676	     1.462	     0.767	     0.013
212		52	    41.926	     1.250	     0.776	     0.009
216		53	    43.835	     1.909	     0.797	     0.021
220		54	    48.135	     4.300	     0.860	     0.063
224		55	    46.745	    -1.390	     0.820	    -0.039
228		56	    50.998	     4.253	     0.879	     0.059
232		57	    51.895	     0.897	     0.880	     0.000
236		58	    53.498	     1.604	     0.892	     0.012
240		59	    54.911	     1.413	     0.900	     0.009
244		60	    57.467	     2.556	     0.927	     0.027
248		61	    59.148	     1.682	     0.939	     0.012
252		62	    60.988	     1.840	     0.953	     0.014
256		63	    62.243	     1.255	     0.958	     0.005
260		64	    64.413	     2.170	     0.976	     0.018
264		65	    67.272	     2.859	     1.004	     0.028
268		66	    70.408	     3.135	     1.035	     0.031
272		67	    69.495	    -0.913	     1.007	    -0.028
276		68	    72.159	     2.664	     1.031	     0.024
280		69	    74.189	     2.030	     1.045	     0.014
284		70	    75.959	     1.770	     1.055	     0.010
288		71	    78.480	     2.521	     1.075	     0.020
292		72	    81.446	     2.967	     1.101	     0.026
296		73	    84.194	     2.748	     1.123	     0.022
300		74	   121.947	    37.752	     1.605	     0.482
304		75	    91.407	   -30.540	     1.187	    -0.417
308		76	    92.704	     1.297	     1.189	     0.001
312		77	    95.067	     2.363	     1.203	     0.015
316		78	    96.430	     1.363	     1.205	     0.002
320		79	    98.669	     2.239	     1.218	     0.013
324		80	   102.134	     3.465	     1.246	     0.027
328		81	   108.594	     6.461	     1.308	     0.063
332		82	   106.912	    -1.682	     1.273	    -0.036
336		83	   109.469	     2.557	     1.288	     0.015
340		84	   111.734	     2.264	     1.299	     0.011
344		85	   113.889	     2.155	     1.309	     0.010
348		86	   116.969	     3.080	     1.329	     0.020
352		87	   121.049	     4.081	     1.360	     0.031
356		88	   123.030	     1.981	     1.367	     0.007
360		89	   126.132	     3.101	     1.386	     0.019
364		90	   128.337	     2.205	     1.395	     0.009
368		91	   134.596	     6.259	     1.447	     0.052
372		92	   137.996	     3.400	     1.468	     0.021
376		93	   140.521	     2.525	     1.479	     0.011
380		94	   145.288	     4.767	     1.513	     0.034
384		95	   145.802	     0.514	     1.503	    -0.010
388		96	   150.163	     4.361	     1.532	     0.029
392		97	   153.825	     3.661	     1.554	     0.022
396		98	   156.275	     2.450	     1.563	     0.009
400		99	   158.163	     1.889	     1.566	     0.003
404		100	   218.453	    60.290	     2.142	     0.576
408		101	   167.755	   -50.698	     1.629	    -0.513
412		102	   171.885	     4.130	     1.653	     0.024
416		103	   174.616	     2.731	     1.663	     0.010
420		104	   179.073	     4.457	     1.689	     0.026
424		105	   181.387	     2.314	     1.695	     0.006
428		106	   186.439	     5.052	     1.726	     0.031
432		107	   187.865	     1.426	     1.724	    -0.003
436		108	   192.575	     4.710	     1.751	     0.027
440		109	   221.164	    28.588	     1.992	     0.242
444		110	   199.073	   -22.090	     1.777	    -0.215
448		111	   201.781	     2.708	     1.786	     0.008
452		112	   206.261	     4.480	     1.809	     0.024
456		113	   209.073	     2.812	     1.818	     0.009
460		114	   214.339	     5.266	     1.848	     0.030
464		115	   216.499	     2.160	     1.850	     0.003
468		116	   219.426	     2.927	     1.860	     0.009
472		117	   223.687	     4.261	     1.880	     0.020
476		118	   228.162	     4.475	     1.901	     0.022
480		119	   232.232	     4.070	     1.919	     0.018
484		120	   235.854	     3.623	     1.933	     0.014
488		121	   238.558	     2.703	     1.939	     0.006
492		122	   244.069	     5.511	     1.968	     0.029
496		123	   246.376	     2.307	     1.971	     0.003
500		124	   253.273	     6.896	     2.010	     0.039
504		125	   254.707	     1.435	     2.006	    -0.005
508		126	   274.399	    19.692	     2.144	     0.138
512		127	   262.360	   -12.039	     2.034	    -0.110
516		128	   268.793	     6.433	     2.068	     0.034
520		129	   274.205	     5.412	     2.093	     0.026
524		130	   277.411	     3.206	     2.102	     0.008
528		131	   279.270	     1.859	     2.100	    -0.002
532		132	   360.940	    81.670	     2.694	     0.594
536		133	   291.276	   -69.664	     2.158	    -0.536
540		134	   294.362	     3.087	     2.164	     0.007
544		135	   298.153	     3.791	     2.176	     0.012
548		136	   302.429	     4.276	     2.192	     0.015
552		137	   337.847	    35.418	     2.431	     0.239
556		138	   311.722	   -26.125	     2.227	    -0.204
560		139	   326.303	    14.581	     2.314	     0.088
564		140	   329.209	     2.907	     2.318	     0.004
568		141	   330.004	     0.795	     2.308	    -0.011
572		142	   409.281	    79.277	     2.842	     0.535
576		143	   341.225	   -68.056	     2.353	    -0.489
580		144	   339.579	    -1.646	     2.326	    -0.027
584		145	   344.635	     5.056	     2.344	     0.019
588		146	   347.981	     3.346	     2.351	     0.007
592		147	   375.117	    27.136	     2.518	     0.166
596		148	   355.854	   -19.264	     2.372	    -0.145
600		149	   363.452	     7.599	     2.407	     0.035
604		150	   365.316	     1.864	     2.403	    -0.004
608		151	   371.572	     6.257	     2.429	     0.025
612		152	   374.815	     3.243	     2.434	     0.005
616		153	   383.615	     8.800	     2.475	     0.041
620		154	   386.868	     3.253	     2.480	     0.005
624		155	   391.425	     4.557	     2.493	     0.013
628		156	   397.508	     6.083	     2.516	     0.023
632		157	   403.740	     6.232	     2.539	     0.023
636		158	   406.447	     2.707	     2.540	     0.001
640		159	   410.807	     4.360	     2.552	     0.011
644		160	   446.504	    35.697	     2.756	     0.205
648		161	   420.655	   -25.849	     2.581	    -0.175
652		162	   423.546	     2.892	     2.583	     0.002
656		163	   435.917	    12.371	     2.642	     0.059
660		164	   434.975	    -0.942	     2.620	    -0.022
664		165	   438.206	     3.231	     2.624	     0.004
668		166	   449.711	    11.505	     2.677	     0.053
672		167	   451.432	     1.720	     2.671	    -0.006
676		168	   455.999	     4.567	     2.682	     0.011
680		169	   462.717	     6.718	     2.706	     0.024
684		170	   468.790	     6.073	     2.726	     0.020
688		171	   474.638	     5.848	     2.744	     0.018
692		172	   477.878	     3.240	     2.746	     0.003
696		173	   483.428	     5.549	     2.762	     0.016
700		174	   491.293	     7.866	     2.791	     0.029
704		175	   498.170	     6.876	     2.815	     0.023
708		176	   532.631	    34.461	     2.992	     0.178
712		177	   510.335	   -22.296	     2.851	    -0.141
716		178	   515.062	     4.727	     2.861	     0.010
720		179	   519.740	     4.678	     2.871	     0.010
724		180	   523.541	     3.802	     2.877	     0.005
728		181	   531.063	     7.522	     2.902	     0.025
732		182	   539.351	     8.288	     2.931	     0.029
736		183	   539.084	    -0.266	     2.914	    -0.017
740		184	   547.791	     8.707	     2.945	     0.031
744		185	   556.959	     9.167	     2.978	     0.033
748		186	   562.615	     5.656	     2.993	     0.014
752		187	   568.705	     6.090	     3.009	     0.016
756		188	   571.432	     2.728	     3.008	    -0.001
760		189	   577.296	     5.864	     3.022	     0.015
764		190	   584.643	     7.346	     3.045	     0.023
768		191	   621.937	    37.294	     3.222	     0.177
772		192	   598.062	   -23.875	     3.083	    -0.140
776		193	   605.972	     7.910	     3.108	     0.025
780		194	   609.929	     3.958	     3.112	     0.004
784		195	   612.148	     2.218	     3.107	    -0.005
788		196	   620.006	     7.858	     3.131	     0.024
792		197	   626.684	     6.678	     3.149	     0.018
796		198	   636.984	    10.300	     3.185	     0.036
800		199	   641.411	     4.428	     3.191	     0.006
804		200	   650.201	     8.790	     3.219	     0.028
808		201	   650.558	     0.357	     3.205	    -0.014
812		202	   660.495	     9.937	     3.238	     0.033
816		203	   669.195	     8.700	     3.264	     0.027
820		204	   669.071	    -0.123	     3.248	    -0.016
824		205	   677.635	     8.563	     3.274	     0.026
828		206	   688.669	    11.035	     3.311	     0.037
832		207	   690.511	     1.841	     3.304	    -0.007
836		208	   700.863	    10.353	     3.337	     0.034
840		209	   708.940	     8.077	     3.360	     0.022
844		210	   715.516	     6.576	     3.375	     0.015
848		211	   718.347	     2.831	     3.373	    -0.003
852		212	   722.833	     4.486	     3.378	     0.005
856		213	   734.670	    11.837	     3.417	     0.039
860		214	   739.507	     4.837	     3.424	     0.007
864		215	   746.736	     7.229	     3.441	     0.018
868		216	   758.288	    11.552	     3.478	     0.037
872		217	   761.538	     3.250	     3.477	    -0.001
876		218	   764.628	     3.090	     3.476	    -0.002
880		219	   779.694	    15.066	     3.528	     0.052
884		220	   782.481	     2.787	     3.525	    -0.003
888		221	   792.493	    10.012	     3.554	     0.029
892		222	   802.101	     9.608	     3.581	     0.027
896		223	   814.024	    11.923	     3.618	     0.037
900		224	   808.089	    -5.935	     3.576	    -0.042
904		225	   824.329	    16.240	     3.631	     0.056
908		226	   824.213	    -0.116	     3.615	    -0.016
912		227	   835.111	    10.898	     3.647	     0.032
916		228	   843.048	     7.937	     3.665	     0.019
920		229	   846.053	     3.005	     3.663	    -0.003
924		230	   851.748	     5.696	     3.671	     0.009
928		231	   862.276	    10.527	     3.701	     0.029
932		232	   867.133	     4.857	     3.706	     0.005
936		233	   877.249	    10.116	     3.733	     0.027
940		234	   894.094	    16.845	     3.789	     0.056
944		235	   893.709	    -0.384	     3.771	    -0.018
948		236	   895.104	     1.395	     3.761	    -0.010
952		237	   914.159	    19.055	     3.825	     0.064
956		238	   913.947	    -0.211	     3.808	    -0.017
960		239	   923.892	     9.944	     3.834	     0.025
964		240	   939.656	    15.765	     3.883	     0.049
968		241	   937.877	    -1.780	     3.860	    -0.023
972		242	   946.594	     8.717	     3.879	     0.020
976		243	   950.468	     3.874	     3.879	    -0.000
980		244	   964.482	    14.013	     3.921	     0.041
984		245	   969.770	     5.288	     3.926	     0.006
988		246	   981.397	    11.627	     3.957	     0.031
992		247	   980.276	    -1.122	     3.937	    -0.020
996		248	   993.289	    13.013	     3.973	     0.036
1000		249	  1002.981	     9.692	     3.996	     0.023
1004		250	  1012.535	     9.554	     4.018	     0.022
