1.000000000000000000e+00 9.000000000000000000e+00
2.000000000000000000e+00 1.500000000000000000e+01
3.000000000000000000e+00 2.100000000000000000e+01
4.000000000000000000e+00 2.700000000000000000e+01
5.000000000000000000e+00 3.300000000000000000e+01
6.000000000000000000e+00 3.900000000000000000e+01
7.000000000000000000e+00 4.500000000000000000e+01
8.000000000000000000e+00 5.100000000000000000e+01
9.000000000000000000e+00 5.700000000000000000e+01
1.000000000000000000e+01 6.300000000000000000e+01
1.100000000000000000e+01 6.900000000000000000e+01
1.200000000000000000e+01 7.500000000000000000e+01
1.300000000000000000e+01 8.100000000000000000e+01
1.400000000000000000e+01 8.700000000000000000e+01
1.500000000000000000e+01 9.300000000000000000e+01
1.600000000000000000e+01 9.900000000000000000e+01
1.700000000000000000e+01 1.050000000000000000e+02
1.800000000000000000e+01 1.110000000000000000e+02
1.900000000000000000e+01 1.170000000000000000e+02
2.000000000000000000e+01 1.230000000000000000e+02
2.100000000000000000e+01 1.290000000000000000e+02
2.200000000000000000e+01 1.350000000000000000e+02
2.300000000000000000e+01 1.410000000000000000e+02
2.400000000000000000e+01 1.470000000000000000e+02
2.500000000000000000e+01 1.530000000000000000e+02
2.600000000000000000e+01 1.590000000000000000e+02
2.700000000000000000e+01 1.650000000000000000e+02
2.800000000000000000e+01 1.710000000000000000e+02
2.900000000000000000e+01 1.770000000000000000e+02
3.000000000000000000e+01 1.830000000000000000e+02
3.100000000000000000e+01 1.890000000000000000e+02
3.200000000000000000e+01 1.950000000000000000e+02
3.300000000000000000e+01 2.010000000000000000e+02
3.400000000000000000e+01 2.070000000000000000e+02
3.500000000000000000e+01 2.130000000000000000e+02
3.600000000000000000e+01 2.190000000000000000e+02
3.700000000000000000e+01 2.250000000000000000e+02
3.800000000000000000e+01 2.310000000000000000e+02
3.900000000000000000e+01 2.370000000000000000e+02
4.000000000000000000e+01 2.430000000000000000e+02
4.100000000000000000e+01 2.490000000000000000e+02
4.200000000000000000e+01 2.550000000000000000e+02
4.300000000000000000e+01 2.610000000000000000e+02
4.400000000000000000e+01 2.670000000000000000e+02
4.500000000000000000e+01 2.730000000000000000e+02
4.600000000000000000e+01 2.790000000000000000e+02
4.700000000000000000e+01 2.850000000000000000e+02
4.800000000000000000e+01 2.910000000000000000e+02
4.900000000000000000e+01 2.970000000000000000e+02
5.000000000000000000e+01 3.030000000000000000e+02
5.100000000000000000e+01 3.090000000000000000e+02
5.200000000000000000e+01 3.150000000000000000e+02
5.300000000000000000e+01 3.210000000000000000e+02
5.400000000000000000e+01 3.270000000000000000e+02
5.500000000000000000e+01 3.330000000000000000e+02
5.600000000000000000e+01 3.390000000000000000e+02
5.700000000000000000e+01 3.450000000000000000e+02
5.800000000000000000e+01 3.510000000000000000e+02
5.900000000000000000e+01 3.570000000000000000e+02
6.000000000000000000e+01 3.630000000000000000e+02
6.100000000000000000e+01 3.690000000000000000e+02
6.200000000000000000e+01 3.750000000000000000e+02
6.300000000000000000e+01 3.810000000000000000e+02
6.400000000000000000e+01 3.870000000000000000e+02
6.500000000000000000e+01 3.930000000000000000e+02
6.600000000000000000e+01 3.990000000000000000e+02
6.700000000000000000e+01 4.050000000000000000e+02
6.800000000000000000e+01 4.110000000000000000e+02
6.900000000000000000e+01 4.170000000000000000e+02
7.000000000000000000e+01 4.230000000000000000e+02
7.100000000000000000e+01 4.290000000000000000e+02
7.200000000000000000e+01 4.350000000000000000e+02
7.300000000000000000e+01 4.410000000000000000e+02
7.400000000000000000e+01 4.470000000000000000e+02
7.500000000000000000e+01 4.530000000000000000e+02
7.600000000000000000e+01 4.590000000000000000e+02
7.700000000000000000e+01 4.650000000000000000e+02
7.800000000000000000e+01 4.710000000000000000e+02
7.900000000000000000e+01 4.770000000000000000e+02
8.000000000000000000e+01 4.830000000000000000e+02
8.100000000000000000e+01 4.890000000000000000e+02
8.200000000000000000e+01 4.950000000000000000e+02
8.300000000000000000e+01 5.010000000000000000e+02
8.400000000000000000e+01 5.070000000000000000e+02
8.500000000000000000e+01 5.130000000000000000e+02
8.600000000000000000e+01 5.190000000000000000e+02
8.700000000000000000e+01 5.250000000000000000e+02
8.800000000000000000e+01 5.310000000000000000e+02
8.900000000000000000e+01 5.370000000000000000e+02
9.000000000000000000e+01 5.430000000000000000e+02
9.100000000000000000e+01 5.490000000000000000e+02
9.200000000000000000e+01 5.550000000000000000e+02
9.300000000000000000e+01 5.610000000000000000e+02
9.400000000000000000e+01 5.670000000000000000e+02
9.500000000000000000e+01 5.730000000000000000e+02
9.600000000000000000e+01 5.790000000000000000e+02
9.700000000000000000e+01 5.850000000000000000e+02
9.800000000000000000e+01 5.910000000000000000e+02
9.900000000000000000e+01 5.970000000000000000e+02
1.000000000000000000e+02 6.030000000000000000e+02
1.010000000000000000e+02 6.090000000000000000e+02
1.020000000000000000e+02 6.150000000000000000e+02
1.030000000000000000e+02 6.210000000000000000e+02
1.040000000000000000e+02 6.270000000000000000e+02
1.050000000000000000e+02 6.330000000000000000e+02
1.060000000000000000e+02 6.390000000000000000e+02
1.070000000000000000e+02 6.450000000000000000e+02
1.080000000000000000e+02 6.510000000000000000e+02
1.090000000000000000e+02 6.570000000000000000e+02
1.100000000000000000e+02 6.630000000000000000e+02
1.110000000000000000e+02 6.690000000000000000e+02
1.120000000000000000e+02 6.750000000000000000e+02
1.130000000000000000e+02 6.810000000000000000e+02
1.140000000000000000e+02 6.870000000000000000e+02
1.150000000000000000e+02 6.930000000000000000e+02
1.160000000000000000e+02 6.990000000000000000e+02
1.170000000000000000e+02 7.050000000000000000e+02
1.180000000000000000e+02 7.110000000000000000e+02
1.190000000000000000e+02 7.170000000000000000e+02
1.200000000000000000e+02 7.230000000000000000e+02
1.210000000000000000e+02 7.290000000000000000e+02
1.220000000000000000e+02 7.350000000000000000e+02
1.230000000000000000e+02 7.410000000000000000e+02
1.240000000000000000e+02 7.470000000000000000e+02
1.250000000000000000e+02 7.530000000000000000e+02
1.260000000000000000e+02 7.590000000000000000e+02
1.270000000000000000e+02 7.650000000000000000e+02
1.280000000000000000e+02 7.710000000000000000e+02
1.290000000000000000e+02 7.770000000000000000e+02
1.300000000000000000e+02 7.830000000000000000e+02
1.310000000000000000e+02 7.890000000000000000e+02
1.320000000000000000e+02 7.950000000000000000e+02
1.330000000000000000e+02 8.010000000000000000e+02
1.340000000000000000e+02 8.070000000000000000e+02
1.350000000000000000e+02 8.130000000000000000e+02
1.360000000000000000e+02 8.190000000000000000e+02
1.370000000000000000e+02 8.250000000000000000e+02
1.380000000000000000e+02 8.310000000000000000e+02
1.390000000000000000e+02 8.370000000000000000e+02
1.400000000000000000e+02 8.430000000000000000e+02
1.410000000000000000e+02 8.490000000000000000e+02
1.420000000000000000e+02 8.550000000000000000e+02
1.430000000000000000e+02 8.610000000000000000e+02
1.440000000000000000e+02 8.670000000000000000e+02
1.450000000000000000e+02 8.730000000000000000e+02
1.460000000000000000e+02 8.790000000000000000e+02
1.470000000000000000e+02 8.850000000000000000e+02
1.480000000000000000e+02 8.910000000000000000e+02
1.490000000000000000e+02 8.970000000000000000e+02
1.500000000000000000e+02 9.030000000000000000e+02
1.510000000000000000e+02 9.090000000000000000e+02
1.520000000000000000e+02 9.150000000000000000e+02
1.530000000000000000e+02 9.210000000000000000e+02
1.540000000000000000e+02 9.270000000000000000e+02
1.550000000000000000e+02 9.330000000000000000e+02
1.560000000000000000e+02 9.390000000000000000e+02
1.570000000000000000e+02 9.450000000000000000e+02
1.580000000000000000e+02 9.510000000000000000e+02
1.590000000000000000e+02 9.570000000000000000e+02
1.600000000000000000e+02 9.630000000000000000e+02
1.610000000000000000e+02 9.690000000000000000e+02
1.620000000000000000e+02 9.750000000000000000e+02
1.630000000000000000e+02 9.810000000000000000e+02
1.640000000000000000e+02 9.870000000000000000e+02
1.650000000000000000e+02 9.930000000000000000e+02
1.660000000000000000e+02 9.990000000000000000e+02
1.670000000000000000e+02 1.005000000000000000e+03
