#Size	#Para	 Time		 Diff		 Proc		 Diff
3		2	     0.092	     0.092	     0.046	     0.046
4		3	     0.116	     0.024	     0.039	    -0.007
5		4	     0.183	     0.067	     0.046	     0.007
6		5	     0.244	     0.062	     0.049	     0.003
7		6	     0.324	     0.080	     0.054	     0.005
8		7	     0.404	     0.080	     0.058	     0.004
9		8	     0.487	     0.083	     0.061	     0.003
10		9	     0.589	     0.102	     0.065	     0.005
11		10	     0.706	     0.118	     0.071	     0.005
12		11	     0.834	     0.127	     0.076	     0.005
13		12	     1.080	     0.246	     0.090	     0.014
14		13	     1.119	     0.039	     0.086	    -0.004
15		14	     1.256	     0.138	     0.090	     0.004
16		15	     1.401	     0.144	     0.093	     0.004
17		16	     1.597	     0.196	     0.100	     0.006
18		17	     1.920	     0.322	     0.113	     0.013
19		18	     1.980	     0.060	     0.110	    -0.003
20		19	     2.149	     0.169	     0.113	     0.003
21		20	     2.356	     0.207	     0.118	     0.005
22		21	     2.564	     0.209	     0.122	     0.004
23		22	     2.817	     0.252	     0.128	     0.006
24		23	     3.031	     0.215	     0.132	     0.004
25		24	     3.291	     0.260	     0.137	     0.005
26		25	     3.552	     0.260	     0.142	     0.005
27		26	     7.582	     4.030	     0.292	     0.150
28		27	     8.123	     0.541	     0.301	     0.009
29		28	     8.643	     0.520	     0.309	     0.008
30		29	     4.693	    -3.951	     0.162	    -0.147
31		30	     5.132	     0.440	     0.171	     0.009
32		31	     5.545	     0.413	     0.179	     0.008
33		32	     5.817	     0.272	     0.182	     0.003
34		33	     6.191	     0.374	     0.188	     0.006
35		34	     6.561	     0.370	     0.193	     0.005
36		35	     6.897	     0.336	     0.197	     0.004
37		36	     7.268	     0.371	     0.202	     0.005
38		37	     7.726	     0.458	     0.209	     0.007
39		38	     8.036	     0.310	     0.211	     0.003
40		39	     8.478	     0.442	     0.217	     0.006
41		40	     8.969	     0.491	     0.224	     0.007
42		41	     9.649	     0.680	     0.235	     0.011
43		42	     9.987	     0.338	     0.238	     0.002
44		43	    10.408	     0.421	     0.242	     0.004
45		44	    10.863	     0.455	     0.247	     0.005
46		45	    11.370	     0.507	     0.253	     0.006
47		46	    11.893	     0.523	     0.259	     0.006
48		47	    12.581	     0.688	     0.268	     0.009
49		48	    13.064	     0.483	     0.272	     0.004
50		49	    13.556	     0.492	     0.277	     0.004
51		50	    13.959	     0.402	     0.279	     0.003
52		51	    14.412	     0.453	     0.283	     0.003
53		52	    15.332	     0.920	     0.295	     0.012
54		53	    15.913	     0.581	     0.300	     0.005
55		54	    16.396	     0.483	     0.304	     0.003
56		55	    17.019	     0.623	     0.309	     0.006
57		56	    17.586	     0.567	     0.314	     0.005
58		57	    18.349	     0.763	     0.322	     0.008
59		58	    18.983	     0.633	     0.327	     0.005
60		59	    19.412	     0.430	     0.329	     0.002
61		60	    20.109	     0.696	     0.335	     0.006
62		61	    20.861	     0.752	     0.342	     0.007
63		62	    22.475	     1.614	     0.363	     0.021
64		63	    22.968	     0.493	     0.365	     0.002
65		64	    23.818	     0.850	     0.372	     0.008
66		65	    24.642	     0.824	     0.379	     0.007
67		66	    25.427	     0.785	     0.385	     0.006
68		67	    26.077	     0.649	     0.389	     0.004
69		68	    26.723	     0.646	     0.393	     0.004
70		69	    27.602	     0.880	     0.400	     0.007
71		70	    28.745	     1.143	     0.411	     0.011
72		71	    29.371	     0.626	     0.414	     0.003
73		72	    30.283	     0.912	     0.421	     0.007
74		73	    31.032	     0.749	     0.425	     0.004
75		74	    32.056	     1.023	     0.433	     0.008
76		75	    32.717	     0.661	     0.436	     0.003
77		76	    33.586	     0.869	     0.442	     0.006
78		77	    34.830	     1.244	     0.452	     0.010
79		78	    35.623	     0.793	     0.457	     0.004
80		79	    36.274	     0.651	     0.459	     0.002
81		80	    37.400	     1.126	     0.467	     0.008
82		81	    38.853	     1.454	     0.480	     0.012
83		82	    39.142	     0.289	     0.477	    -0.002
84		83	    40.457	     1.314	     0.487	     0.010
85		84	    41.638	     1.181	     0.496	     0.008
86		85	    42.077	     0.439	     0.495	    -0.001
87		86	    43.215	     1.138	     0.503	     0.007
88		87	    44.602	     1.387	     0.513	     0.010
89		88	    46.404	     1.802	     0.527	     0.015
90		89	    46.838	     0.433	     0.526	    -0.001
91		90	    47.719	     0.881	     0.530	     0.004
92		91	    49.249	     1.531	     0.541	     0.011
93		92	    51.045	     1.796	     0.555	     0.014
94		93	    51.678	     0.633	     0.556	     0.001
95		94	    52.883	     1.205	     0.563	     0.007
96		95	    53.752	     0.869	     0.566	     0.003
97		96	    54.808	     1.056	     0.571	     0.005
98		97	    55.459	     0.650	     0.572	     0.001
99		98	    57.683	     2.225	     0.589	     0.017
100		99	    98.392	    40.709	     0.994	     0.405
101		100	    59.489	   -38.903	     0.595	    -0.399
102		101	    60.579	     1.091	     0.600	     0.005
103		102	    61.291	     0.712	     0.601	     0.001
104		103	    63.229	     1.938	     0.614	     0.013
105		104	    64.042	     0.813	     0.616	     0.002
106		105	    66.155	     2.113	     0.630	     0.014
107		106	    66.418	     0.263	     0.627	    -0.003
108		107	    68.265	     1.847	     0.638	     0.011
109		108	    69.113	     0.848	     0.640	     0.002
110		109	    70.319	     1.206	     0.645	     0.005
111		110	    72.156	     1.837	     0.656	     0.011
112		111	    73.057	     0.901	     0.658	     0.002
113		112	    74.932	     1.875	     0.669	     0.011
114		113	    75.734	     0.802	     0.670	     0.001
115		114	    77.897	     2.162	     0.683	     0.013
116		115	    78.342	     0.446	     0.681	    -0.002
117		116	    80.531	     2.188	     0.694	     0.013
118		117	   105.900	    25.369	     0.905	     0.211
119		118	    83.467	   -22.433	     0.707	    -0.198
120		119	    84.682	     1.216	     0.712	     0.004
121		120	    85.990	     1.308	     0.717	     0.005
122		121	    87.621	     1.631	     0.724	     0.008
123		122	    89.075	     1.454	     0.730	     0.006
124		123	    90.611	     1.536	     0.737	     0.007
125		124	    92.021	     1.410	     0.742	     0.005
126		125	    94.190	     2.169	     0.754	     0.011
127		126	   100.288	     6.099	     0.796	     0.042
128		127	   101.649	     1.361	     0.800	     0.004
129		128	   126.116	    24.467	     0.985	     0.185
130		129	   108.652	   -17.463	     0.842	    -0.143
131		130	   122.056	    13.404	     0.939	     0.097
132		131	   124.428	     2.372	     0.950	     0.011
133		132	   113.518	   -10.910	     0.860	    -0.090
134		133	   126.699	    13.181	     0.953	     0.093
135		134	   129.090	     2.390	     0.963	     0.011
136		135	   129.988	     0.898	     0.963	    -0.000
137		136	   120.280	    -9.708	     0.884	    -0.078
138		137	   140.512	    20.232	     1.026	     0.141
139		138	   135.666	    -4.845	     0.983	    -0.043
140		139	   138.938	     3.272	     1.000	     0.016
141		140	   149.418	    10.480	     1.067	     0.068
142		141	   130.440	   -18.979	     0.925	    -0.142
143		142	   146.270	    15.830	     1.030	     0.105
144		143	   145.579	    -0.691	     1.018	    -0.012
145		144	   149.215	     3.636	     1.036	     0.018
146		145	   152.096	     2.881	     1.049	     0.013
147		146	   140.358	   -11.738	     0.961	    -0.088
148		147	   154.875	    14.517	     1.054	     0.092
149		148	   158.063	     3.188	     1.068	     0.014
150		149	   157.380	    -0.683	     1.056	    -0.012
151		150	   159.559	     2.179	     1.064	     0.007
152		151	   165.939	     6.380	     1.099	     0.035
153		152	   168.116	     2.177	     1.106	     0.007
154		153	   154.065	   -14.051	     1.007	    -0.099
155		154	   155.459	     1.395	     1.009	     0.003
156		155	   172.337	    16.877	     1.112	     0.102
157		156	   174.397	     2.060	     1.118	     0.006
158		157	   174.294	    -0.103	     1.110	    -0.008
159		158	   176.407	     2.113	     1.117	     0.006
160		159	   178.253	     1.846	     1.121	     0.005
161		160	   180.880	     2.627	     1.131	     0.009
162		161	   171.552	    -9.328	     1.066	    -0.065
163		162	   185.022	    13.469	     1.142	     0.077
164		163	   175.069	    -9.952	     1.074	    -0.068
165		164	   190.700	    15.631	     1.163	     0.089
166		165	   191.594	     0.894	     1.161	    -0.002
167		166	   194.118	     2.524	     1.169	     0.008
168		167	   195.483	     1.365	     1.171	     0.001
169		168	   203.507	     8.024	     1.211	     0.041
170		169	   200.992	    -2.515	     1.189	    -0.022
171		170	   203.825	     2.833	     1.199	     0.010
172		171	   208.303	     4.478	     1.218	     0.019
173		172	   212.404	     4.101	     1.235	     0.017
174		173	   211.868	    -0.536	     1.225	    -0.010
175		174	   214.446	     2.578	     1.232	     0.008
176		175	   217.875	     3.430	     1.245	     0.013
177		176	   226.631	     8.755	     1.288	     0.043
178		177	   220.208	    -6.422	     1.244	    -0.044
179		178	   223.179	     2.970	     1.254	     0.010
180		179	   212.682	   -10.496	     1.188	    -0.066
181		180	   229.544	    16.861	     1.275	     0.087
182		181	   231.090	     1.546	     1.277	     0.001
183		182	   220.652	   -10.438	     1.212	    -0.064
184		183	   224.355	     3.703	     1.226	     0.014
185		184	   226.483	     2.128	     1.231	     0.005
186		185	   230.480	     3.997	     1.246	     0.015
187		186	   245.475	    14.995	     1.320	     0.074
188		187	   249.492	     4.017	     1.334	     0.014
189		188	   252.356	     2.864	     1.342	     0.008
190		189	   240.399	   -11.956	     1.272	    -0.070
191		190	   256.088	    15.689	     1.348	     0.076
192		191	   257.542	     1.454	     1.348	     0.001
193		192	   247.254	   -10.288	     1.288	    -0.061
194		193	   267.617	    20.363	     1.387	     0.099
195		194	   266.007	    -1.610	     1.371	    -0.015
196		195	   269.805	     3.798	     1.384	     0.012
197		196	   270.507	     0.701	     1.380	    -0.003
198		197	   273.573	     3.066	     1.389	     0.009
199		198	   279.709	     6.136	     1.413	     0.024
200		199	   266.327	   -13.381	     1.338	    -0.074
201		200	   283.287	    16.960	     1.416	     0.078
202		201	   285.728	     2.441	     1.422	     0.005
203		202	   287.635	     1.907	     1.424	     0.002
204		203	   290.602	     2.967	     1.432	     0.008
205		204	   295.173	     4.570	     1.447	     0.015
206		205	   299.213	     4.040	     1.460	     0.013
207		206	   302.329	     3.116	     1.468	     0.008
208		207	   309.875	     7.546	     1.497	     0.029
209		208	   308.394	    -1.481	     1.483	    -0.014
210		209	   312.861	     4.467	     1.497	     0.014
211		210	   302.959	    -9.902	     1.443	    -0.054
212		211	   320.626	    17.667	     1.520	     0.077
213		212	   324.313	     3.686	     1.530	     0.010
214		213	   325.405	     1.092	     1.528	    -0.002
215		214	   326.786	     1.381	     1.527	    -0.001
216		215	   331.956	     5.170	     1.544	     0.017
217		216	   334.967	     3.011	     1.551	     0.007
218		217	   338.778	     3.810	     1.561	     0.010
219		218	   329.203	    -9.575	     1.510	    -0.051
220		219	   333.640	     4.437	     1.523	     0.013
221		220	   336.656	     3.016	     1.530	     0.007
222		221	   352.953	    16.298	     1.597	     0.067
223		222	   356.832	     3.878	     1.607	     0.010
224		223	   362.827	     5.995	     1.627	     0.020
225		224	   365.448	     2.622	     1.631	     0.004
226		225	   366.959	     1.510	     1.631	    -0.001
227		226	   369.657	     2.699	     1.636	     0.005
228		227	   371.415	     1.758	     1.636	     0.001
229		228	   374.918	     3.503	     1.644	     0.008
230		229	   379.175	     4.257	     1.656	     0.011
231		230	   385.638	     6.463	     1.677	     0.021
232		231	   387.815	     2.177	     1.679	     0.002
233		232	   377.959	    -9.857	     1.629	    -0.050
234		233	   393.986	    16.028	     1.691	     0.062
235		234	   396.055	     2.069	     1.693	     0.002
236		235	   403.209	     7.154	     1.716	     0.023
237		236	   390.515	   -12.694	     1.655	    -0.061
238		237	   408.592	    18.077	     1.724	     0.069
239		238	   411.444	     2.852	     1.729	     0.005
240		239	   430.701	    19.257	     1.802	     0.073
241		240	   446.427	    15.727	     1.860	     0.058
242		241	   446.193	    -0.235	     1.851	    -0.009
243		242	   450.458	     4.266	     1.861	     0.010
244		243	   459.980	     9.522	     1.893	     0.032
245		244	   463.518	     3.537	     1.900	     0.007
246		245	   462.083	    -1.434	     1.886	    -0.014
247		246	   464.598	     2.514	     1.889	     0.003
248		247	   468.077	     3.480	     1.895	     0.006
249		248	   481.787	    13.710	     1.943	     0.048
250		249	   476.044	    -5.743	     1.912	    -0.031
251		250	   481.368	     5.323	     1.925	     0.014
252		251	   487.691	     6.323	     1.943	     0.018
253		252	   491.600	     3.910	     1.951	     0.008
254		253	   494.494	     2.894	     1.955	     0.004
255		254	   533.633	    39.138	     2.101	     0.146
256		255	   538.947	     5.314	     2.114	     0.013
257		256	   542.234	     3.287	     2.118	     0.005
258		257	   547.838	     5.605	     2.132	     0.014
259		258	   541.041	    -6.798	     2.097	    -0.035
260		259	   557.059	    16.019	     2.151	     0.054
261		260	   567.388	    10.329	     2.182	     0.031
262		261	   568.088	     0.700	     2.177	    -0.006
263		262	   569.182	     1.094	     2.172	    -0.004
264		263	   574.782	     5.600	     2.185	     0.013
265		264	   592.040	    17.258	     2.243	     0.057
266		265	   594.177	     2.137	     2.242	    -0.000
267		266	   592.972	    -1.205	     2.229	    -0.013
268		267	   608.958	    15.986	     2.281	     0.052
269		268	   597.199	   -11.758	     2.228	    -0.052
270		269	   603.147	     5.947	     2.242	     0.014
271		270	   613.972	    10.826	     2.274	     0.032
272		271	   613.649	    -0.324	     2.264	    -0.010
273		272	   617.986	     4.337	     2.272	     0.008
274		273	   614.079	    -3.907	     2.249	    -0.023
275		274	   631.114	    17.035	     2.303	     0.054
276		275	   620.896	   -10.218	     2.258	    -0.046
277		276	   630.247	     9.351	     2.284	     0.026
278		277	   631.268	     1.021	     2.279	    -0.005
279		278	   636.368	     5.100	     2.289	     0.010
280		279	   652.877	    16.509	     2.340	     0.051
281		280	   663.166	    10.290	     2.368	     0.028
282		281	   669.376	     6.210	     2.382	     0.014
283		282	   665.415	    -3.962	     2.360	    -0.022
284		283	   670.914	     5.499	     2.371	     0.011
285		284	   673.909	     2.996	     2.373	     0.002
286		285	   679.979	     6.069	     2.386	     0.013
287		286	   672.579	    -7.400	     2.352	    -0.034
288		287	   680.568	     7.989	     2.371	     0.020
289		288	   697.213	    16.645	     2.421	     0.050
290		289	   714.662	    17.449	     2.473	     0.052
291		290	   709.605	    -5.057	     2.447	    -0.026
292		291	   710.592	     0.986	     2.442	    -0.005
293		292	   717.287	     6.695	     2.456	     0.015
294		293	   736.223	    18.936	     2.513	     0.056
295		294	   727.101	    -9.121	     2.473	    -0.040
296		295	   736.977	     9.875	     2.498	     0.025
297		296	   735.634	    -1.343	     2.485	    -0.013
298		297	   748.732	    13.098	     2.521	     0.036
299		298	   755.822	     7.090	     2.536	     0.015
300		299	   756.284	     0.463	     2.529	    -0.007
301		300	   757.729	     1.445	     2.526	    -0.004
302		301	   794.840	    37.111	     2.641	     0.115
303		302	   784.497	   -10.342	     2.598	    -0.043
304		303	   796.570	    12.072	     2.629	     0.031
305		304	   797.391	     0.821	     2.623	    -0.006
306		305	   791.723	    -5.668	     2.596	    -0.027
307		306	   809.055	    17.332	     2.644	     0.048
308		307	   822.217	    13.162	     2.678	     0.034
309		308	   832.682	    10.465	     2.704	     0.025
310		309	   839.876	     7.194	     2.718	     0.015
311		310	   832.343	    -7.533	     2.685	    -0.033
312		311	   835.520	     3.177	     2.687	     0.002
313		312	   848.552	    13.032	     2.720	     0.033
314		313	   867.193	    18.641	     2.771	     0.051
315		314	   863.372	    -3.820	     2.750	    -0.021
316		315	   883.360	    19.988	     2.804	     0.055
317		316	   878.168	    -5.192	     2.779	    -0.025
318		317	   874.482	    -3.686	     2.759	    -0.020
319		318	   882.327	     7.845	     2.775	     0.016
320		319	   888.113	     5.787	     2.784	     0.009
321		320	   888.756	     0.643	     2.777	    -0.007
322		321	   895.058	     6.302	     2.788	     0.011
323		322	   906.574	    11.517	     2.815	     0.027
324		323	   908.837	     2.263	     2.814	    -0.002
325		324	   908.307	    -0.531	     2.803	    -0.010
326		325	   923.392	    15.085	     2.841	     0.038
327		326	   924.023	     0.631	     2.834	    -0.007
328		327	   960.793	    36.770	     2.938	     0.104
329		328	   977.920	    17.127	     2.981	     0.043
330		329	   970.903	    -7.017	     2.951	    -0.030
331		330	   939.818	   -31.084	     2.848	    -0.103
332		331	   945.138	     5.320	     2.855	     0.007
333		332	   993.904	    48.766	     2.994	     0.138
334		333	  1016.503	    22.599	     3.053	     0.059
335		334	  1013.704	    -2.800	     3.035	    -0.018
336		335	  1032.285	    18.581	     3.081	     0.046
337		336	  1017.154	   -15.131	     3.027	    -0.054
338		337	  1036.034	    18.880	     3.074	     0.047
339		338	  1025.033	   -11.000	     3.033	    -0.042
340		339	  1045.446	    20.413	     3.084	     0.051
341		340	  1037.837	    -7.609	     3.052	    -0.031
342		341	  1063.572	    25.735	     3.119	     0.067
343		342	  1054.340	    -9.232	     3.083	    -0.036
344		343	  1075.894	    21.554	     3.137	     0.054
345		344	  1062.403	   -13.491	     3.088	    -0.048
346		345	  1076.569	    14.166	     3.120	     0.032
347		346	  1076.558	    -0.010	     3.111	    -0.009
348		347	  1090.917	    14.358	     3.144	     0.032
349		348	  1100.897	     9.981	     3.163	     0.020
350		349	  1108.283	     7.385	     3.176	     0.012
351		350	  1118.083	     9.801	     3.195	     0.019
352		351	  1124.263	     6.180	     3.203	     0.009
353		352	  1137.183	    12.920	     3.231	     0.028
354		353	  1130.932	    -6.251	     3.204	    -0.027
355		354	  1154.344	    23.411	     3.261	     0.057
356		355	  1133.365	   -20.978	     3.193	    -0.068
357		356	  1163.756	    30.391	     3.269	     0.076
358		357	  1169.218	     5.462	     3.275	     0.006
359		358	  1170.419	     1.201	     3.269	    -0.006
360		359	  1163.700	    -6.720	     3.242	    -0.028
361		360	  1177.381	    13.681	     3.271	     0.029
362		361	  1203.540	    26.159	     3.334	     0.063
363		362	  1196.468	    -7.072	     3.305	    -0.029
364		363	  1203.224	     6.756	     3.315	     0.010
365		364	  1213.916	    10.692	     3.335	     0.020
366		365	  1221.419	     7.504	     3.346	     0.011
367		366	  1237.855	    16.436	     3.382	     0.036
368		367	  1234.997	    -2.858	     3.365	    -0.017
369		368	  1252.944	    17.946	     3.405	     0.040
370		369	  1249.019	    -3.925	     3.385	    -0.020
371		370	  1254.499	     5.480	     3.391	     0.006
372		371	  1262.432	     7.933	     3.403	     0.012
373		372	  1279.127	    16.695	     3.439	     0.036
374		373	  1273.779	    -5.348	     3.415	    -0.024
375		374	  1283.844	    10.065	     3.433	     0.018
376		375	  1296.321	    12.478	     3.457	     0.024
377		376	  1301.036	     4.714	     3.460	     0.003
378		377	  1308.514	     7.478	     3.471	     0.011
379		378	  1326.569	    18.055	     3.509	     0.039
380		379	  1336.560	     9.991	     3.527	     0.017
381		380	  1341.632	     5.072	     3.531	     0.004
382		381	  1343.570	     1.938	     3.526	    -0.004
383		382	  1356.229	    12.659	     3.550	     0.024
384		383	  1361.485	     5.256	     3.555	     0.004
385		384	  1364.204	     2.719	     3.553	    -0.002
386		385	  1377.916	    13.712	     3.579	     0.026
387		386	  1379.951	     2.034	     3.575	    -0.004
388		387	  1394.175	    14.225	     3.603	     0.028
389		388	  1404.112	     9.936	     3.619	     0.016
390		389	  1398.773	    -5.339	     3.596	    -0.023
391		390	  1409.377	    10.604	     3.614	     0.018
392		391	  1417.817	     8.440	     3.626	     0.012
393		392	  1423.222	     5.405	     3.631	     0.005
394		393	  1433.867	    10.644	     3.649	     0.018
395		394	  1434.949	     1.082	     3.642	    -0.007
396		395	  1454.737	    19.789	     3.683	     0.041
397		396	  1455.517	     0.780	     3.676	    -0.007
398		397	  1465.741	    10.224	     3.692	     0.016
399		398	  1471.272	     5.531	     3.697	     0.005
400		399	  1485.689	    14.417	     3.724	     0.027
401		400	  1488.392	     2.703	     3.721	    -0.003
402		401	  1499.646	    11.254	     3.740	     0.019
403		402	  1506.144	     6.498	     3.747	     0.007
404		403	  1521.173	    15.029	     3.775	     0.028
405		404	  1536.516	    15.342	     3.803	     0.029
406		405	  1543.728	     7.212	     3.812	     0.008
407		406	  1567.269	    23.541	     3.860	     0.049
408		407	  1562.175	    -5.094	     3.838	    -0.022
409		408	  1570.473	     8.299	     3.849	     0.011
410		409	  1565.511	    -4.962	     3.828	    -0.022
411		410	  1596.267	    30.755	     3.893	     0.066
412		411	  1605.775	     9.509	     3.907	     0.014
413		412	  1605.058	    -0.717	     3.896	    -0.011
414		413	  1616.472	    11.414	     3.914	     0.018
415		414	  1613.488	    -2.984	     3.897	    -0.017
416		415	  1627.571	    14.083	     3.922	     0.025
417		416	  1650.456	    22.885	     3.967	     0.046
418		417	  1648.738	    -1.719	     3.954	    -0.014
419		418	  1650.723	     1.985	     3.949	    -0.005
420		419	  1661.515	    10.792	     3.965	     0.016
421		420	  1667.823	     6.308	     3.971	     0.006
422		421	  1680.866	    13.043	     3.993	     0.022
423		422	  1685.792	     4.927	     3.995	     0.002
424		423	  1695.095	     9.302	     4.007	     0.013
425		424	  1717.474	    22.380	     4.051	     0.043
426		425	  1727.614	    10.140	     4.065	     0.014
427		426	  1728.933	     1.319	     4.059	    -0.006
428		427	  1785.381	    56.448	     4.181	     0.123
429		428	  1806.305	    20.924	     4.220	     0.039
430		429	  1811.575	     5.270	     4.223	     0.002
431		430	  1829.467	    17.892	     4.255	     0.032
432		431	  1820.871	    -8.596	     4.225	    -0.030
433		432	  1850.430	    29.558	     4.283	     0.059
434		433	  1853.899	     3.469	     4.282	    -0.002
435		434	  1847.361	    -6.538	     4.257	    -0.025
436		435	  1851.877	     4.516	     4.257	     0.001
437		436	  1865.140	    13.263	     4.278	     0.021
438		437	  1894.740	    29.600	     4.336	     0.058
439		438	  1877.769	   -16.971	     4.287	    -0.049
440		439	  1936.443	    58.675	     4.411	     0.124
441		440	  1945.396	     8.953	     4.421	     0.010
442		441	  1943.365	    -2.031	     4.407	    -0.015
443		442	  1992.441	    49.076	     4.508	     0.101
444		443	  1994.073	     1.632	     4.501	    -0.006
445		444	  1969.105	   -24.967	     4.435	    -0.066
446		445	  1971.751	     2.646	     4.431	    -0.004
447		446	  1992.908	    21.157	     4.468	     0.038
448		447	  2025.663	    32.755	     4.532	     0.063
449		448	  2043.645	    17.982	     4.562	     0.030
450		449	  2043.214	    -0.431	     4.551	    -0.011
451		450	  2027.731	   -15.483	     4.506	    -0.045
452		451	  2037.588	     9.857	     4.518	     0.012
453		452	  2069.701	    32.113	     4.579	     0.061
454		453	  2086.336	    16.636	     4.606	     0.027
455		454	  2075.556	   -10.781	     4.572	    -0.034
456		455	  2089.258	    13.702	     4.592	     0.020
457		456	  2108.209	    18.951	     4.623	     0.031
458		457	  2110.927	     2.718	     4.619	    -0.004
459		458	  2144.980	    34.053	     4.683	     0.064
460		459	  2129.416	   -15.564	     4.639	    -0.044
461		460	  2148.723	    19.307	     4.671	     0.032
462		461	  2168.170	    19.447	     4.703	     0.032
463		462	  2179.502	    11.332	     4.718	     0.014
464		463	  2172.643	    -6.859	     4.693	    -0.025
465		464	  2178.839	     6.196	     4.696	     0.003
466		465	  2182.984	     4.144	     4.695	    -0.001
467		466	  2213.056	    30.073	     4.749	     0.054
468		467	  2221.663	     8.606	     4.757	     0.008
469		468	  2237.309	    15.646	     4.781	     0.023
470		469	  2240.829	     3.520	     4.778	    -0.003
471		470	  2239.627	    -1.202	     4.765	    -0.013
472		471	  2255.333	    15.705	     4.788	     0.023
473		472	  2270.814	    15.481	     4.811	     0.023
474		473	  2272.894	     2.080	     4.805	    -0.006
475		474	  2273.752	     0.859	     4.797	    -0.008
476		475	  2296.618	    22.866	     4.835	     0.038
477		476	  2303.273	     6.655	     4.839	     0.004
478		477	  2318.345	    15.072	     4.860	     0.021
479		478	  2316.521	    -1.824	     4.846	    -0.014
480		479	  2351.914	    35.393	     4.910	     0.064
481		480	  2377.426	    25.512	     4.953	     0.043
482		481	  2366.044	   -11.382	     4.919	    -0.034
483		482	  2376.638	    10.595	     4.931	     0.012
484		483	  2373.495	    -3.144	     4.914	    -0.017
485		484	  2395.655	    22.160	     4.950	     0.036
486		485	  2413.524	    17.869	     4.976	     0.027
487		486	  2431.552	    18.028	     5.003	     0.027
488		487	  2428.956	    -2.596	     4.988	    -0.016
489		488	  2443.767	    14.811	     5.008	     0.020
490		489	  2480.326	    36.559	     5.072	     0.065
491		490	  2490.004	     9.678	     5.082	     0.009
492		491	  2517.684	    27.681	     5.128	     0.046
493		492	  2492.734	   -24.950	     5.067	    -0.061
494		493	  2485.869	    -6.865	     5.042	    -0.024
495		494	  2495.652	     9.783	     5.052	     0.010
496		495	  2504.885	     9.233	     5.060	     0.008
497		496	  2555.429	    50.544	     5.152	     0.092
498		497	  2588.603	    33.173	     5.208	     0.056
499		498	  2615.787	    27.184	     5.253	     0.044
500		499	  2611.238	    -4.549	     5.233	    -0.020
501		500	  2653.998	    42.760	     5.308	     0.075
502		501	  2639.282	   -14.716	     5.268	    -0.040
503		502	  2650.753	    11.471	     5.280	     0.012
504		503	  2610.436	   -40.318	     5.190	    -0.091
505		504	  2613.755	     3.320	     5.186	    -0.004
506		505	  2625.414	    11.659	     5.199	     0.013
507		506	  2635.291	     9.877	     5.208	     0.009
508		507	  2662.702	    27.411	     5.252	     0.044
509		508	  2652.983	    -9.719	     5.222	    -0.029
510		509	  2663.602	    10.619	     5.233	     0.011
511		510	  3047.011	   383.409	     5.975	     0.742
512		511	  3051.630	     4.619	     5.972	    -0.003
513		512	  3047.022	    -4.608	     5.951	    -0.021
514		513	  3071.705	    24.683	     5.988	     0.037
515		514	  3095.200	    23.495	     6.022	     0.034
516		515	  3081.093	   -14.106	     5.983	    -0.039
517		516	  3095.958	    14.865	     6.000	     0.017
518		517	  3108.758	    12.800	     6.013	     0.013
519		518	  3153.854	    45.096	     6.089	     0.075
520		519	  3141.686	   -12.169	     6.053	    -0.035
521		520	  3149.818	     8.132	     6.057	     0.004
522		521	  3184.522	    34.704	     6.112	     0.055
523		522	  3167.647	   -16.875	     6.068	    -0.044
524		523	  3192.239	    24.592	     6.104	     0.035
525		524	  3239.968	    47.729	     6.183	     0.079
526		525	  3216.774	   -23.194	     6.127	    -0.056
527		526	  3246.854	    30.080	     6.173	     0.046
528		527	  3236.068	   -10.785	     6.141	    -0.032
529		528	  3269.070	    33.002	     6.191	     0.051
530		529	  3263.024	    -6.046	     6.168	    -0.023
531		530	  3301.388	    38.364	     6.229	     0.061
532		531	  3327.483	    26.095	     6.266	     0.037
533		532	  3325.156	    -2.327	     6.250	    -0.016
534		533	  3349.651	    24.495	     6.285	     0.034
535		534	  3434.712	    85.061	     6.432	     0.148
536		535	  3493.210	    58.498	     6.529	     0.097
537		536	  3481.452	   -11.758	     6.495	    -0.034
538		537	  3471.610	    -9.842	     6.465	    -0.030
539		538	  3481.904	    10.294	     6.472	     0.007
540		539	  3614.518	   132.614	     6.706	     0.234
541		540	  3602.415	   -12.104	     6.671	    -0.035
542		541	  3581.601	   -20.814	     6.620	    -0.051
543		542	  3602.121	    20.520	     6.646	     0.026
544		543	  3629.460	    27.339	     6.684	     0.038
545		544	  3722.967	    93.508	     6.844	     0.160
546		545	  3679.426	   -43.542	     6.751	    -0.092
547		546	  3655.292	   -24.134	     6.695	    -0.057
548		547	  3672.610	    17.318	     6.714	     0.019
549		548	  3699.264	    26.653	     6.750	     0.036
550		549	  3692.667	    -6.597	     6.726	    -0.024
551		550	  3799.319	   106.652	     6.908	     0.182
552		551	  3758.160	   -41.160	     6.821	    -0.087
553		552	  3766.950	     8.791	     6.824	     0.004
554		553	  3774.967	     8.017	     6.826	     0.002
555		554	  3857.320	    82.352	     6.963	     0.136
556		555	  3848.822	    -8.498	     6.935	    -0.028
557		556	  3806.179	   -42.643	     6.846	    -0.089
558		557	  3842.787	    36.608	     6.899	     0.053
559		558	  3878.590	    35.804	     6.951	     0.052
560		559	  3846.039	   -32.552	     6.880	    -0.071
561		560	  3976.834	   130.795	     7.101	     0.221
562		561	  3892.483	   -84.351	     6.938	    -0.163
563		562	  4030.653	   138.170	     7.172	     0.234
564		563	  3934.038	   -96.616	     6.988	    -0.184
565		564	  4008.401	    74.363	     7.107	     0.119
566		565	  4024.855	    16.454	     7.124	     0.017
567		566	  3985.120	   -39.735	     7.041	    -0.083
568		567	  4034.068	    48.949	     7.115	     0.074
569		568	  4084.252	    50.183	     7.191	     0.076
570		569	  4048.687	   -35.565	     7.115	    -0.075
571		570	  4055.706	     7.019	     7.115	    -0.000
572		571	  4090.959	    35.253	     7.165	     0.049
573		572	  4078.887	   -12.071	     7.131	    -0.034
574		573	  4141.180	    62.293	     7.227	     0.096
575		574	  4098.088	   -43.092	     7.140	    -0.088
576		575	  4184.377	    86.289	     7.277	     0.138
577		576	  4166.250	   -18.128	     7.233	    -0.044
578		577	  4187.652	    21.403	     7.258	     0.025
579		578	  4230.645	    42.993	     7.319	     0.062
580		579	  4196.784	   -33.862	     7.248	    -0.071
581		580	  4186.193	   -10.591	     7.218	    -0.031
582		581	  4294.991	   108.799	     7.392	     0.175
583		582	  4280.969	   -14.022	     7.356	    -0.037
584		583	  4312.921	    31.952	     7.398	     0.042
585		584	  4261.750	   -51.171	     7.298	    -0.100
586		585	  4376.757	   115.007	     7.482	     0.184
587		586	  4332.982	   -43.775	     7.394	    -0.087
588		587	  4390.612	    57.630	     7.480	     0.086
589		588	  4364.317	   -26.294	     7.422	    -0.057
590		589	  4338.144	   -26.173	     7.365	    -0.057
591		590	  4375.845	    37.700	     7.417	     0.051
592		591	  4393.910	    18.065	     7.435	     0.018
593		592	  4396.784	     2.874	     7.427	    -0.008
594		593	  4431.322	    34.538	     7.473	     0.046
595		594	  4477.214	    45.892	     7.537	     0.065
596		595	  4430.490	   -46.724	     7.446	    -0.091
597		596	  4493.296	    62.806	     7.539	     0.093
598		597	  4547.200	    53.904	     7.617	     0.078
599		598	  4504.818	   -42.382	     7.533	    -0.084
600		599	  4511.540	     6.722	     7.532	    -0.001
601		600	  4525.956	    14.416	     7.543	     0.011
602		601	  4588.799	    62.842	     7.635	     0.092
603		602	  4648.752	    59.953	     7.722	     0.087
604		603	  4592.017	   -56.735	     7.615	    -0.107
605		604	  4576.628	   -15.389	     7.577	    -0.038
606		605	  4609.495	    32.867	     7.619	     0.042
607		606	  4609.617	     0.122	     7.607	    -0.012
608		607	  4699.621	    90.005	     7.742	     0.136
609		608	  4645.864	   -53.757	     7.641	    -0.101
610		609	  4676.616	    30.752	     7.679	     0.038
611		610	  4679.183	     2.567	     7.671	    -0.008
612		611	  4730.898	    51.715	     7.743	     0.072
613		612	  4729.577	    -1.321	     7.728	    -0.015
614		613	  4754.766	    25.189	     7.757	     0.028
615		614	  4831.272	    76.506	     7.869	     0.112
616		615	  4820.357	   -10.915	     7.838	    -0.031
617		616	  4859.889	    39.532	     7.889	     0.051
618		617	  4847.605	   -12.285	     7.857	    -0.033
619		618	  4844.342	    -3.263	     7.839	    -0.018
620		619	  4850.359	     6.017	     7.836	    -0.003
621		620	  4881.456	    31.097	     7.873	     0.038
622		621	  4938.557	    57.101	     7.953	     0.079
623		622	  4989.518	    50.961	     8.022	     0.069
624		623	  4944.432	   -45.086	     7.936	    -0.085
625		624	  4992.056	    47.624	     8.000	     0.064
626		625	  5014.379	    22.322	     8.023	     0.023
627		626	  5044.564	    30.186	     8.058	     0.035
628		627	  5035.433	    -9.132	     8.031	    -0.027
629		628	  5050.502	    15.069	     8.042	     0.011
630		629	  5100.547	    50.045	     8.109	     0.067
631		630	  5113.268	    12.721	     8.116	     0.007
632		631	  5137.107	    23.839	     8.141	     0.025
633		632	  5125.503	   -11.604	     8.110	    -0.031
634		633	  5203.960	    78.458	     8.221	     0.111
635		634	  5155.584	   -48.376	     8.132	    -0.089
636		635	  5229.743	    74.159	     8.236	     0.104
637		636	  5186.383	   -43.360	     8.155	    -0.081
638		637	  5247.594	    61.211	     8.238	     0.083
639		638	  5238.276	    -9.319	     8.210	    -0.028
640		639	  5297.198	    58.922	     8.290	     0.079
641		640	  5332.063	    34.865	     8.331	     0.042
642		641	  5357.059	    24.996	     8.357	     0.026
643		642	  5465.101	   108.043	     8.513	     0.155
644		643	  5395.460	   -69.642	     8.391	    -0.122
645		644	  5392.522	    -2.938	     8.373	    -0.018
646		645	  5435.028	    42.506	     8.426	     0.053
647		646	  5472.062	    37.034	     8.471	     0.044
648		647	  5460.476	   -11.585	     8.440	    -0.031
649		648	  5599.252	   138.776	     8.641	     0.201
650		649	  5548.382	   -50.870	     8.549	    -0.092
651		650	  5530.272	   -18.109	     8.508	    -0.041
652		651	  5591.565	    61.293	     8.589	     0.081
653		652	  5613.874	    22.309	     8.610	     0.021
654		653	  5587.813	   -26.061	     8.557	    -0.053
655		654	  5612.431	    24.618	     8.582	     0.025
656		655	  5637.819	    25.388	     8.607	     0.026
657		656	  5702.945	    65.126	     8.694	     0.086
658		657	  5706.989	     4.045	     8.686	    -0.007
659		658	  5760.726	    53.737	     8.755	     0.068
660		659	  5733.528	   -27.199	     8.700	    -0.055
661		660	  5762.034	    28.506	     8.730	     0.030
662		661	  5729.671	   -32.362	     8.668	    -0.062
663		662	  5744.424	    14.752	     8.677	     0.009
664		663	  5822.242	    77.818	     8.782	     0.104
665		664	  5805.033	   -17.209	     8.743	    -0.039
666		665	  5842.789	    37.756	     8.786	     0.044
667		666	  5822.880	   -19.909	     8.743	    -0.043
668		667	  5839.072	    16.192	     8.754	     0.011
669		668	  5882.258	    43.186	     8.806	     0.052
670		669	  5891.563	     9.305	     8.807	     0.001
671		670	  6010.159	   118.596	     8.970	     0.164
672		671	  5943.168	   -66.991	     8.857	    -0.113
673		672	  5983.868	    40.700	     8.905	     0.047
674		673	  6037.749	    53.880	     8.971	     0.067
675		674	  6007.151	   -30.598	     8.913	    -0.059
676		675	  6019.907	    12.756	     8.918	     0.006
677		676	  6053.561	    33.655	     8.955	     0.037
678		677	  6072.487	    18.925	     8.970	     0.015
679		678	  6083.342	    10.855	     8.972	     0.003
680		679	  6084.720	     1.379	     8.961	    -0.011
681		680	  6193.587	   108.867	     9.108	     0.147
682		681	  6207.316	    13.729	     9.115	     0.007
683		682	  6250.173	    42.856	     9.164	     0.049
684		683	  6229.081	   -21.092	     9.120	    -0.044
685		684	  6239.699	    10.618	     9.122	     0.002
686		685	  6287.242	    47.543	     9.178	     0.056
687		686	  6313.933	    26.691	     9.204	     0.026
688		687	  6322.287	     8.354	     9.203	    -0.001
689		688	  6342.761	    20.474	     9.219	     0.016
690		689	  6395.592	    52.831	     9.282	     0.063
691		690	  6416.868	    21.276	     9.300	     0.017
692		691	  6397.351	   -19.517	     9.258	    -0.042
693		692	  6440.778	    43.427	     9.307	     0.049
694		693	  6518.423	    77.645	     9.406	     0.099
695		694	  6454.607	   -63.816	     9.301	    -0.106
696		695	  6485.166	    30.559	     9.331	     0.031
697		696	  6493.033	     7.867	     9.329	    -0.002
698		697	  6548.846	    55.813	     9.396	     0.067
699		698	  6547.301	    -1.545	     9.380	    -0.016
700		699	  6554.023	     6.722	     9.376	    -0.004
701		700	  6618.825	    64.802	     9.455	     0.079
702		701	  6673.855	    55.030	     9.520	     0.065
703		702	  6617.429	   -56.426	     9.427	    -0.094
704		703	  6642.944	    25.515	     9.449	     0.023
705		704	  6690.596	    47.652	     9.504	     0.054
706		705	  6732.093	    41.497	     9.549	     0.045
707		706	  6813.649	    81.556	     9.651	     0.102
708		707	  6764.981	   -48.669	     9.569	    -0.082
709		708	  6797.570	    32.589	     9.601	     0.033
710		709	  6817.649	    20.080	     9.616	     0.015
711		710	  6846.554	    28.905	     9.643	     0.027
712		711	  6851.193	     4.639	     9.636	    -0.007
713		712	  6896.660	    45.467	     9.686	     0.050
714		713	  6891.669	    -4.992	     9.666	    -0.021
715		714	  6933.085	    41.416	     9.710	     0.044
716		715	  6947.597	    14.512	     9.717	     0.007
717		716	  6987.476	    39.879	     9.759	     0.042
718		717	  7030.262	    42.786	     9.805	     0.046
719		718	  7045.441	    15.179	     9.813	     0.007
720		719	  7062.333	    16.892	     9.822	     0.010
721		720	  7147.897	    85.564	     9.928	     0.105
722		721	  7066.641	   -81.256	     9.801	    -0.126
723		722	  7101.539	    34.898	     9.836	     0.035
724		723	  7175.418	    73.878	     9.925	     0.089
725		724	  7213.638	    38.220	     9.964	     0.039
726		725	  7256.916	    43.278	    10.010	     0.046
727		726	  7228.428	   -28.488	     9.957	    -0.053
728		727	  7250.618	    22.190	     9.973	     0.017
729		728	  7254.469	     3.851	     9.965	    -0.008
730		729	  7307.484	    53.015	    10.024	     0.059
731		730	  7275.858	   -31.626	     9.967	    -0.057
732		731	  7358.848	    82.990	    10.067	     0.100
733		732	  7368.638	     9.790	    10.066	    -0.000
734		733	  7415.696	    47.058	    10.117	     0.050
735		734	  7493.805	    78.109	    10.210	     0.093
736		735	  7502.293	     8.489	    10.207	    -0.002
737		736	  7509.366	     7.072	    10.203	    -0.004
738		737	  7534.015	    24.650	    10.223	     0.020
739		738	  7570.417	    36.402	    10.258	     0.035
740		739	  7691.467	   121.050	    10.408	     0.150
741		740	  7727.528	    36.061	    10.443	     0.035
742		741	  7804.166	    76.638	    10.532	     0.089
743		742	  7866.764	    62.598	    10.602	     0.070
744		743	  7779.222	   -87.542	    10.470	    -0.132
745		744	  7805.465	    26.243	    10.491	     0.021
746		745	  7893.907	    88.442	    10.596	     0.105
747		746	  7809.728	   -84.179	    10.469	    -0.127
748		747	  7860.448	    50.719	    10.523	     0.054
749		748	  8087.304	   226.856	    10.812	     0.289
750		749	  8074.728	   -12.576	    10.781	    -0.031
751		750	  8064.757	    -9.970	    10.753	    -0.028
752		751	  8166.765	   102.008	    10.875	     0.122
753		752	  8197.208	    30.443	    10.901	     0.026
754		753	  8313.638	   116.429	    11.041	     0.140
755		754	  8281.967	   -31.671	    10.984	    -0.057
756		755	  8220.347	   -61.620	    10.888	    -0.096
757		756	  8309.197	    88.850	    10.991	     0.103
758		757	  8249.778	   -59.419	    10.898	    -0.093
759		758	  8347.473	    97.695	    11.012	     0.115
760		759	  8288.713	   -58.760	    10.921	    -0.092
761		760	  8210.177	   -78.536	    10.803	    -0.118
762		761	  8321.954	   111.777	    10.936	     0.133
763		762	  8358.969	    37.015	    10.970	     0.034
764		763	  8284.787	   -74.182	    10.858	    -0.112
765		764	  8415.642	   130.855	    11.015	     0.157
766		765	  8388.341	   -27.302	    10.965	    -0.050
767		766	  8582.399	   194.058	    11.204	     0.239
768		767	  8406.088	  -176.311	    10.960	    -0.244
769		768	  8517.124	   111.037	    11.090	     0.130
770		769	  8556.273	    39.149	    11.126	     0.036
771		770	  8659.476	   103.203	    11.246	     0.120
772		771	  8634.260	   -25.216	    11.199	    -0.047
773		772	  8648.206	    13.946	    11.202	     0.004
774		773	  8701.498	    53.292	    11.257	     0.054
775		774	  8751.026	    49.528	    11.306	     0.049
776		775	  8731.851	   -19.176	    11.267	    -0.039
777		776	  8823.396	    91.545	    11.370	     0.103
778		777	  8848.658	    25.262	    11.388	     0.018
779		778	  8822.331	   -26.328	    11.340	    -0.048
780		779	  8939.000	   116.670	    11.475	     0.135
781		780	  8938.994	    -0.006	    11.460	    -0.015
782		781	  8868.671	   -70.323	    11.356	    -0.105
783		782	  8925.082	    56.411	    11.413	     0.058
784		783	  9034.482	   109.401	    11.538	     0.125
785		784	  8982.312	   -52.170	    11.457	    -0.081
786		785	  9050.847	    68.534	    11.530	     0.073
787		786	  9178.655	   127.809	    11.678	     0.148
788		787	  9071.381	  -107.274	    11.527	    -0.151
789		788	  9091.374	    19.993	    11.537	     0.011
790		789	  9164.805	    73.431	    11.616	     0.078
791		790	  9251.455	    86.650	    11.711	     0.095
792		791	  9283.102	    31.647	    11.736	     0.025
793		792	  9265.489	   -17.612	    11.699	    -0.037
794		793	  9237.140	   -28.349	    11.648	    -0.051
795		794	  9257.346	    20.205	    11.659	     0.011
796		795	  9314.981	    57.636	    11.717	     0.058
797		796	  9363.772	    48.790	    11.764	     0.047
798		797	  9374.314	    10.543	    11.762	    -0.002
799		798	  9446.218	    71.904	    11.837	     0.075
800		799	  9482.867	    36.649	    11.868	     0.031
801		800	  9473.636	    -9.231	    11.842	    -0.026
802		801	  9476.103	     2.467	    11.830	    -0.012
803		802	  9503.714	    27.611	    11.850	     0.020
804		803	  9547.572	    43.858	    11.890	     0.040
805		804	  9628.087	    80.515	    11.975	     0.085
806		805	  9605.495	   -22.592	    11.932	    -0.043
807		806	  9670.256	    64.761	    11.998	     0.066
808		807	  9906.046	   235.790	    12.275	     0.277
809		808	  9779.677	  -126.370	    12.104	    -0.172
810		809	  9713.990	   -65.686	    12.007	    -0.096
811		810	  9735.293	    21.303	    12.019	     0.011
812		811	  9794.950	    59.658	    12.078	     0.059
813		812	  9812.066	    17.115	    12.084	     0.006
814		813	  9843.856	    31.791	    12.108	     0.024
815		814	  9903.823	    59.967	    12.167	     0.059
816		815	  9905.870	     2.047	    12.154	    -0.012
817		816	  9959.492	    53.622	    12.205	     0.051
818		817	 10023.321	    63.829	    12.268	     0.063
819		818	 10046.576	    23.255	    12.282	     0.013
820		819	 10013.576	   -33.000	    12.227	    -0.055
821		820	 10050.894	    37.318	    12.257	     0.031
822		821	 10087.558	    36.664	    12.287	     0.030
823		822	 10096.184	     8.626	    12.282	    -0.004
824		823	 10291.065	   194.881	    12.504	     0.222
825		824	 10220.192	   -70.873	    12.403	    -0.101
826		825	 10210.667	    -9.526	    12.377	    -0.027
827		826	 10328.817	   118.150	    12.505	     0.128
828		827	 10304.113	   -24.704	    12.460	    -0.045
829		828	 10493.701	   189.588	    12.674	     0.214
830		829	 10583.475	    89.774	    12.767	     0.093
831		830	 10620.970	    37.495	    12.796	     0.030
832		831	 10584.318	   -36.652	    12.737	    -0.060
833		832	 10466.266	  -118.052	    12.580	    -0.157
834		833	 10473.748	     7.482	    12.574	    -0.006
835		834	 10565.880	    92.132	    12.669	     0.095
836		835	 10523.240	   -42.640	    12.603	    -0.066
837		836	 10527.618	     4.378	    12.593	    -0.010
838		837	 10570.189	    42.571	    12.629	     0.036
839		838	 10553.863	   -16.327	    12.594	    -0.035
840		839	 10704.702	   150.840	    12.759	     0.165
841		840	 10701.962	    -2.740	    12.740	    -0.018
842		841	 10794.813	    92.851	    12.836	     0.095
843		842	 10811.671	    16.858	    12.840	     0.005
844		843	 10980.852	   169.181	    13.026	     0.185
845		844	 10836.733	  -144.119	    12.840	    -0.186
846		845	 10859.248	    22.516	    12.851	     0.011
847		846	 10884.431	    25.182	    12.866	     0.015
848		847	 11005.104	   120.673	    12.993	     0.127
849		848	 11025.547	    20.443	    13.002	     0.009
850		849	 11063.950	    38.403	    13.032	     0.030
851		850	 11019.984	   -43.966	    12.965	    -0.067
852		851	 11055.499	    35.516	    12.991	     0.026
853		852	 11143.651	    88.151	    13.079	     0.088
854		853	 11174.584	    30.933	    13.100	     0.021
855		854	 11175.227	     0.643	    13.086	    -0.015
856		855	 11201.506	    26.278	    13.101	     0.015
857		856	 11244.195	    42.689	    13.136	     0.035
858		857	 11247.224	     3.030	    13.124	    -0.012
859		858	 11292.423	    45.198	    13.161	     0.037
860		859	 11301.184	     8.762	    13.156	    -0.005
861		860	 11334.650	    33.465	    13.180	     0.024
862		861	 11445.269	   110.620	    13.293	     0.113
863		862	 11417.092	   -28.178	    13.245	    -0.048
864		863	 11553.445	   136.353	    13.388	     0.143
865		864	 11516.697	   -36.747	    13.330	    -0.058
866		865	 11614.073	    97.376	    13.427	     0.097
867		866	 11613.722	    -0.351	    13.411	    -0.016
868		867	 11676.623	    62.901	    13.468	     0.057
869		868	 11888.577	   211.955	    13.697	     0.229
870		869	 11868.371	   -20.207	    13.658	    -0.039
871		870	 11919.017	    50.647	    13.700	     0.043
872		871	 11824.511	   -94.507	    13.576	    -0.124
873		872	 11805.494	   -19.017	    13.538	    -0.037
874		873	 12004.363	   198.869	    13.751	     0.212
875		874	 11919.733	   -84.630	    13.638	    -0.113
876		875	 12105.289	   185.556	    13.835	     0.196
877		876	 12138.168	    32.878	    13.856	     0.022
878		877	 12196.660	    58.493	    13.907	     0.051
879		878	 12039.614	  -157.046	    13.713	    -0.195
880		879	 11977.442	   -62.172	    13.626	    -0.086
881		880	 12082.517	   105.075	    13.730	     0.104
882		881	 12072.756	    -9.761	    13.703	    -0.027
883		882	 12056.266	   -16.490	    13.669	    -0.034
884		883	 12096.385	    40.119	    13.699	     0.030
885		884	 12118.754	    22.369	    13.709	     0.010
886		885	 12179.819	    61.064	    13.763	     0.054
887		886	 12190.418	    10.600	    13.759	    -0.004
888		887	 12273.394	    82.975	    13.837	     0.078
889		888	 12310.738	    37.344	    13.863	     0.026
890		889	 12512.629	   201.891	    14.075	     0.212
891		890	 12392.472	  -120.157	    13.924	    -0.151
892		891	 12377.871	   -14.601	    13.892	    -0.032
893		892	 12571.637	   193.766	    14.094	     0.202
894		893	 12495.163	   -76.473	    13.992	    -0.101
895		894	 12507.727	    12.564	    13.991	    -0.002
896		895	 12531.762	    24.035	    14.002	     0.011
897		896	 12563.092	    31.330	    14.021	     0.019
898		897	 12606.282	    43.190	    14.054	     0.033
899		898	 12602.865	    -3.417	    14.034	    -0.019
900		899	 12702.001	    99.136	    14.129	     0.095
901		900	 12666.447	   -35.554	    14.074	    -0.055
902		901	 12768.750	   102.303	    14.172	     0.098
903		902	 12705.500	   -63.250	    14.086	    -0.086
904		903	 12800.980	    95.480	    14.176	     0.090
905		904	 12837.724	    36.744	    14.201	     0.025
906		905	 12886.975	    49.251	    14.240	     0.039
907		906	 12901.658	    14.683	    14.240	     0.000
908		907	 12954.148	    52.490	    14.282	     0.042
909		908	 13028.668	    74.520	    14.349	     0.066
910		909	 13000.267	   -28.401	    14.302	    -0.047
911		910	 13082.407	    82.140	    14.376	     0.075
912		911	 13161.278	    78.870	    14.447	     0.071
913		912	 13183.953	    22.676	    14.456	     0.009
914		913	 13282.894	    98.941	    14.549	     0.093
915		914	 13201.621	   -81.273	    14.444	    -0.105
916		915	 13281.211	    79.590	    14.515	     0.071
917		916	 13341.073	    59.863	    14.564	     0.050
918		917	 13280.798	   -60.275	    14.483	    -0.082
919		918	 13339.589	    58.791	    14.531	     0.048
920		919	 13377.906	    38.317	    14.557	     0.026
921		920	 13415.550	    37.644	    14.582	     0.025
922		921	 13424.090	     8.540	    14.576	    -0.007
923		922	 13461.012	    36.922	    14.600	     0.024
924		923	 13540.595	    79.582	    14.670	     0.070
925		924	 13525.024	   -15.570	    14.637	    -0.033
926		925	 13652.719	   127.695	    14.760	     0.122
927		926	 13672.642	    19.923	    14.765	     0.006
928		927	 13706.900	    34.258	    14.786	     0.021
929		928	 13713.034	     6.133	    14.777	    -0.009
930		929	 13830.695	   117.661	    14.888	     0.111
931		930	 14131.901	   301.206	    15.196	     0.308
932		931	 14290.341	   158.440	    15.349	     0.154
933		932	 14288.340	    -2.002	    15.331	    -0.019
934		933	 13922.279	  -366.060	    14.922	    -0.409
935		934	 14037.649	   115.370	    15.030	     0.108
936		935	 14022.779	   -14.871	    14.998	    -0.032
937		936	 14179.313	   156.534	    15.149	     0.151
938		937	 14101.499	   -77.814	    15.050	    -0.099
939		938	 14194.400	    92.901	    15.133	     0.083
940		939	 14089.330	  -105.070	    15.005	    -0.128
941		940	 14045.197	   -44.134	    14.942	    -0.063
942		941	 14096.311	    51.115	    14.980	     0.038
943		942	 14144.939	    48.628	    15.016	     0.036
944		943	 14151.794	     6.855	    15.007	    -0.009
945		944	 14169.196	    17.402	    15.010	     0.003
946		945	 14240.234	    71.038	    15.069	     0.059
947		946	 14226.603	   -13.631	    15.039	    -0.030
948		947	 14280.568	    53.966	    15.080	     0.041
949		948	 14333.331	    52.763	    15.120	     0.040
950		949	 14288.158	   -45.173	    15.056	    -0.064
951		950	 14358.183	    70.024	    15.114	     0.058
952		951	 14466.214	   108.032	    15.212	     0.098
953		952	 14475.669	     9.454	    15.206	    -0.006
954		953	 14496.599	    20.930	    15.212	     0.006
955		954	 14595.086	    98.487	    15.299	     0.087
956		955	 14543.723	   -51.363	    15.229	    -0.070
957		956	 14634.436	    90.713	    15.308	     0.079
958		957	 14699.701	    65.265	    15.360	     0.052
959		958	 14696.672	    -3.029	    15.341	    -0.019
960		959	 14753.762	    57.090	    15.385	     0.044
961		960	 14776.724	    22.962	    15.392	     0.008
962		961	 14815.134	    38.410	    15.416	     0.024
963		962	 14879.074	    63.940	    15.467	     0.050
964		963	 14898.119	    19.044	    15.471	     0.004
965		964	 14932.803	    34.684	    15.490	     0.020
966		965	 14969.967	    37.164	    15.513	     0.022
967		966	 15027.189	    57.221	    15.556	     0.043
968		967	 15071.325	    44.137	    15.586	     0.030
969		968	 15087.891	    16.566	    15.587	     0.001
970		969	 15194.074	   106.183	    15.680	     0.093
971		970	 15203.930	     9.855	    15.674	    -0.006
972		971	 15129.395	   -74.534	    15.581	    -0.093
973		972	 15189.830	    60.434	    15.627	     0.046
974		973	 15253.918	    64.089	    15.677	     0.050
975		974	 15335.313	    81.394	    15.745	     0.067
976		975	 15334.560	    -0.753	    15.728	    -0.017
977		976	 15367.794	    33.234	    15.746	     0.018
978		977	 15432.895	    65.101	    15.796	     0.051
979		978	 15528.777	    95.883	    15.878	     0.082
980		979	 15489.133	   -39.644	    15.821	    -0.057
981		980	 15506.197	    17.065	    15.823	     0.001
982		981	 15597.464	    91.267	    15.900	     0.077
983		982	 15632.696	    35.232	    15.919	     0.020
984		983	 15641.849	     9.153	    15.912	    -0.007
985		984	 15715.127	    73.278	    15.971	     0.058
986		985	 15744.199	    29.072	    15.984	     0.013
987		986	 15793.795	    49.595	    16.018	     0.034
988		987	 15832.929	    39.134	    16.041	     0.023
989		988	 15963.876	   130.947	    16.158	     0.116
990		989	 15961.252	    -2.624	    16.139	    -0.019
991		990	 16121.510	   160.258	    16.284	     0.146
992		991	 16057.189	   -64.321	    16.203	    -0.081
993		992	 16153.660	    96.471	    16.284	     0.081
994		993	 16233.062	    79.402	    16.347	     0.064
995		994	 16193.447	   -39.615	    16.291	    -0.056
996		995	 16220.253	    26.807	    16.302	     0.011
997		996	 16300.489	    80.236	    16.366	     0.064
998		997	 16098.092	  -202.397	    16.147	    -0.219
999		998	 15820.153	  -277.940	    15.852	    -0.295
1000		999	 15845.987	    25.835	    15.862	     0.010
1001		1000	 15910.464	    64.476	    15.910	     0.049
