> promela file    : ../mem_cache/spin_code/mem_cache_100.pml
> date            : 27-Jan-2021 19:25:31
> spin version    : Spin Version 6.5.1 -- 31 July 2020
> gcc version     : 8
> runspin command : runspin ../mem_cache/spin_code/mem_cache_100.pml
> config source   : default commands for a safety verification run
> spin command    : spin -a
> gcc command     : gcc -o pan -DVECTORSZ=4096 -DSAFETY -DMEMLIM=8192 pan.c
> pan command     : ./pan -m100000 -c1 -w19 -n

(Spin Version 6.5.1 -- 31 July 2020)
	+ Partial Order Reduction

Full statespace search for:
	never claim         	- (none specified)
	assertion violations	+
	cycle checks       	- (disabled by -DSAFETY)
	invalid end states	+

State-vector 2644 byte, depth reached 108, errors: 0
      407 states, stored
      101 states, matched
      508 transitions (= stored+matched)
        0 atomic steps
hash conflicts:         0 (resolved)

Stats on memory usage (in Megabytes):
    1.037	equivalent memory usage for states (stored*(State-vector + overhead))
    1.779	actual memory usage for states
    4.000	memory used for hash table (-w19)
    5.341	memory used for DFS stack (-m100000)
   10.903	total actual memory usage



pan: elapsed time 0 seconds

real	0m0.026s
user	0m0.010s
sys	0m0.003s
