> promela file    : ../mem_cache/spin_code/mem_cache_104.pml
> date            : 27-Jan-2021 19:25:38
> spin version    : Spin Version 6.5.1 -- 31 July 2020
> gcc version     : 8
> runspin command : runspin ../mem_cache/spin_code/mem_cache_104.pml
> config source   : default commands for a safety verification run
> spin command    : spin -a
> gcc command     : gcc -o pan -DVECTORSZ=4096 -DSAFETY -DMEMLIM=8192 pan.c
> pan command     : ./pan -m100000 -c1 -w19 -n

(Spin Version 6.5.1 -- 31 July 2020)
	+ Partial Order Reduction

Full statespace search for:
	never claim         	- (none specified)
	assertion violations	+
	cycle checks       	- (disabled by -DSAFETY)
	invalid end states	+

State-vector 2748 byte, depth reached 112, errors: 0
      423 states, stored
      105 states, matched
      528 transitions (= stored+matched)
        0 atomic steps
hash conflicts:         0 (resolved)

Stats on memory usage (in Megabytes):
    1.120	equivalent memory usage for states (stored*(State-vector + overhead))
    1.771	actual memory usage for states
    4.000	memory used for hash table (-w19)
    5.341	memory used for DFS stack (-m100000)
   10.903	total actual memory usage



pan: elapsed time 0.01 seconds

real	0m0.027s
user	0m0.007s
sys	0m0.007s
