> promela file    : ../logging/spin_code/logging_48.pml
> date            : 27-Jan-2021 23:15:35
> spin version    : Spin Version 6.5.1 -- 31 July 2020
> gcc version     : 8
> runspin command : runspin ../logging/spin_code/logging_48.pml
> config source   : default commands for a safety verification run
> spin command    : spin -a -b
> gcc command     : gcc -o pan -DVECTORSZ=4096 -DSAFETY -DMEMLIM=8192 pan.c
> pan command     : ./pan -m10000000 -c1 -w19 -n

(Spin Version 6.5.1 -- 31 July 2020)
	+ Partial Order Reduction

Full statespace search for:
	never claim         	- (none specified)
	assertion violations	+
	cycle checks       	- (disabled by -DSAFETY)
	invalid end states	+

State-vector 2188 byte, depth reached 60, errors: 0
      403 states, stored
       57 states, matched
      460 transitions (= stored+matched)
        0 atomic steps
hash conflicts:         0 (resolved)

Stats on memory usage (in Megabytes):
    0.852	equivalent memory usage for states (stored*(State-vector + overhead))
    1.413	actual memory usage for states
    4.000	memory used for hash table (-w19)
  534.058	memory used for DFS stack (-m10000000)
  539.230	total actual memory usage



pan: elapsed time 0 seconds

real	0m0.285s
user	0m0.024s
sys	0m0.244s
