2.000000000000000000e+00 1.237000000000000044e-01
3.000000000000000000e+00 2.303000000000000047e-01
4.000000000000000000e+00 4.749999999999999778e-01
5.000000000000000000e+00 8.714000000000000634e-01
6.000000000000000000e+00 1.340500000000000025e+00
7.000000000000000000e+00 1.987600000000000033e+00
8.000000000000000000e+00 2.841600000000000570e+00
9.000000000000000000e+00 3.941899999999999515e+00
1.000000000000000000e+01 5.290100000000000691e+00
1.100000000000000000e+01 6.928999999999999382e+00
1.200000000000000000e+01 8.826399999999999579e+00
1.300000000000000000e+01 1.170080000000000098e+01
1.400000000000000000e+01 1.459170000000000300e+01
1.500000000000000000e+01 1.784809999999999519e+01
1.600000000000000000e+01 2.183050000000000068e+01
1.700000000000000000e+01 4.656210000000000093e+01
1.800000000000000000e+01 3.128449999999999775e+01
1.900000000000000000e+01 5.533540000000000703e+01
2.000000000000000000e+01 4.430420000000000158e+01
2.100000000000000000e+01 4.895899999999999608e+01
2.200000000000000000e+01 7.633060000000000400e+01
2.300000000000000000e+01 8.976120000000000232e+01
2.400000000000000000e+01 7.205629999999999313e+01
2.500000000000000000e+01 9.790290000000000248e+01
2.600000000000000000e+01 1.218159000000000134e+02
2.700000000000000000e+01 1.303371999999999957e+02
2.800000000000000000e+01 1.456998000000000104e+02
2.900000000000000000e+01 1.562277999999999736e+02
3.000000000000000000e+01 1.825310999999999808e+02
3.100000000000000000e+01 2.087113000000000227e+02
3.200000000000000000e+01 2.207520999999999844e+02
3.300000000000000000e+01 2.270556999999999732e+02
