#Size	#Para	 Time		 Diff		 Proc		 Diff
4		2	     0.121	     0.121	     0.061	     0.061
8		3	     0.234	     0.112	     0.078	     0.017
14		4	     0.507	     0.273	     0.127	     0.049
22		5	     0.911	     0.405	     0.182	     0.056
32		6	     1.598	     0.687	     0.266	     0.084
44		7	     2.023	     0.424	     0.289	     0.023
58		8	     2.925	     0.902	     0.366	     0.077
74		9	     4.016	     1.091	     0.446	     0.081
92		10	     5.349	     1.333	     0.535	     0.089
112		11	     7.035	     1.686	     0.640	     0.105
134		12	     8.969	     1.934	     0.747	     0.108
158		13	    11.851	     2.882	     0.912	     0.164
184		14	    14.800	     2.949	     1.057	     0.146
212		15	    18.028	     3.229	     1.202	     0.145
242		16	    22.045	     4.016	     1.378	     0.176
274		17	    51.060	    29.016	     3.004	     1.626
308		18	    31.597	   -19.464	     1.755	    -1.248
344		19	    78.014	    46.417	     4.106	     2.351
382		20	    64.217	   -13.797	     3.211	    -0.895
422		21	    49.442	   -14.775	     2.354	    -0.856
464		22	    71.970	    22.528	     3.271	     0.917
508		23	    79.573	     7.602	     3.460	     0.188
554		24	    72.561	    -7.012	     3.023	    -0.436
602		25	    99.339	    26.778	     3.974	     0.950
652		26	   118.239	    18.900	     4.548	     0.574
704		27	   193.581	    75.342	     7.170	     2.622
758		28	   148.704	   -44.876	     5.311	    -1.859
814		29	   158.461	     9.757	     5.464	     0.153
872		30	   173.391	    14.930	     5.780	     0.316
932		31	   226.625	    53.234	     7.310	     1.531
994		32	   231.863	     5.238	     7.246	    -0.065
1058		33	   228.104	    -3.759	     6.912	    -0.333
