2.000000000000000000e+00 4.000000000000000000e+00
3.000000000000000000e+00 8.000000000000000000e+00
4.000000000000000000e+00 1.400000000000000000e+01
5.000000000000000000e+00 2.200000000000000000e+01
6.000000000000000000e+00 3.200000000000000000e+01
7.000000000000000000e+00 4.400000000000000000e+01
8.000000000000000000e+00 5.800000000000000000e+01
9.000000000000000000e+00 7.400000000000000000e+01
1.000000000000000000e+01 9.200000000000000000e+01
1.100000000000000000e+01 1.120000000000000000e+02
1.200000000000000000e+01 1.340000000000000000e+02
1.300000000000000000e+01 1.580000000000000000e+02
1.400000000000000000e+01 1.840000000000000000e+02
1.500000000000000000e+01 2.120000000000000000e+02
1.600000000000000000e+01 2.420000000000000000e+02
1.700000000000000000e+01 2.740000000000000000e+02
1.800000000000000000e+01 3.080000000000000000e+02
1.900000000000000000e+01 3.440000000000000000e+02
2.000000000000000000e+01 3.820000000000000000e+02
2.100000000000000000e+01 4.220000000000000000e+02
2.200000000000000000e+01 4.640000000000000000e+02
2.300000000000000000e+01 5.080000000000000000e+02
2.400000000000000000e+01 5.540000000000000000e+02
2.500000000000000000e+01 6.020000000000000000e+02
2.600000000000000000e+01 6.520000000000000000e+02
2.700000000000000000e+01 7.040000000000000000e+02
2.800000000000000000e+01 7.580000000000000000e+02
2.900000000000000000e+01 8.140000000000000000e+02
3.000000000000000000e+01 8.720000000000000000e+02
3.100000000000000000e+01 9.320000000000000000e+02
3.200000000000000000e+01 9.940000000000000000e+02
3.300000000000000000e+01 1.058000000000000000e+03
3.400000000000000000e+01 1.124000000000000000e+03
3.500000000000000000e+01 1.192000000000000000e+03
3.600000000000000000e+01 1.262000000000000000e+03
3.700000000000000000e+01 1.334000000000000000e+03
3.800000000000000000e+01 1.408000000000000000e+03
3.900000000000000000e+01 1.484000000000000000e+03
4.000000000000000000e+01 1.562000000000000000e+03
4.100000000000000000e+01 1.642000000000000000e+03
4.200000000000000000e+01 1.724000000000000000e+03
4.300000000000000000e+01 1.808000000000000000e+03
4.400000000000000000e+01 1.894000000000000000e+03
4.500000000000000000e+01 1.982000000000000000e+03
4.600000000000000000e+01 2.072000000000000000e+03
4.700000000000000000e+01 2.164000000000000000e+03
4.800000000000000000e+01 2.258000000000000000e+03
4.900000000000000000e+01 2.354000000000000000e+03
5.000000000000000000e+01 2.452000000000000000e+03
5.100000000000000000e+01 2.552000000000000000e+03
5.200000000000000000e+01 2.654000000000000000e+03
5.300000000000000000e+01 2.758000000000000000e+03
5.400000000000000000e+01 2.864000000000000000e+03
5.500000000000000000e+01 2.972000000000000000e+03
5.600000000000000000e+01 3.082000000000000000e+03
5.700000000000000000e+01 3.194000000000000000e+03
5.800000000000000000e+01 3.308000000000000000e+03
5.900000000000000000e+01 3.424000000000000000e+03
6.000000000000000000e+01 3.542000000000000000e+03
6.100000000000000000e+01 3.662000000000000000e+03
6.200000000000000000e+01 3.784000000000000000e+03
6.300000000000000000e+01 3.908000000000000000e+03
6.400000000000000000e+01 4.034000000000000000e+03
