#Size	#Para	 Time		 Diff		 Proc		 Diff
4		2	     0.247	     0.247	     0.124	     0.124
8		3	     0.602	     0.354	     0.201	     0.077
14		4	     1.897	     1.295	     0.474	     0.274
22		5	     4.736	     2.840	     0.947	     0.473
32		6	    10.038	     5.301	     1.673	     0.726
44		7	    19.827	     9.789	     2.832	     1.159
58		8	    35.342	    15.515	     4.418	     1.585
74		9	    60.259	    24.917	     6.695	     2.278
92		10	    94.452	    34.193	     9.445	     2.750
112		11	   150.068	    55.615	    13.643	     4.197
134		12	   219.157	    69.090	    18.263	     4.621
158		13	   314.961	    95.803	    24.228	     5.965
184		14	   442.522	   127.561	    31.609	     7.381
212		15	   633.578	   191.056	    42.239	    10.630
242		16	   844.375	   210.797	    52.773	    10.535
274		17	  1109.039	   264.664	    65.238	    12.464
308		18	  1436.556	   327.517	    79.809	    14.571
344		19	  1842.214	   405.658	    96.959	    17.150
382		20	  2322.472	   480.258	   116.124	    19.165
422		21	  2902.218	   579.746	   138.201	    22.077
464		22	  3589.767	   687.549	   163.171	    24.970
508		23	  4397.352	   807.585	   191.189	    28.018
554		24	  5437.963	  1040.611	   226.582	    35.393
602		25	  6480.585	  1042.621	   259.223	    32.642
652		26	  7758.987	  1278.402	   298.423	    39.199
704		27	  9221.804	  1462.818	   341.548	    43.126
758		28	 10923.517	  1701.712	   390.126	    48.577
814		29	 12875.664	  1952.148	   443.988	    53.863
872		30	 15121.163	  2245.498	   504.039	    60.050
932		31	 18015.574	  2894.411	   581.148	    77.109
994		32	 20866.414	  2850.840	   652.075	    70.928
1058		33	 24135.535	  3269.121	   731.380	    79.304
1124		34	 27683.797	  3548.262	   814.229	    82.849
1192		35	 31752.447	  4068.650	   907.213	    92.983
1262		36	 36178.672	  4426.225	  1004.963	    97.750
1334		37	 41206.111	  5027.439	  1113.679	   108.716
1408		38	 46675.038	  5468.927	  1228.290	   114.612
1484		39	 52776.533	  6101.496	  1353.244	   124.954
1562		40	 59397.813	  6621.279	  1484.945	   131.701
1642		41	 66775.558	  7377.746	  1628.672	   143.727
1724		42	 74851.552	  8075.994	  1782.180	   153.508
1808		43	 83656.137	  8804.585	  1945.492	   163.312
1894		44	 93377.177	  9721.040	  2122.209	   176.717
1982		45	103816.313	 10439.135	  2307.029	   184.821
2072		46	115252.093	 11435.780	  2505.480	   198.451
2164		47	127817.411	 12565.319	  2719.519	   214.039
2258		48	141174.526	 13357.115	  2941.136	   221.617
2354		49	155870.205	 14695.679	  3181.025	   239.889
2452		50	171636.478	 15766.273	  3432.730	   251.705
2552		51	187496.962	 15860.484	  3676.411	   243.681
2654		52	206071.085	 18574.123	  3962.905	   286.494
2758		53	225868.639	 19797.554	  4261.672	   298.767
2864		54	247382.863	 21514.224	  4581.164	   319.492
2972		55	271479.049	 24096.186	  4935.983	   354.819
3082		56	297638.437	 26159.388	  5314.972	   378.989
3194		57	324943.213	 27304.776	  5700.758	   385.786
3308		58	353596.902	 28653.690	  6096.498	   395.740
3424		59	384165.224	 30568.322	  6511.275	   414.777
3542		60	416884.450	 32719.226	  6948.074	   436.799
3662		61	442405.337	442405.337	  7252.547	  7252.547
3784		62	477474.893	 35069.556	  7701.208	   448.661
3908		63	562055.328	 84580.435	  8921.513	  1220.305
4034		64	603562.184	 41506.856	  9430.659	   509.146
