#Size	#Para	 Time		 Diff		 Proc		 Diff
4		2	     0.170	     0.170	     0.085	     0.085
8		3	     0.633	     0.463	     0.211	     0.126
14		4	     1.857	     1.224	     0.464	     0.253
22		5	     4.906	     3.049	     0.981	     0.517
32		6	     9.865	     4.959	     1.644	     0.663
44		7	    19.273	     9.408	     2.753	     1.109
58		8	    34.069	    14.796	     4.259	     1.505
74		9	    60.953	    26.884	     6.773	     2.514
92		10	    90.956	    30.003	     9.096	     2.323
112		11	   139.902	    48.946	    12.718	     3.623
134		12	   214.674	    74.773	    17.890	     5.171
158		13	   304.210	    89.536	    23.401	     5.511
184		14	   425.938	   121.728	    30.424	     7.023
212		15	   608.801	   182.863	    40.587	    10.163
242		16	   819.246	   210.445	    51.203	    10.616
274		17	  1070.917	   251.671	    62.995	    11.792
308		18	  1385.182	   314.265	    76.955	    13.959
344		19	  1770.427	   385.246	    93.180	    16.226
382		20	  2230.966	   460.539	   111.548	    18.368
422		21	  2801.522	   570.555	   133.406	    21.857
464		22	  3454.087	   652.565	   157.004	    23.598
508		23	  4233.646	   779.559	   184.072	    27.068
554		24	  5145.396	   911.750	   214.391	    30.320
602		25	  6231.153	  1085.757	   249.246	    34.855
652		26	  7463.495	  1232.342	   287.057	    37.811
704		27	  8887.968	  1424.473	   329.184	    42.126
758		28	 10579.515	  1691.548	   377.840	    48.656
814		29	 12397.774	  1818.259	   427.509	    49.670
872		30	 14502.868	  2105.094	   483.429	    55.919
932		31	 17380.459	  2877.590	   560.660	    77.231
994		32	 20211.527	  2831.068	   631.610	    70.950
1058		33	 23282.242	  3070.715	   705.522	    73.912
1124		34	 26736.328	  3454.086	   786.363	    80.840
1192		35	 30733.346	  3997.018	   878.096	    91.733
1262		36	 35089.109	  4355.763	   974.697	    96.602
1334		37	 39781.250	  4692.140	  1075.169	   100.471
1408		38	 45145.187	  5363.937	  1188.031	   112.862
1484		39	 51004.669	  5859.482	  1307.812	   119.781
1562		40	 57409.083	  6404.415	  1435.227	   127.415
1642		41	 64556.419	  7147.336	  1574.547	   139.320
1724		42	 72322.790	  7766.371	  1721.971	   147.424
1808		43	 80857.746	  8534.955	  1880.413	   158.441
1894		44	 90253.837	  9396.091	  2051.224	   170.811
1982		45	100420.446	 10166.609	  2231.565	   180.342
2072		46	111525.552	 11105.106	  2424.469	   192.903
2164		47	123595.564	 12070.012	  2629.693	   205.224
2258		48	136540.740	 12945.177	  2844.599	   214.906
2354		49	150843.521	 14302.780	  3078.439	   233.840
2452		50	166279.018	 15435.497	  3325.580	   247.141
2552		51	182823.936	 16544.918	  3584.783	   259.203
2654		52	200819.584	 17995.648	  3861.915	   277.132
2758		53	220133.733	 19314.149	  4153.467	   291.552
2864		54	241032.333	 20898.600	  4463.562	   310.095
2972		55	263228.347	 22196.014	  4785.970	   322.408
3082		56	287247.393	 24019.046	  5129.418	   343.448
3194		57	312945.506	 25698.113	  5490.272	   360.854
3308		58	340636.717	 27691.211	  5873.047	   382.775
3424		59	370427.280	 29790.563	  6278.428	   405.382
3542		60	401700.392	 31273.112	  6695.007	   416.578
3662		61	441227.309	441227.309	  7233.235	  7233.235
3784		62	477911.659	 36684.350	  7708.253	   475.018
3908		63	561635.508	 83723.849	  8914.849	  1206.597
4034		64	603857.001	 42221.492	  9435.266	   520.416
