#Size	#Para	 Time		 Diff		 Proc		 Diff
3		2	     0.129	     0.129	     0.064	     0.064
4		3	     0.252	     0.123	     0.084	     0.020
5		4	     0.538	     0.286	     0.135	     0.051
6		5	     0.682	     0.144	     0.136	     0.002
7		6	     0.990	     0.308	     0.165	     0.029
8		7	     1.385	     0.395	     0.198	     0.033
9		8	     1.794	     0.409	     0.224	     0.026
10		9	     2.306	     0.512	     0.256	     0.032
11		10	     3.000	     0.694	     0.300	     0.044
12		11	     3.540	     0.539	     0.322	     0.022
13		12	     4.224	     0.684	     0.352	     0.030
14		13	     4.957	     0.733	     0.381	     0.029
15		14	     5.798	     0.840	     0.414	     0.033
16		15	     6.674	     0.876	     0.445	     0.031
17		16	     7.666	     0.993	     0.479	     0.034
18		17	     8.624	     0.958	     0.507	     0.028
19		18	     9.841	     1.216	     0.547	     0.039
20		19	    11.018	     1.178	     0.580	     0.033
21		20	    12.229	     1.211	     0.611	     0.032
22		21	    14.108	     1.879	     0.672	     0.060
23		22	    14.933	     0.824	     0.679	     0.007
24		23	    16.215	     1.283	     0.705	     0.026
25		24	    17.734	     1.519	     0.739	     0.034
26		25	    19.432	     1.698	     0.777	     0.038
27		26	    21.000	     1.568	     0.808	     0.030
28		27	    22.693	     1.693	     0.840	     0.033
29		28	    24.389	     1.696	     0.871	     0.031
30		29	    26.221	     1.831	     0.904	     0.033
31		30	    28.722	     2.501	     0.957	     0.053
32		31	    30.277	     1.555	     0.977	     0.019
33		32	    32.559	     2.282	     1.017	     0.041
34		33	    34.318	     1.758	     1.040	     0.022
35		34	    36.545	     2.227	     1.075	     0.035
36		35	    38.832	     2.287	     1.109	     0.035
37		36	    41.052	     2.219	     1.140	     0.031
38		37	    43.666	     2.615	     1.180	     0.040
39		38	    46.311	     2.645	     1.219	     0.039
40		39	    49.178	     2.867	     1.261	     0.042
41		40	    51.881	     2.703	     1.297	     0.036
42		41	    54.228	     2.347	     1.323	     0.026
43		42	    57.537	     3.309	     1.370	     0.047
44		43	    59.595	     2.058	     1.386	     0.016
45		44	    62.689	     3.093	     1.425	     0.039
46		45	    66.305	     3.616	     1.473	     0.049
47		46	    69.544	     3.239	     1.512	     0.038
48		47	    72.182	     2.639	     1.536	     0.024
49		48	    75.434	     3.252	     1.572	     0.036
50		49	    78.153	     2.719	     1.595	     0.023
51		50	    81.285	     3.133	     1.626	     0.031
52		51	    85.247	     3.961	     1.672	     0.046
53		52	    89.008	     3.761	     1.712	     0.040
54		53	    92.418	     3.410	     1.744	     0.032
55		54	   184.173	    91.755	     3.411	     1.667
56		55	   193.847	     9.674	     3.524	     0.114
57		56	   200.843	     6.996	     3.586	     0.062
58		57	   205.171	     4.328	     3.599	     0.013
59		58	   215.908	    10.737	     3.723	     0.123
60		59	   223.379	     7.472	     3.786	     0.064
61		60	   228.599	     5.219	     3.810	     0.024
62		61	   238.728	    10.129	     3.914	     0.104
63		62	   244.530	     5.802	     3.944	     0.030
64		63	   256.993	    12.463	     4.079	     0.135
65		64	   264.346	     7.354	     4.130	     0.051
66		65	   268.155	     3.809	     4.125	    -0.005
67		66	   280.633	    12.478	     4.252	     0.127
68		67	   289.406	     8.773	     4.319	     0.067
69		68	   295.580	     6.175	     4.347	     0.027
70		69	   308.298	    12.718	     4.468	     0.121
71		70	   314.870	     6.572	     4.498	     0.030
72		71	   323.695	     8.826	     4.559	     0.061
73		72	   336.562	    12.867	     4.674	     0.115
74		73	   344.707	     8.145	     4.722	     0.048
75		74	   354.204	     9.497	     4.787	     0.065
76		75	   360.448	     6.243	     4.806	     0.019
77		76	   375.719	    15.271	     4.944	     0.138
78		77	   383.727	     8.008	     4.983	     0.040
79		78	   425.953	    42.227	     5.461	     0.477
80		79	   401.319	   -24.634	     5.080	    -0.381
81		80	   419.610	    18.291	     5.245	     0.165
82		81	   425.599	     5.989	     5.254	     0.009
83		82	   437.343	    11.744	     5.333	     0.079
84		83	   443.474	     6.130	     5.343	     0.010
85		84	   484.995	    41.521	     5.774	     0.431
86		85	   472.229	   -12.766	     5.556	    -0.218
87		86	   484.664	    12.434	     5.636	     0.080
88		87	   514.410	    29.746	     5.913	     0.277
89		88	   501.891	   -12.519	     5.703	    -0.209
90		89	   544.393	    42.502	     6.117	     0.413
91		90	   526.448	   -17.945	     5.849	    -0.267
92		91	   562.397	    35.949	     6.180	     0.331
93		92	   550.496	   -11.900	     5.984	    -0.197
94		93	   566.313	    15.816	     6.089	     0.106
95		94	   575.733	     9.421	     6.125	     0.035
96		95	   607.668	    31.935	     6.397	     0.272
97		96	   626.496	    18.828	     6.526	     0.129
98		97	   617.020	    -9.476	     6.361	    -0.165
99		98	   643.639	    26.619	     6.568	     0.207
100		99	   637.633	    -6.006	     6.441	    -0.127
101		100	   671.764	    34.131	     6.718	     0.277
102		101	   664.965	    -6.799	     6.584	    -0.134
103		102	   699.715	    34.749	     6.860	     0.276
104		103	   694.458	    -5.257	     6.742	    -0.118
105		104	   730.595	    36.137	     7.025	     0.283
106		105	   723.956	    -6.639	     6.895	    -0.130
107		106	   766.185	    42.229	     7.228	     0.333
108		107	   769.409	     3.223	     7.191	    -0.037
109		108	   768.586	    -0.823	     7.117	    -0.074
110		109	   795.847	    27.261	     7.301	     0.185
111		110	   795.623	    -0.224	     7.233	    -0.068
112		111	   826.491	    30.868	     7.446	     0.213
113		112	   843.522	    17.031	     7.531	     0.086
114		113	   855.616	    12.094	     7.572	     0.040
115		114	   860.216	     4.600	     7.546	    -0.026
116		115	   905.934	    45.718	     7.878	     0.332
117		116	   906.687	     0.752	     7.816	    -0.061
118		117	   921.614	    14.927	     7.877	     0.061
119		118	   919.584	    -2.030	     7.793	    -0.084
120		119	   937.109	    17.525	     7.875	     0.082
121		120	   975.197	    38.088	     8.127	     0.252
122		121	   987.592	    12.395	     8.162	     0.035
123		122	  1006.144	    18.552	     8.247	     0.085
124		123	  1022.174	    16.030	     8.310	     0.063
125		124	  1048.418	    26.244	     8.455	     0.145
126		125	  1051.343	     2.925	     8.411	    -0.044
127		126	  1080.704	    29.361	     8.577	     0.166
128		127	  1081.882	     1.178	     8.519	    -0.058
129		128	  1118.080	    36.198	     8.735	     0.216
130		129	  1129.477	    11.397	     8.756	     0.021
131		130	  1085.067	   -44.410	     8.347	    -0.409
132		131	   700.546	  -384.521	     5.348	    -2.999
133		132	   618.553	   -81.993	     4.686	    -0.662
134		133	   628.675	    10.121	     4.727	     0.041
135		134	   622.345	    -6.330	     4.644	    -0.083
136		135	   645.504	    23.159	     4.782	     0.137
137		136	   655.228	     9.724	     4.818	     0.036
138		137	   677.473	    22.245	     4.945	     0.127
139		138	   676.976	    -0.497	     4.906	    -0.039
140		139	   688.345	    11.369	     4.952	     0.046
141		140	   697.109	     8.764	     4.979	     0.027
142		141	   704.270	     7.161	     4.995	     0.015
143		142	   717.984	    13.714	     5.056	     0.061
144		143	   739.334	    21.350	     5.170	     0.114
145		144	   737.840	    -1.494	     5.124	    -0.046
146		145	   759.896	    22.056	     5.241	     0.117
147		146	   766.638	     6.742	     5.251	     0.010
148		147	   784.329	    17.691	     5.336	     0.085
149		148	   791.827	     7.498	     5.350	     0.015
150		149	   800.172	     8.345	     5.370	     0.020
151		150	   811.087	    10.915	     5.407	     0.037
152		151	   827.556	    16.469	     5.481	     0.073
153		152	   837.891	    10.335	     5.512	     0.032
154		153	   858.864	    20.972	     5.613	     0.101
155		154	   874.503	    15.639	     5.679	     0.065
156		155	   879.842	     5.339	     5.676	    -0.002
157		156	   895.546	    15.704	     5.741	     0.064
158		157	   903.976	     8.430	     5.758	     0.017
159		158	   916.590	    12.614	     5.801	     0.043
160		159	   925.956	     9.366	     5.824	     0.022
161		160	   943.086	    17.131	     5.894	     0.071
162		161	   959.341	    16.255	     5.959	     0.064
163		162	   963.700	     4.359	     5.949	    -0.010
164		163	   974.401	    10.701	     5.978	     0.029
165		164	   986.007	    11.606	     6.012	     0.034
166		165	   997.065	    11.058	     6.043	     0.031
167		166	  1014.454	    17.388	     6.111	     0.068
168		167	  1032.564	    18.111	     6.183	     0.072
169		168	  1038.198	     5.634	     6.180	    -0.003
170		169	  1045.047	     6.849	     6.184	     0.004
171		170	  1066.869	    21.822	     6.276	     0.092
172		171	  1068.301	     1.431	     6.247	    -0.028
173		172	  1089.649	    21.348	     6.335	     0.088
174		173	  1097.199	     7.550	     6.342	     0.007
175		174	  1108.377	    11.178	     6.370	     0.028
176		175	  1128.184	    19.807	     6.447	     0.077
177		176	  1143.510	    15.327	     6.497	     0.050
178		177	  1158.674	    15.163	     6.546	     0.049
179		178	  1171.211	    12.538	     6.580	     0.034
180		179	  1180.106	     8.894	     6.593	     0.013
181		180	  1185.693	     5.587	     6.587	    -0.006
182		181	  1207.856	    22.163	     6.673	     0.086
183		182	  1238.643	    30.787	     6.806	     0.132
184		183	  1236.884	    -1.759	     6.759	    -0.047
185		184	  1235.767	    -1.117	     6.716	    -0.043
186		185	  1265.237	    29.470	     6.839	     0.123
187		186	  1278.290	    13.054	     6.873	     0.033
188		187	  1288.960	    10.670	     6.893	     0.020
189		188	  1307.646	    18.686	     6.956	     0.063
190		189	  1318.560	    10.914	     6.977	     0.021
191		190	  1342.483	    23.923	     7.066	     0.089
192		191	  1348.113	     5.630	     7.058	    -0.008
193		192	  1353.821	     5.708	     7.051	    -0.007
194		193	  1383.112	    29.290	     7.166	     0.115
195		194	  1383.061	    -0.051	     7.129	    -0.037
196		195	  1411.799	    28.738	     7.240	     0.111
197		196	  1416.613	     4.814	     7.228	    -0.012
198		197	  1428.481	    11.868	     7.251	     0.024
199		198	  1465.420	    36.939	     7.401	     0.150
200		199	  1466.801	     1.381	     7.371	    -0.030
201		200	  1484.751	    17.951	     7.424	     0.053
202		201	  1497.827	    13.076	     7.452	     0.028
203		202	  1513.927	    16.100	     7.495	     0.043
204		203	  1540.672	    26.745	     7.590	     0.095
205		204	  1542.042	     1.370	     7.559	    -0.030
206		205	  1560.052	    18.010	     7.610	     0.051
207		206	  1574.577	    14.525	     7.644	     0.034
208		207	  1593.206	    18.629	     7.697	     0.053
209		208	  1602.139	     8.932	     7.703	     0.006
210		209	  1635.097	    32.959	     7.823	     0.121
211		210	  1647.353	    12.256	     7.845	     0.021
212		211	  1665.085	    17.731	     7.891	     0.047
213		212	  1670.346	     5.261	     7.879	    -0.012
214		213	  1698.899	    28.553	     7.976	     0.097
215		214	  1708.491	     9.592	     7.984	     0.008
216		215	  1739.063	    30.572	     8.089	     0.105
217		216	  1768.434	    29.372	     8.187	     0.099
218		217	  1777.398	     8.964	     8.191	     0.004
219		218	  1799.364	    21.966	     8.254	     0.063
220		219	  1821.125	    21.761	     8.316	     0.062
221		220	  2071.462	   250.337	     9.416	     1.100
222		221	  3531.807	  1460.345	    15.981	     6.565
223		222	  3568.173	    36.366	    16.073	     0.092
224		223	  3577.376	     9.203	    16.042	    -0.031
225		224	  3649.841	    72.465	    16.294	     0.252
226		225	  3691.631	    41.790	    16.407	     0.113
227		226	  3715.906	    24.276	    16.442	     0.035
228		227	  3759.534	    43.628	    16.562	     0.120
229		228	  3807.348	    47.815	    16.699	     0.137
230		229	  3843.976	    36.627	    16.786	     0.087
231		230	  3867.686	    23.710	    16.816	     0.030
232		231	  3896.146	    28.460	    16.866	     0.050
233		232	  3934.693	    38.547	    16.960	     0.093
234		233	  3953.459	    18.766	    16.968	     0.008
235		234	  3994.469	    41.010	    17.070	     0.103
236		235	  4067.066	    72.596	    17.307	     0.236
237		236	  4113.943	    46.877	    17.432	     0.125
238		237	  4097.888	   -16.055	    17.291	    -0.141
239		238	  4144.589	    46.702	    17.414	     0.124
240		239	  4188.876	    44.286	    17.527	     0.112
241		240	  4217.671	    28.795	    17.574	     0.047
242		241	  4262.542	    44.872	    17.687	     0.113
243		242	  4261.334	    -1.209	    17.609	    -0.078
244		243	  4364.191	   102.857	    17.960	     0.351
245		244	  4363.251	    -0.940	    17.882	    -0.077
246		245	  4380.486	    17.235	    17.880	    -0.003
247		246	  4450.850	    70.365	    18.093	     0.213
248		247	  4458.947	     8.097	    18.052	    -0.040
249		248	  4508.708	    49.761	    18.180	     0.128
250		249	  4536.633	    27.925	    18.219	     0.039
251		250	  4585.400	    48.767	    18.342	     0.122
252		251	  4623.043	    37.643	    18.418	     0.077
253		252	  2828.167	 -1794.876	    11.223	    -7.196
254		253	  2471.246	  -356.921	     9.768	    -1.455
255		254	  2534.031	    62.785	     9.977	     0.209
256		255	  2556.384	    22.353	    10.025	     0.049
257		256	  2577.263	    20.879	    10.067	     0.042
258		257	  2627.951	    50.688	    10.225	     0.158
259		258	  2619.853	    -8.097	    10.154	    -0.071
260		259	  2637.411	    17.558	    10.183	     0.029
261		260	  2651.629	    14.218	    10.199	     0.016
262		261	  2662.259	    10.629	    10.200	     0.002
263		262	  2692.485	    30.226	    10.277	     0.076
264		263	  2731.111	    38.626	    10.384	     0.108
265		264	  2735.734	     4.623	    10.363	    -0.022
266		265	  2754.554	    18.820	    10.395	     0.032
267		266	  2773.093	    18.539	    10.425	     0.031
268		267	  2799.183	    26.090	    10.484	     0.059
269		268	  2825.660	    26.478	    10.544	     0.060
270		269	  2854.991	    29.330	    10.613	     0.070
271		270	  2862.474	     7.484	    10.602	    -0.012
272		271	  2874.528	    12.054	    10.607	     0.005
273		272	  2908.693	    34.164	    10.694	     0.087
274		273	  2985.609	    76.916	    10.936	     0.243
275		274	  2948.777	   -36.832	    10.762	    -0.174
276		275	  2977.379	    28.602	    10.827	     0.065
277		276	  2995.584	    18.205	    10.854	     0.027
278		277	  3016.492	    20.907	    10.890	     0.036
279		278	  3060.700	    44.208	    11.010	     0.120
280		279	  3060.679	    -0.020	    10.970	    -0.040
281		280	  3108.770	    48.090	    11.103	     0.133
282		281	  3142.827	    34.057	    11.184	     0.082
283		282	  3173.113	    30.286	    11.252	     0.068
284		283	  3181.398	     8.285	    11.242	    -0.010
285		284	  3215.916	    34.518	    11.324	     0.082
286		285	  3242.237	    26.321	    11.376	     0.053
287		286	  3251.643	     9.406	    11.369	    -0.007
288		287	  3275.501	    23.859	    11.413	     0.044
289		288	  3322.639	    47.138	    11.537	     0.124
290		289	  3307.303	   -15.336	    11.444	    -0.093
291		290	  3332.513	    25.210	    11.491	     0.047
292		291	  3387.022	    54.508	    11.639	     0.148
293		292	  3410.498	    23.477	    11.680	     0.041
294		293	  3415.779	     5.281	    11.658	    -0.022
295		294	  3437.586	    21.807	    11.692	     0.035
296		295	  3461.473	    23.887	    11.734	     0.041
297		296	  3500.296	    38.823	    11.825	     0.092
298		297	  3522.259	    21.963	    11.859	     0.034
299		298	  3535.252	    12.992	    11.863	     0.004
300		299	  3563.903	    28.651	    11.919	     0.056
301		300	  3596.303	    32.400	    11.988	     0.068
302		301	  3638.714	    42.411	    12.089	     0.101
303		302	  3665.441	    26.727	    12.137	     0.048
304		303	  3685.337	    19.896	    12.163	     0.026
305		304	  3728.255	    42.918	    12.264	     0.101
306		305	  3765.985	    37.730	    12.347	     0.083
307		306	  3770.591	     4.606	    12.322	    -0.025
308		307	  3789.490	    18.899	    12.344	     0.021
309		308	  6239.296	  2449.806	    20.257	     7.914
310		309	  7453.322	  1214.026	    24.121	     3.863
311		310	  7471.751	    18.429	    24.102	    -0.018
312		311	  7547.323	    75.572	    24.268	     0.165
313		312	  7638.130	    90.807	    24.481	     0.213
314		313	  7620.993	   -17.137	    24.348	    -0.133
315		314	  7676.084	    55.090	    24.446	     0.098
316		315	  7744.488	    68.404	    24.586	     0.140
317		316	  4406.818	 -3337.670	    13.946	   -10.640
318		317	  4040.749	  -366.070	    12.747	    -1.199
319		318	  4079.611	    38.862	    12.829	     0.082
320		319	  4094.548	    14.937	    12.836	     0.007
321		320	  4140.277	    45.729	    12.938	     0.103
322		321	  4149.267	     8.990	    12.926	    -0.012
323		322	  4172.207	    22.939	    12.957	     0.031
324		323	  4208.790	    36.583	    13.030	     0.073
325		324	  4234.139	    25.349	    13.068	     0.038
326		325	  4243.888	     9.749	    13.058	    -0.010
327		326	  4290.634	    46.746	    13.161	     0.103
328		327	  4309.852	    19.218	    13.180	     0.019
329		328	  4334.216	    24.364	    13.214	     0.034
330		329	  5257.584	   923.368	    15.980	     2.766
331		330	  8505.270	  3247.686	    25.774	     9.793
332		331	  8534.722	    29.452	    25.785	     0.011
333		332	  8532.137	    -2.585	    25.699	    -0.085
334		333	  8608.263	    76.127	    25.851	     0.151
335		334	  8642.800	    34.537	    25.877	     0.026
336		335	  8725.049	    82.248	    26.045	     0.168
337		336	  7378.580	 -1346.469	    21.960	    -4.085
338		337	  4618.813	 -2759.767	    13.706	    -8.254
339		338	  4620.247	     1.434	    13.669	    -0.036
340		339	  4695.400	    75.153	    13.851	     0.181
341		340	  4695.700	     0.299	    13.811	    -0.040
342		341	  4704.818	     9.118	    13.797	    -0.014
343		342	  4777.383	    72.565	    13.969	     0.172
344		343	  4813.501	    36.117	    14.034	     0.065
345		344	  4824.531	    11.030	    14.025	    -0.009
346		345	  4900.546	    76.015	    14.204	     0.180
347		346	  4906.665	     6.119	    14.181	    -0.023
348		347	  4913.700	     7.035	    14.161	    -0.021
349		348	  5207.431	   293.731	    14.964	     0.803
350		349	  9198.762	  3991.332	    26.357	    11.394
351		350	  9596.641	   397.878	    27.419	     1.061
352		351	  9541.280	   -55.361	    27.183	    -0.236
353		352	  9595.421	    54.141	    27.260	     0.077
354		353	  9776.123	   180.702	    27.694	     0.435
355		354	  9708.454	   -67.669	    27.425	    -0.269
356		355	  9995.883	   287.429	    28.157	     0.732
357		356	 10065.389	    69.506	    28.274	     0.116
358		357	 10038.952	   -26.437	    28.120	    -0.153
359		358	 10183.411	   144.459	    28.445	     0.325
360		359	 10239.156	    55.745	    28.521	     0.076
361		360	 10234.182	    -4.974	    28.428	    -0.093
362		361	 10358.375	   124.192	    28.694	     0.265
363		362	 10465.476	   107.101	    28.910	     0.217
364		363	 10438.941	   -26.535	    28.757	    -0.153
365		364	 10534.912	    95.971	    28.942	     0.185
366		365	 10602.484	    67.573	    29.048	     0.106
367		366	  8700.236	 -1902.248	    23.771	    -5.277
368		367	  5521.701	 -3178.535	    15.046	    -8.726
369		368	  5547.067	    25.367	    15.074	     0.028
370		369	  5549.511	     2.443	    15.039	    -0.034
371		370	  5610.265	    60.754	    15.163	     0.124
372		371	  5635.741	    25.477	    15.191	     0.028
373		372	  5647.662	    11.920	    15.182	    -0.009
374		373	  5728.176	    80.514	    15.357	     0.175
375		374	  5730.730	     2.554	    15.323	    -0.034
376		375	  5744.851	    14.121	    15.320	    -0.003
377		376	  5824.747	    79.895	    15.491	     0.172
378		377	  5850.761	    26.014	    15.519	     0.028
379		378	  5837.389	   -13.372	    15.443	    -0.076
380		379	  5914.374	    76.985	    15.605	     0.162
381		380	  5915.433	     1.059	    15.567	    -0.038
382		381	  5935.954	    20.521	    15.580	     0.013
383		382	  6006.377	    70.423	    15.723	     0.144
384		383	  5989.987	   -16.390	    15.640	    -0.084
385		384	  6033.590	    43.603	    15.712	     0.073
386		385	  6126.704	    93.114	    15.914	     0.201
387		386	  6138.841	    12.137	    15.904	    -0.010
388		387	  6134.514	    -4.327	    15.851	    -0.052
389		388	  6199.716	    65.202	    15.979	     0.127
390		389	 12139.969	  5940.253	    31.208	    15.229
391		390	 12210.084	    70.115	    31.308	     0.100
392		391	 12370.217	   160.133	    31.637	     0.329
393		392	 12397.195	    26.978	    31.625	    -0.012
394		393	 12338.783	   -58.412	    31.396	    -0.229
395		394	 12377.470	    38.687	    31.415	     0.019
396		395	 12471.865	    94.395	    31.574	     0.159
397		396	 12551.940	    80.075	    31.697	     0.122
398		397	  8974.552	 -3577.388	    22.606	    -9.091
399		398	  6543.373	 -2431.179	    16.441	    -6.165
400		399	  6593.427	    50.054	    16.525	     0.084
401		400	  6593.112	    -0.315	    16.483	    -0.042
402		401	  6667.245	    74.133	    16.627	     0.144
403		402	  6717.465	    50.220	    16.710	     0.084
404		403	  6706.242	   -11.223	    16.641	    -0.069
405		404	  6742.762	    36.520	    16.690	     0.049
406		405	  6819.183	    76.421	    16.837	     0.147
407		406	  6870.483	    51.300	    16.922	     0.085
408		407	  6905.578	    35.095	    16.967	     0.045
409		408	  6991.973	    86.395	    17.137	     0.170
410		409	  6958.965	   -33.008	    17.015	    -0.123
411		410	  7000.941	    41.976	    17.075	     0.061
412		411	 13593.821	  6592.880	    33.075	    16.000
413		412	 13116.178	  -477.643	    31.835	    -1.240
414		413	  7117.647	 -5998.531	    17.234	   -14.601
415		414	  7140.331	    22.683	    17.247	     0.013
416		415	  7259.163	   118.833	    17.492	     0.245
417		416	  7186.670	   -72.493	    17.276	    -0.216
418		417	  7282.834	    96.164	    17.465	     0.189
419		418	  7342.503	    59.669	    17.566	     0.101
420		419	  7323.753	   -18.750	    17.479	    -0.087
421		420	  7377.243	    53.490	    17.565	     0.086
422		421	  7559.042	   181.799	    17.955	     0.390
423		422	  7443.748	  -115.294	    17.639	    -0.316
424		423	  7549.981	   106.232	    17.849	     0.209
425		424	  7546.470	    -3.510	    17.798	    -0.050
426		425	  7564.668	    18.198	    17.799	     0.001
427		426	  7638.784	    74.116	    17.931	     0.132
428		427	 12091.895	  4453.111	    28.318	    10.387
429		428	 14922.445	  2830.550	    34.866	     6.547
430		429	 14840.498	   -81.947	    34.593	    -0.272
431		430	 14944.976	   104.478	    34.756	     0.163
432		431	 15076.202	   131.226	    34.980	     0.224
433		432	 15132.529	    56.327	    35.029	     0.049
434		433	 15092.756	   -39.773	    34.856	    -0.173
435		434	 15202.240	   109.484	    35.028	     0.172
436		435	 15211.627	     9.386	    34.969	    -0.059
437		436	 15233.084	    21.458	    34.938	    -0.031
438		437	 15391.336	   158.252	    35.220	     0.282
439		438	 15444.906	    53.571	    35.262	     0.042
440		439	 15531.829	    86.923	    35.380	     0.118
441		440	 15564.932	    33.103	    35.375	    -0.005
442		441	 15566.081	     1.149	    35.297	    -0.078
443		442	 15736.759	   170.677	    35.604	     0.306
444		443	 15907.894	   171.135	    35.909	     0.306
445		444	 15861.452	   -46.442	    35.724	    -0.185
446		445	 16072.345	   210.893	    36.118	     0.394
447		446	 16135.759	    63.414	    36.179	     0.061
448		447	 16034.380	  -101.378	    35.871	    -0.308
449		448	 16238.505	   204.125	    36.247	     0.376
450		449	 16330.204	    91.699	    36.370	     0.124
451		450	 16279.690	   -50.514	    36.177	    -0.193
452		451	 16473.882	   194.192	    36.527	     0.350
453		452	 16572.310	    98.429	    36.664	     0.137
454		453	 16472.788	   -99.523	    36.364	    -0.301
455		454	 14564.274	 -1908.514	    32.080	    -4.284
456		455	 16899.186	  2334.912	    37.141	     5.061
457		456	 16926.635	    27.449	    37.120	    -0.021
458		457	 16990.010	    63.375	    37.177	     0.057
459		458	 17059.833	    69.823	    37.249	     0.071
460		459	 17050.822	    -9.011	    37.148	    -0.101
461		460	 17247.877	   197.054	    37.495	     0.348
462		461	 17291.653	    43.777	    37.509	     0.014
463		462	 17278.844	   -12.809	    37.400	    -0.109
464		463	 14275.983	 -3002.861	    30.834	    -6.566
465		464	  8978.611	 -5297.372	    19.350	   -11.483
466		465	  9039.352	    60.742	    19.439	     0.089
467		466	  9297.213	   257.861	    19.951	     0.512
468		467	  9154.749	  -142.464	    19.603	    -0.348
469		468	  9263.650	   108.901	    19.794	     0.191
470		469	  9274.308	    10.658	    19.775	    -0.019
471		470	  9375.863	   101.555	    19.949	     0.174
472		471	  9382.507	     6.644	    19.920	    -0.028
473		472	 12963.586	  3581.079	    27.465	     7.545
474		473	 18271.523	  5307.936	    38.629	    11.164
475		474	 18504.820	   233.298	    39.040	     0.411
476		475	 18447.325	   -57.496	    38.836	    -0.203
477		476	 18634.537	   187.213	    39.148	     0.312
478		477	 18805.165	   170.627	    39.424	     0.276
479		478	 18691.012	  -114.153	    39.103	    -0.321
480		479	 18958.003	   266.991	    39.578	     0.476
481		480	 18885.805	   -72.198	    39.345	    -0.233
482		481	 19149.017	   263.211	    39.811	     0.465
483		482	 10781.587	 -8367.430	    22.368	   -17.442
484		483	  9946.774	  -834.814	    20.594	    -1.775
485		484	 10117.533	   170.760	    20.904	     0.310
486		485	  9939.277	  -178.257	    20.493	    -0.411
487		486	 10051.072	   111.796	    20.681	     0.188
488		487	 10042.374	    -8.698	    20.621	    -0.060
489		488	 10311.038	   268.664	    21.129	     0.508
490		489	 10080.076	  -230.963	    20.614	    -0.516
491		490	 10116.268	    36.193	    20.645	     0.032
492		491	 10358.059	   241.790	    21.096	     0.450
493		492	 10300.139	   -57.920	    20.935	    -0.161
494		493	 10305.798	     5.659	    20.904	    -0.031
495		494	 10456.349	   150.552	    21.167	     0.262
496		495	 10571.645	   115.296	    21.357	     0.190
497		496	 10500.416	   -71.230	    21.170	    -0.187
498		497	 10562.426	    62.011	    21.252	     0.082
499		498	 10529.864	   -32.562	    21.144	    -0.108
500		499	 10854.720	   324.856	    21.753	     0.609
501		500	 10534.677	  -320.043	    21.069	    -0.684
502		501	 10596.371	    61.694	    21.150	     0.081
503		502	 10808.108	   211.737	    21.530	     0.380
504		503	 10734.594	   -73.514	    21.341	    -0.189
505		504	 10793.472	    58.877	    21.416	     0.074
506		505	 10946.904	   153.433	    21.677	     0.261
507		506	 11023.280	    76.375	    21.785	     0.108
508		507	 10872.338	  -150.942	    21.444	    -0.341
509		508	 10963.131	    90.793	    21.581	     0.137
510		509	 11064.201	   101.070	    21.737	     0.156
511		510	 11507.465	   443.264	    22.564	     0.827
512		511	 18771.669	  7264.205	    36.735	    14.172
513		512	 22450.264	  3678.595	    43.848	     7.113
514		513	 22461.814	    11.549	    43.785	    -0.063
515		514	 22744.899	   283.085	    44.251	     0.466
516		515	 22384.659	  -360.240	    43.465	    -0.785
517		516	 22928.843	   544.184	    44.436	     0.970
518		517	 23269.832	   340.989	    45.009	     0.574
519		518	 23082.637	  -187.195	    44.561	    -0.448
520		519	 22748.349	  -334.288	    43.831	    -0.730
521		520	 23108.646	   360.297	    44.440	     0.609
522		521	 23115.127	     6.481	    44.367	    -0.073
523		522	 23140.587	    25.460	    44.331	    -0.036
524		523	 23685.693	   545.105	    45.288	     0.958
525		524	 23195.607	  -490.086	    44.266	    -1.022
526		525	 23602.309	   406.703	    44.957	     0.690
527		526	 24028.636	   426.326	    45.682	     0.725
528		527	 23102.552	  -926.084	    43.838	    -1.844
529		528	 24277.820	  1175.268	    45.981	     2.143
530		529	 23591.066	  -686.754	    44.596	    -1.385
531		530	 24318.196	   727.130	    45.883	     1.288
532		531	 24180.112	  -138.083	    45.537	    -0.346
533		532	 24272.418	    92.306	    45.625	     0.088
534		533	 21554.114	 -2718.305	    40.439	    -5.186
535		534	 12656.389	 -8897.724	    23.701	   -16.738
536		535	 12988.935	   332.545	    24.278	     0.577
537		536	 12774.449	  -214.486	    23.833	    -0.445
538		537	 12939.211	   164.762	    24.095	     0.262
539		538	 13438.797	   499.586	    24.979	     0.884
540		539	 13042.707	  -396.090	    24.198	    -0.781
541		540	 12924.026	  -118.680	    23.933	    -0.265
542		541	 12993.649	    69.623	    24.018	     0.084
543		542	 15219.002	  2225.353	    28.079	     4.062
544		543	 25462.256	 10243.254	    46.892	    18.812
545		544	 25890.074	   427.818	    47.592	     0.700
546		545	 14705.529	-11184.545	    26.983	   -20.609
547		546	 13371.291	 -1334.239	    24.490	    -2.493
548		547	 13348.722	   -22.569	    24.404	    -0.086
549		548	 13422.824	    74.102	    24.494	     0.091
550		549	 13596.263	   173.439	    24.766	     0.271
551		550	 13528.359	   -67.904	    24.597	    -0.168
552		551	 13834.792	   306.434	    25.109	     0.512
553		552	 24894.673	 11059.881	    45.099	    19.991
554		553	 26751.404	  1856.731	    48.375	     3.276
555		554	 18539.747	 -8211.658	    33.465	   -14.910
556		555	 19030.425	   490.678	    34.289	     0.824
557		556	 13764.198	 -5266.227	    24.756	    -9.533
558		557	 14000.514	   236.316	    25.136	     0.380
559		558	 13962.627	   -37.887	    25.023	    -0.113
560		559	 14176.942	   214.315	    25.361	     0.339
561		560	 14098.018	   -78.924	    25.175	    -0.186
562		561	 14183.797	    85.779	    25.283	     0.108
563		562	 14234.498	    50.701	    25.328	     0.045
564		563	 14112.870	  -121.628	    25.067	    -0.261
565		564	 25840.515	 11727.645	    45.817	    20.749
566		565	 27517.360	  1676.846	    48.703	     2.887
567		566	 18779.546	 -8737.815	    33.179	   -15.524
568		567	 14393.517	 -4386.029	    25.385	    -7.794
569		568	 14478.771	    85.255	    25.491	     0.105
570		569	 14590.866	   112.094	    25.643	     0.152
571		570	 23307.122	  8716.257	    40.890	    15.247
572		571	 28054.422	  4747.300	    49.132	     8.242
573		572	 28648.472	   594.049	    50.085	     0.953
574		573	 29137.926	   489.455	    50.852	     0.767
575		574	 29145.649	     7.722	    50.776	    -0.075
576		575	 28872.479	  -273.169	    50.213	    -0.563
577		576	 28791.997	   -80.482	    49.986	    -0.227
578		577	 28959.117	   167.119	    50.189	     0.203
579		578	 28823.796	  -135.321	    49.868	    -0.321
580		579	 28937.423	   113.627	    49.978	     0.110
581		580	 29414.364	   476.941	    50.714	     0.736
582		581	 29246.740	  -167.624	    50.339	    -0.376
583		582	 30029.977	   783.237	    51.598	     1.259
584		583	 29291.342	  -738.634	    50.242	    -1.355
585		584	 30066.146	   774.804	    51.483	     1.241
586		585	 30544.690	   478.544	    52.213	     0.730
587		586	 30541.687	    -3.004	    52.119	    -0.094
588		587	 30737.085	   195.399	    52.363	     0.244
589		588	 30625.377	  -111.708	    52.084	    -0.279
590		589	 30681.033	    55.656	    52.090	     0.006
591		590	 30877.920	   196.887	    52.335	     0.245
592		591	 30479.074	  -398.845	    51.572	    -0.763
593		592	 31019.214	   540.140	    52.397	     0.825
594		593	 30778.795	  -240.419	    51.904	    -0.494
595		594	 21507.559	 -9271.236	    36.208	   -15.696
596		595	 15909.751	 -5597.809	    26.739	    -9.469
597		596	 15996.327	    86.576	    26.839	     0.100
598		597	 16358.118	   361.791	    27.401	     0.561
599		598	 31861.472	 15503.355	    53.280	    25.880
600		599	 32549.415	   687.943	    54.340	     1.060
601		600	 31937.361	  -612.054	    53.229	    -1.111
602		601	 32826.240	   888.880	    54.619	     1.390
603		602	 32177.729	  -648.511	    53.451	    -1.168
604		603	 32454.275	   276.546	    53.821	     0.370
605		604	 32516.017	    61.741	    53.834	     0.013
606		605	 32640.903	   124.887	    53.952	     0.117
607		606	 33047.613	   406.709	    54.534	     0.582
608		607	 33423.024	   375.411	    55.063	     0.529
609		608	 33846.430	   423.406	    55.668	     0.606
610		609	 33976.694	   130.264	    55.791	     0.122
611		610	 34097.888	   121.194	    55.898	     0.107
612		611	 33876.332	  -221.555	    55.444	    -0.454
613		612	 33609.427	  -266.905	    54.917	    -0.527
614		613	 34217.958	   608.531	    55.820	     0.903
615		614	 32915.232	 -1302.726	    53.608	    -2.213
616		615	 33810.307	   895.075	    54.976	     1.368
617		616	 17288.605	-16521.702	    28.066	   -26.910
618		617	 17248.936	   -39.670	    27.956	    -0.110
619		618	 17862.029	   613.093	    28.903	     0.947
620		619	 17461.322	  -400.707	    28.209	    -0.694
621		620	 17414.579	   -46.743	    28.088	    -0.121
622		621	 17946.423	   531.844	    28.899	     0.811
623		622	 18142.123	   195.700	    29.167	     0.268
624		623	 17809.614	  -332.508	    28.587	    -0.581
625		624	 17915.416	   105.802	    28.711	     0.124
626		625	 18094.159	   178.743	    28.951	     0.240
627		626	 34755.488	 16661.329	    55.520	    26.569
628		627	 34853.400	    97.912	    55.588	     0.068
629		628	 35158.434	   305.034	    55.985	     0.397
630		629	 34790.258	  -368.176	    55.310	    -0.674
631		630	 36027.905	  1237.647	    57.187	     1.877
632		631	 34716.305	 -1311.601	    55.018	    -2.169
633		632	 36200.348	  1484.044	    57.279	     2.261
634		633	 35156.162	 -1044.187	    55.539	    -1.740
635		634	 36073.776	   917.614	    56.899	     1.360
636		635	 36005.426	   -68.350	    56.701	    -0.197
637		636	 36391.972	   386.545	    57.220	     0.519
638		637	 37071.428	   679.456	    58.197	     0.977
639		638	 36375.085	  -696.343	    57.014	    -1.183
640		639	 36866.190	   491.106	    57.694	     0.679
641		640	 36406.971	  -459.219	    56.886	    -0.808
642		641	 37289.860	   882.889	    58.175	     1.289
643		642	 36806.201	  -483.659	    57.331	    -0.844
644		643	 37506.616	   700.415	    58.331	     1.000
645		644	 37424.534	   -82.082	    58.113	    -0.218
646		645	 37020.716	  -403.818	    57.396	    -0.716
647		646	 37697.929	   677.213	    58.356	     0.959
648		647	 37350.212	  -347.717	    57.728	    -0.628
649		648	 37658.040	   307.827	    58.114	     0.386
650		649	 37744.771	    86.731	    58.158	     0.044
651		650	 37582.907	  -161.864	    57.820	    -0.338
652		651	 38252.816	   669.909	    58.760	     0.940
653		652	 38473.813	   220.996	    59.009	     0.249
654		653	 38617.031	   143.218	    59.138	     0.129
655		654	 37725.828	  -891.203	    57.685	    -1.453
656		655	 38744.715	  1018.887	    59.152	     1.467
657		656	 37626.411	 -1118.304	    57.357	    -1.795
658		657	 38753.211	  1126.801	    58.985	     1.628
659		658	 37955.421	  -797.791	    57.683	    -1.302
660		659	 38859.934	   904.513	    58.968	     1.285
661		660	 38842.760	   -17.174	    58.853	    -0.115
662		661	 39067.989	   225.230	    59.104	     0.252
663		662	 39285.445	   217.456	    59.344	     0.239
664		663	 39606.219	   320.774	    59.738	     0.394
665		664	 40466.202	   859.982	    60.943	     1.205
666		665	 38637.927	 -1828.275	    58.102	    -2.841
667		666	 41249.594	  2611.667	    61.936	     3.834
668		667	 38884.233	 -2365.360	    58.297	    -3.639
669		668	 40548.808	  1664.575	    60.702	     2.405
670		669	 39327.844	 -1220.965	    58.786	    -1.916
671		670	 40461.169	  1133.326	    60.390	     1.604
672		671	 40053.783	  -407.386	    59.693	    -0.697
673		672	 40288.588	   234.804	    59.953	     0.261
674		673	 40554.028	   265.440	    60.259	     0.305
675		674	 40448.073	  -105.955	    60.012	    -0.247
676		675	 41433.474	   985.401	    61.383	     1.371
677		676	 32407.921	 -9025.553	    47.941	   -13.442
678		677	 21286.584	-11121.337	    31.443	   -16.498
679		678	 21842.860	   556.276	    32.217	     0.774
680		679	 21283.939	  -558.921	    31.346	    -0.871
681		680	 21691.067	   407.128	    31.899	     0.553
682		681	 21856.848	   165.781	    32.095	     0.197
683		682	 21743.363	  -113.485	    31.882	    -0.213
684		683	 21542.549	  -200.814	    31.541	    -0.341
685		684	 21948.300	   405.751	    32.088	     0.547
686		685	 22059.061	   110.761	    32.203	     0.115
687		686	 21971.702	   -87.359	    32.029	    -0.174
688		687	 21957.554	   -14.148	    31.962	    -0.067
689		688	 22440.427	   482.872	    32.617	     0.655
690		689	 33796.613	 11356.186	    49.052	    16.435
691		690	 44577.060	 10780.447	    64.604	    15.553
692		691	 43979.268	  -597.793	    63.646	    -0.959
693		692	 44461.931	   482.663	    64.251	     0.606
694		693	 44509.608	    47.677	    64.227	    -0.024
695		694	 45371.641	   862.033	    65.377	     1.150
696		695	 44547.582	  -824.058	    64.097	    -1.280
697		696	 25936.616	-18610.966	    37.265	   -26.832
698		697	 22930.644	 -3005.972	    32.899	    -4.366
699		698	 27619.729	  4689.085	    39.570	     6.671
700		699	 45186.005	 17566.277	    64.644	    25.074
701		700	 43986.063	 -1199.942	    62.837	    -1.807
702		701	 45043.059	  1056.996	    64.255	     1.418
703		702	 44650.193	  -392.866	    63.604	    -0.651
704		703	 44711.772	    61.579	    63.601	    -0.003
705		704	 44584.749	  -127.023	    63.331	    -0.271
706		705	 45119.985	   535.236	    64.000	     0.669
707		706	 39414.615	 -5705.370	    55.828	    -8.172
708		707	 23256.833	-16157.782	    32.895	   -22.933
709		708	 23277.337	    20.504	    32.878	    -0.018
710		709	 24039.135	   761.798	    33.906	     1.028
711		710	 23167.342	  -871.792	    32.630	    -1.276
712		711	 28294.937	  5127.594	    39.796	     7.166
713		712	 46722.459	 18427.522	    65.621	    25.825
714		713	 44819.896	 -1902.563	    62.861	    -2.760
715		714	 46831.895	  2011.999	    65.591	     2.730
716		715	 45436.984	 -1394.912	    63.548	    -2.043
717		716	 46944.932	  1507.948	    65.566	     2.017
718		717	 28383.932	-18560.999	    39.587	   -25.978
719		718	 24306.106	 -4077.826	    33.853	    -5.735
720		719	 24393.474	    87.368	    33.927	     0.074
721		720	 23856.622	  -536.853	    33.134	    -0.793
722		721	 32329.129	  8472.507	    44.839	    11.705
723		722	 47442.359	 15113.230	    65.710	    20.870
724		723	 48483.952	  1041.593	    67.059	     1.350
725		724	 28379.731	-20104.221	    39.199	   -27.861
726		725	 24372.871	 -4006.860	    33.618	    -5.581
727		726	 24923.722	   550.851	    34.330	     0.712
728		727	 24794.404	  -129.318	    34.105	    -0.225
729		728	 24926.404	   132.000	    34.240	     0.134
730		729	 24765.033	  -161.372	    33.971	    -0.268
731		730	 25053.871	   288.838	    34.320	     0.349
732		731	 41696.283	 16642.413	    57.040	    22.720
733		732	 37544.631	 -4151.652	    51.290	    -5.750
734		733	 25051.877	-12492.755	    34.177	   -17.113
735		734	 28400.596	  3348.719	    38.693	     4.516
736		735	 49482.702	 21082.106	    67.323	    28.630
737		736	 50867.374	  1384.673	    69.113	     1.790
738		737	 32208.932	-18658.442	    43.703	   -25.411
739		738	 25540.931	 -6668.001	    34.608	    -9.094
740		739	 39110.087	 13569.156	    52.923	    18.315
741		740	 50457.986	 11347.899	    68.186	    15.263
742		741	 47561.866	 -2896.121	    64.186	    -4.000
743		742	 26657.103	-20904.762	    35.926	   -28.260
744		743	 25808.253	  -848.850	    34.735	    -1.191
745		744	 47649.906	 21841.653	    64.046	    29.310
746		745	 34038.229	-13611.678	    45.689	   -18.357
747		746	 25956.340	 -8081.888	    34.794	   -10.895
748		747	 26076.815	   120.475	    34.909	     0.115
749		748	 27258.471	  1181.656	    36.442	     1.533
750		749	 26294.564	  -963.907	    35.106	    -1.336
751		750	 26323.369	    28.805	    35.098	    -0.008
752		751	 26992.705	   669.335	    35.942	     0.845
753		752	 51011.407	 24018.702	    67.834	    31.892
754		753	 53465.681	  2454.274	    71.004	     3.169
755		754	 52579.825	  -885.855	    69.735	    -1.269
756		755	 53656.024	  1076.199	    71.068	     1.333
757		756	 53220.902	  -435.122	    70.398	    -0.670
758		757	 52733.381	  -487.522	    69.661	    -0.737
759		758	 53498.314	   764.934	    70.578	     0.917
760		759	 52449.555	 -1048.759	    69.103	    -1.475
761		760	 55440.771	  2991.216	    72.948	     3.845
762		761	 52999.977	 -2440.794	    69.645	    -3.303
763		762	 55264.858	  2264.881	    72.526	     2.881
764		763	 32779.474	-22485.384	    42.961	   -29.565
765		764	 27467.649	 -5311.825	    35.952	    -7.009
766		765	 44996.302	 17528.653	    58.819	    22.866
767		766	 28112.649	-16883.653	    36.701	   -22.118
768		767	 27972.321	  -140.328	    36.470	    -0.231
769		768	 28864.934	   892.613	    37.585	     1.115
770		769	 55031.973	 26167.039	    71.563	    33.978
771		770	 56439.318	  1407.345	    73.298	     1.735
772		771	 58223.600	  1784.282	    75.517	     2.219
773		772	 55737.309	 -2486.291	    72.199	    -3.318
774		773	 58568.085	  2830.776	    75.767	     3.569
775		774	 56425.545	 -2142.540	    72.901	    -2.866
776		775	 58136.970	  1711.425	    75.015	     2.114
777		776	 57116.512	 -1020.458	    73.604	    -1.412
778		777	 57745.346	   628.834	    74.318	     0.715
779		778	 58555.418	   810.072	    75.264	     0.946
780		779	 55640.925	 -2914.493	    71.426	    -3.838
781		780	 59383.396	  3742.471	    76.133	     4.706
782		781	 55681.650	 -3701.746	    71.295	    -4.837
783		782	 60171.157	  4489.507	    76.945	     5.650
784		783	 56383.174	 -3787.983	    72.009	    -4.936
785		784	 34141.431	-22241.743	    43.548	   -28.461
786		785	 29534.020	 -4607.410	    37.623	    -5.925
787		786	 30016.470	   482.449	    38.189	     0.566
788		787	 58911.540	 28895.070	    74.856	    36.667
789		788	 59163.940	   252.400	    75.081	     0.225
790		789	 60326.465	  1162.525	    76.459	     1.378
791		790	 59732.017	  -594.448	    75.610	    -0.849
792		791	 59248.770	  -483.247	    74.904	    -0.707
793		792	 59922.450	   673.680	    75.660	     0.756
794		793	 58897.817	 -1024.633	    74.272	    -1.388
795		794	 60968.214	  2070.397	    76.786	     2.514
796		795	 60014.921	  -953.293	    75.490	    -1.296
797		796	 59225.219	  -789.703	    74.404	    -1.087
798		797	 30576.317	-28648.902	    38.364	   -36.039
799		798	 34852.774	  4276.458	    43.675	     5.311
800		799	 56385.092	 21532.318	    70.570	    26.894
801		800	 30435.805	-25949.287	    38.045	   -32.525
802		801	 31296.993	   861.188	    39.072	     1.028
803		802	 30712.696	  -584.296	    38.295	    -0.777
804		803	 31375.452	   662.756	    39.073	     0.778
805		804	 35953.732	  4578.280	    44.719	     5.646
806		805	 38372.451	  2418.718	    47.668	     2.949
807		806	 35387.801	 -2984.649	    43.905	    -3.762
808		807	 60754.282	 25366.481	    75.284	    31.379
809		808	 62545.720	  1791.437	    77.408	     2.124
810		809	 61961.182	  -584.538	    76.590	    -0.818
811		810	 63049.039	  1087.857	    77.838	     1.248
812		811	 62244.123	  -804.915	    76.750	    -1.088
813		812	 63942.296	  1698.172	    78.747	     1.997
814		813	 62708.357	 -1233.939	    77.132	    -1.615
815		814	 63007.058	   298.701	    77.404	     0.272
816		815	 63528.294	   521.237	    77.949	     0.545
817		816	 62943.187	  -585.108	    77.136	    -0.813
818		817	 64603.470	  1660.283	    79.074	     1.938
819		818	 62897.695	 -1705.775	    76.892	    -2.182
820		819	 63919.714	  1022.019	    78.046	     1.154
821		820	 39604.630	-24315.084	    48.298	   -29.748
822		821	 32936.702	 -6667.928	    40.118	    -8.181
823		822	 33105.478	   168.775	    40.274	     0.157
824		823	 32548.368	  -557.110	    39.548	    -0.726
825		824	 33736.505	  1188.138	    40.942	     1.394
826		825	 33012.969	  -723.537	    40.016	    -0.927
827		826	 33424.392	   411.423	    40.465	     0.450
828		827	 32883.816	  -540.576	    39.763	    -0.703
829		828	 34315.405	  1431.589	    41.444	     1.681
830		829	 33104.127	 -1211.277	    39.933	    -1.511
831		830	 33811.675	   707.548	    40.737	     0.804
832		831	 33617.222	  -194.454	    40.454	    -0.283
833		832	 33490.895	  -126.326	    40.253	    -0.200
834		833	 33861.859	   370.963	    40.650	     0.397
835		834	 33475.498	  -386.361	    40.138	    -0.512
836		835	 34223.042	   747.544	    40.986	     0.847
837		836	 34274.740	    51.698	    40.998	     0.013
838		837	 34016.979	  -257.760	    40.642	    -0.357
839		838	 34169.844	   152.865	    40.775	     0.134
840		839	 34141.727	   -28.117	    40.693	    -0.082
841		840	 34551.678	   409.950	    41.133	     0.440
842		841	 34282.738	  -268.940	    40.764	    -0.369
843		842	 35307.309	  1024.571	    41.933	     1.168
844		843	 34580.665	  -726.645	    41.021	    -0.912
845		844	 42963.024	  8382.359	    50.904	     9.883
846		845	 69612.717	 26649.693	    82.382	    31.478
847		846	 67116.588	 -2496.129	    79.334	    -3.048
848		847	 69606.760	  2490.173	    82.180	     2.846
849		848	 67732.030	 -1874.730	    79.873	    -2.308
850		849	 71435.890	  3703.860	    84.141	     4.269
851		850	 67361.690	 -4074.199	    79.249	    -4.892
852		851	 70548.428	  3186.738	    82.901	     3.652
853		852	 70108.681	  -439.747	    82.287	    -0.613
854		853	 68309.451	 -1799.230	    80.081	    -2.206
855		854	 72774.230	  4464.778	    85.216	     5.134
856		855	 69216.738	 -3557.491	    80.955	    -4.260
857		856	 70567.968	  1351.229	    82.439	     1.484
858		857	 70419.315	  -148.653	    82.170	    -0.270
859		858	 69875.175	  -544.139	    81.440	    -0.730
860		859	 50594.883	-19280.293	    58.900	   -22.540
861		860	 35892.813	-14702.069	    41.736	   -17.164
862		861	 35988.783	    95.969	    41.799	     0.063
863		862	 49151.385	 13162.602	    57.020	    15.221
864		863	 72664.228	 23512.843	    84.200	    27.179
865		864	 71764.020	  -900.208	    83.060	    -1.139
866		865	 72218.358	   454.338	    83.489	     0.429
867		866	 72582.125	   363.767	    83.813	     0.324
868		867	 74065.583	  1483.458	    85.427	     1.614
869		868	 71789.003	 -2276.580	    82.706	    -2.721
870		869	 75680.657	  3891.654	    87.089	     4.383
871		870	 72804.628	 -2876.029	    83.683	    -3.406
872		871	 73499.648	   695.020	    84.385	     0.702
873		872	 72731.353	  -768.295	    83.408	    -0.978
874		873	 74138.942	  1407.589	    84.924	     1.517
875		874	 73185.447	  -953.494	    83.736	    -1.188
876		875	 74339.048	  1153.601	    84.959	     1.223
877		876	 74775.045	   435.997	    85.360	     0.401
878		877	 74758.383	   -16.662	    85.243	    -0.116
879		878	 72020.669	 -2737.715	    82.028	    -3.215
880		879	 75565.924	  3545.256	    85.968	     3.940
881		880	 73136.565	 -2429.359	    83.110	    -2.858
882		881	 75485.235	  2348.670	    85.681	     2.572
883		882	 72755.388	 -2729.846	    82.489	    -3.192
884		883	 75531.681	  2776.293	    85.540	     3.051
885		884	 76418.836	   887.155	    86.447	     0.907
886		885	 75827.110	  -591.727	    85.680	    -0.766
887		886	 77047.016	  1219.907	    86.961	     1.280
888		887	 69266.779	 -7780.238	    78.091	    -8.869
889		888	 78912.772	  9645.993	    88.866	    10.775
890		889	 62022.608	-16890.164	    69.767	   -19.099
891		890	 76849.706	 14827.098	    86.348	    16.581
892		891	 77040.733	   191.027	    86.465	     0.117
893		892	 77183.389	   142.656	    86.528	     0.063
894		893	 77731.126	   547.737	    87.045	     0.516
895		894	 79217.243	  1486.117	    88.610	     1.565
896		895	 76426.170	 -2791.073	    85.392	    -3.218
897		896	 78304.861	  1878.691	    87.394	     2.001
898		897	 77081.139	 -1223.722	    85.932	    -1.462
899		898	 82015.722	  4934.583	    91.332	     5.399
900		899	 78664.642	 -3351.080	    87.502	    -3.829
901		900	 82122.917	  3458.275	    91.248	     3.745
902		901	 68529.662	-13593.255	    76.060	   -15.188
903		902	 79975.554	 11445.892	    88.665	    12.605
904		903	 78797.441	 -1178.114	    87.262	    -1.403
905		904	 79038.479	   241.038	    87.432	     0.170
906		905	 78787.195	  -251.284	    87.058	    -0.374
907		906	 79371.579	   584.384	    87.607	     0.549
908		907	 80085.448	   713.869	    88.297	     0.690
909		908	 82813.093	  2727.645	    91.204	     2.907
910		909	 80446.663	 -2366.430	    88.500	    -2.704
911		910	 81360.000	   913.337	    89.407	     0.906
912		911	 81415.078	    55.078	    89.369	    -0.038
913		912	 81944.371	   529.293	    89.851	     0.482
914		913	 66776.611	-15167.760	    73.140	   -16.712
915		914	 41986.165	-24790.446	    45.937	   -27.203
916		915	 82202.645	 40216.480	    89.839	    43.902
917		916	 82640.147	   437.502	    90.219	     0.380
918		917	 80996.628	 -1643.519	    88.328	    -1.891
919		918	 69935.695	-11060.933	    76.183	   -12.145
920		919	 64765.661	 -5170.034	    70.474	    -5.709
921		920	 83521.945	 18756.283	    90.785	    20.311
922		921	 49835.823	-33686.122	    54.111	   -36.674
923		922	 82184.845	 32349.022	    89.138	    35.027
924		923	 84469.359	  2284.514	    91.516	     2.379
925		924	 83465.552	 -1003.807	    90.331	    -1.185
926		925	 86022.006	  2556.454	    92.997	     2.666
927		926	 86517.124	   495.118	    93.431	     0.434
928		927	 86279.801	  -237.323	    93.074	    -0.357
929		928	 88061.131	  1781.330	    94.893	     1.819
930		929	 85652.294	 -2408.836	    92.198	    -2.695
931		930	 43987.758	-41664.537	    47.299	   -44.900
932		931	 42987.206	 -1000.551	    46.173	    -1.126
933		932	 54925.743	 11938.536	    58.933	    12.760
934		933	 87119.885	 32194.143	    93.376	    34.443
935		934	 83936.731	 -3183.155	    89.868	    -3.508
936		935	 86543.939	  2607.208	    92.560	     2.692
937		936	 85780.180	  -763.758	    91.645	    -0.915
938		937	 84956.046	  -824.134	    90.668	    -0.977
939		938	 88914.228	  3958.182	    94.791	     4.123
940		939	 71482.702	-17431.526	    76.126	   -18.665
941		940	 65962.682	 -5520.020	    70.173	    -5.953
942		941	 43864.022	-22098.660	    46.614	   -23.559
943		942	 45622.614	  1758.593	    48.432	     1.817
944		943	 45233.359	  -389.255	    47.968	    -0.464
945		944	 46071.501	   838.141	    48.805	     0.837
946		945	 53148.289	  7076.789	    56.242	     7.437
947		946	 66534.026	 13385.736	    70.332	    14.090
948		947	 45642.993	-20891.033	    48.197	   -22.134
949		948	 44821.972	  -821.021	    47.281	    -0.917
950		949	 44850.513	    28.541	    47.261	    -0.020
951		950	 75103.341	 30252.828	    79.056	    31.795
952		951	 46002.685	-29100.656	    48.373	   -30.683
953		952	 45963.473	   -39.212	    48.281	    -0.092
954		953	 63420.621	 17457.148	    66.548	    18.267
955		954	 58325.219	 -5095.402	    61.138	    -5.411
956		955	 50291.815	 -8033.404	    52.662	    -8.476
957		956	 47645.825	 -2645.990	    49.839	    -2.823
958		957	 45749.953	 -1895.872	    47.806	    -2.033
959		958	 45683.356	   -66.597	    47.686	    -0.119
960		959	 46544.228	   860.872	    48.534	     0.848
961		960	 47845.995	  1301.767	    49.840	     1.305
962		961	 46328.781	 -1517.214	    48.209	    -1.631
963		962	 46016.927	  -311.854	    47.835	    -0.374
964		963	 47263.417	  1246.490	    49.079	     1.245
965		964	 48153.129	   889.712	    49.951	     0.872
966		965	 46823.651	 -1329.478	    48.522	    -1.429
967		966	 46565.965	  -257.686	    48.205	    -0.317
968		967	 48016.986	  1451.021	    49.656	     1.451
969		968	 48383.414	   366.428	    49.983	     0.327
970		969	 46871.403	 -1512.011	    48.371	    -1.612
971		970	 60042.732	 13171.329	    61.900	    13.529
972		971	 96675.381	 36632.649	    99.563	    37.663
973		972	 93298.065	 -3377.316	    95.986	    -3.577
974		973	 97074.314	  3776.249	    99.768	     3.782
975		974	 95490.507	 -1583.807	    98.040	    -1.729
976		975	 53992.969	-41497.537	    55.377	   -42.662
977		976	 80063.143	 26070.174	    82.032	    26.655
978		977	 95556.116	 15492.973	    97.806	    15.774
979		978	 96658.677	  1102.561	    98.833	     1.027
980		979	 94228.425	 -2430.253	    96.250	    -2.583
981		980	 53250.530	-40977.894	    54.337	   -41.912
982		981	 48290.843	 -4959.687	    49.226	    -5.111
983		982	 49915.639	  1624.796	    50.831	     1.604
984		983	 49270.916	  -644.723	    50.123	    -0.708
985		984	 57123.895	  7852.978	    58.053	     7.930
986		985	 96686.506	 39562.611	    98.159	    40.106
987		986	 54910.586	-41775.919	    55.690	   -42.469
988		987	 49133.726	 -5776.860	    49.781	    -5.909
989		988	 50103.858	   970.133	    50.712	     0.932
990		989	 99031.495	 48927.637	   100.133	    49.421
991		990	 98346.097	  -685.398	    99.339	    -0.793
992		991	 99680.351	  1334.254	   100.586	     1.246
993		992	 95696.050	 -3984.301	    96.468	    -4.118
994		993	101526.041	  5829.991	   102.242	     5.774
995		994	 63511.124	-38014.917	    63.894	   -38.347
996		995	 81183.084	 17671.960	    81.591	    17.697
997		996	 51379.328	-29803.755	    51.586	   -30.005
998		997	 50348.563	 -1030.766	    50.500	    -1.086
999		998	 81705.242	 31356.679	    81.869	    31.369
1000		999	 55561.507	-26143.735	    55.617	   -26.252
1001		1000	100224.168	 44662.661	   100.224	    44.607
1002		1001	 99837.241	  -386.927	    99.738	    -0.487
1003		1002	100910.869	  1073.628	   100.709	     0.972
1004		1003	102334.846	  1423.978	   102.029	     1.319
1005		1004	102340.089	     5.242	   101.932	    -0.096
1006		1005	 99658.711	 -2681.377	    99.163	    -2.769
1007		1006	101900.350	  2241.638	   101.293	     2.130
1008		1007	100230.953	 -1669.397	    99.534	    -1.758
1009		1008	 63465.285	-36765.668	    62.962	   -36.573
1010		1009	 84047.379	 20582.095	    83.298	    20.336
1011		1010	103850.943	 19803.564	   102.823	    19.525
1012		1011	 55052.008	-48798.935	    54.453	   -48.370
1013		1012	 51740.771	 -3311.237	    51.127	    -3.326
1014		1013	 52743.223	  1002.451	    52.066	     0.939
1015		1014	 53903.015	  1159.792	    53.159	     1.092
1016		1015	 70903.175	 17000.160	    69.855	    16.697
1017		1016	104183.075	 33279.900	   102.542	    32.687
1018		1017	103662.480	  -520.595	   101.930	    -0.613
1019		1018	103586.204	   -76.276	   101.755	    -0.175
1020		1019	 57798.908	-45787.296	    56.721	   -45.033
1021		1020	 88507.589	 30708.681	    86.772	    30.051
1022		1021	 52707.660	-35799.929	    51.624	   -35.149
1023		1022	 58099.103	  5391.443	    56.848	     5.225
1024		1023	 63705.860	  5606.757	    62.274	     5.425
1025		1024	 57661.900	 -6043.961	    56.310	    -5.963
1026		1025	 57647.349	   -14.551	    56.241	    -0.069
1027		1026	 65559.071	  7911.722	    63.898	     7.656
1028		1027	111585.104	 46026.033	   108.652	    44.754
1029		1028	 83777.749	-27807.355	    81.496	   -27.156
1030		1029	 59055.186	-24722.562	    57.391	   -24.105
1031		1030	 83774.923	 24719.737	    81.335	    23.944
1032		1031	114210.816	 30435.893	   110.777	    29.442
1033		1032	 61994.637	-52216.179	    60.072	   -50.704
1034		1033	108405.757	 46411.120	   104.943	    44.870
1035		1034	 97461.556	-10944.201	    94.257	   -10.686
1036		1035	 58298.352	-39163.204	    56.327	   -37.930
1037		1036	 59814.594	  1516.241	    57.736	     1.409
1038		1037	 60181.422	   366.829	    58.034	     0.298
1039		1038	 60647.851	   466.428	    58.428	     0.393
1040		1039	 58741.561	 -1906.290	    56.537	    -1.891
1041		1040	 59082.777	   341.216	    56.810	     0.274
1042		1041	 61262.842	  2180.065	    58.850	     2.040
1043		1042	 60273.455	  -989.387	    57.844	    -1.006
1044		1043	 59360.147	  -913.309	    56.913	    -0.931
1045		1044	107916.803	 48556.657	   103.369	    46.456
1046		1045	116005.132	  8088.329	   111.010	     7.641
1047		1046	 60418.500	-55586.632	    57.761	   -53.248
1048		1047	 65946.329	  5527.829	    62.986	     5.225
1049		1048	112832.779	 46886.450	   107.665	    44.679
1050		1049	 67693.226	-45139.553	    64.531	   -43.134
1051		1050	115603.831	 47910.604	   110.099	    45.568
1052		1051	 61284.074	-54319.757	    58.310	   -51.789
1053		1052	 60769.447	  -514.627	    57.766	    -0.545
1054		1053	 66181.825	  5412.379	    62.851	     5.085
1055		1054	109446.219	 43264.394	   103.839	    40.988
1056		1055	 61112.679	-48333.541	    57.927	   -45.912
1057		1056	 77872.801	 16760.122	    73.743	    15.816
1058		1057	119833.102	 41960.302	   113.371	    39.628
1059		1058	119370.493	  -462.610	   112.827	    -0.544
1060		1059	 77222.671	-42147.822	    72.920	   -39.906
1061		1060	 63422.290	-13800.381	    59.832	   -13.088
1062		1061	 63655.818	   233.528	    59.996	     0.164
1063		1062	 90980.828	 27325.010	    85.669	    25.673
1064		1063	 77803.738	-13177.090	    73.193	   -12.477
1065		1064	 62014.220	-15789.517	    58.284	   -14.909
1066		1065	 62195.212	   180.992	    58.399	     0.115
1067		1066	 64863.535	  2668.322	    60.848	     2.448
1068		1067	 63577.781	 -1285.753	    59.586	    -1.262
1069		1068	 62550.274	 -1027.507	    58.568	    -1.018
1070		1069	108985.501	 46435.227	   101.951	    43.383
1071		1070	123162.297	 14176.796	   115.105	    13.154
1072		1071	121796.310	 -1365.987	   113.722	    -1.383
1073		1072	123874.695	  2078.385	   115.555	     1.833
1074		1073	125217.370	  1342.675	   116.698	     1.144
1075		1074	122163.534	 -3053.835	   113.746	    -2.952
1076		1075	 83436.137	-38727.397	    77.615	   -36.131
1077		1076	 78120.042	 -5316.094	    72.602	    -5.013
1078		1077	 64339.629	-13780.414	    59.740	   -12.863
1079		1078	123253.431	 58913.802	   114.335	    54.596
1080		1079	 93209.461	-30043.970	    86.385	   -27.950
1081		1080	103444.629	 10235.168	    95.782	     9.397
1082		1081	115238.152	 11793.523	   106.603	    10.821
1083		1082	 64637.715	-50600.437	    59.739	   -46.864
1084		1083	 92337.195	 27699.480	    85.261	    25.521
1085		1084	 69002.675	-23334.520	    63.656	   -21.605
1086		1085	 67716.640	 -1286.035	    62.412	    -1.244
1087		1086	 65508.485	 -2208.155	    60.321	    -2.091
1088		1087	 68642.317	  3133.832	    63.148	     2.828
1089		1088	 65717.698	 -2924.619	    60.402	    -2.746
1090		1089	 68395.649	  2677.951	    62.806	     2.404
1091		1090	 66109.752	 -2285.896	    60.651	    -2.155
1092		1091	 68706.892	  2597.140	    62.976	     2.325
1093		1092	 66463.654	 -2243.238	    60.864	    -2.112
1094		1093	 68945.935	  2482.281	    63.080	     2.215
1095		1094	 66447.141	 -2498.793	    60.738	    -2.342
1096		1095	 69252.915	  2805.773	    63.245	     2.507
1097		1096	 66540.432	 -2712.483	    60.712	    -2.533
1098		1097	 69430.409	  2889.977	    63.291	     2.579
1099		1098	100458.686	 31028.278	    91.492	    28.201
1100		1099	 67091.841	-33366.846	    61.048	   -30.444
1101		1100	 98153.867	 31062.027	    89.231	    28.183
1102		1101	 67726.496	-30427.372	    61.514	   -27.717
1103		1102	 69158.521	  1432.025	    62.757	     1.244
1104		1103	 67675.408	 -1483.113	    61.356	    -1.402
1105		1104	 70877.178	  3201.770	    64.200	     2.845
1106		1105	 98341.462	 27464.283	    88.997	    24.796
1107		1106	 70968.225	-27373.237	    64.167	   -24.830
1108		1107	 98192.491	 27224.266	    88.701	    24.535
1109		1108	 70957.775	-27234.716	    64.041	   -24.660
1110		1109	 68557.935	 -2399.839	    61.820	    -2.222
1111		1110	 82990.361	 14432.425	    74.766	    12.946
1112		1111	 70602.117	-12388.244	    63.548	   -11.218
1113		1112	 69477.059	 -1125.058	    62.479	    -1.069
1114		1113	106986.758	 37509.699	    96.125	    33.645
1115		1114	135389.673	 28402.915	   121.535	    25.410
1116		1115	 86922.570	-48467.103	    77.957	   -43.577
1117		1116	 73800.014	-13122.556	    66.129	   -11.828
1118		1117	 97435.862	 23635.848	    87.230	    21.101
1119		1118	 69805.183	-27630.678	    62.438	   -24.792
1120		1119	 75973.512	  6168.328	    67.894	     5.457
1121		1120	138745.185	 62771.673	   123.880	    55.986
1122		1121	135476.547	 -3268.638	   120.853	    -3.026
1123		1122	135649.068	   172.521	   120.899	     0.046
1124		1123	 72909.459	-62739.609	    64.924	   -55.976
1125		1124	 71368.046	 -1541.413	    63.495	    -1.429
1126		1125	 71242.890	  -125.156	    63.327	    -0.168
1127		1126	 71652.074	   409.184	    63.634	     0.307
1128		1127	 72054.547	   402.473	    63.935	     0.301
1129		1128	 71665.889	  -388.658	    63.534	    -0.401
1130		1129	 73072.654	  1406.765	    64.723	     1.190
1131		1130	 72971.500	  -101.155	    64.577	    -0.147
1132		1131	 73236.946	   265.446	    64.754	     0.178
1133		1132	101347.267	 28110.321	    89.529	    24.775
1134		1133	 73807.407	-27539.860	    65.143	   -24.386
1135		1134	 73156.554	  -650.853	    64.512	    -0.631
1136		1135	 72801.707	  -354.847	    64.142	    -0.369
1137		1136	 74842.704	  2040.997	    65.883	     1.740
1138		1137	138467.063	 63624.359	   121.783	    55.900
1139		1138	134998.276	 -3468.787	   118.628	    -3.155
1140		1139	 72413.101	-62585.174	    63.576	   -55.052
1141		1140	 75542.401	  3129.299	    66.265	     2.689
1142		1141	 74654.514	  -887.887	    65.429	    -0.836
1143		1142	 83275.183	  8620.670	    72.920	     7.491
1144		1143	124459.383	 41184.200	   108.888	    35.968
1145		1144	 75061.857	-49397.526	    65.614	   -43.275
1146		1145	 73636.691	 -1425.165	    64.312	    -1.302
1147		1146	 75355.075	  1718.383	    65.755	     1.443
1148		1147	 75884.330	   529.256	    66.159	     0.404
1149		1148	 75193.614	  -690.716	    65.500	    -0.659
1150		1149	 74142.661	 -1050.954	    64.528	    -0.972
1151		1150	 76632.420	  2489.759	    66.637	     2.109
1152		1151	 75361.036	 -1271.384	    65.474	    -1.162
1153		1152	 75986.975	   625.939	    65.961	     0.487
1154		1153	127318.582	 51331.607	   110.424	    44.463
1155		1154	144739.461	 17420.879	   125.424	    15.000
1156		1155	 98718.991	-46020.470	    85.471	   -39.953
1157		1156	 74599.396	-24119.595	    64.532	   -20.939
1158		1157	 77141.085	  2541.689	    66.673	     2.141
1159		1158	 77335.121	   194.036	    66.783	     0.110
1160		1159	 77437.266	   102.145	    66.814	     0.031
1161		1160	 77681.892	   244.626	    66.967	     0.153
1162		1161	 75800.176	 -1881.716	    65.289	    -1.678
1163		1162	 92319.032	 16518.856	    79.448	    14.160
1164		1163	 76903.044	-15415.988	    66.125	   -13.324
1165		1164	 78483.751	  1580.706	    67.426	     1.301
1166		1165	 76524.156	 -1959.594	    65.686	    -1.740
1167		1166	150339.119	 73814.963	   128.936	    63.250
1168		1167	151122.759	   783.639	   129.497	     0.561
1169		1168	151742.639	   619.880	   129.917	     0.420
1170		1169	125103.416	-26639.224	   107.017	   -22.899
1171		1170	 78703.696	-46399.720	    67.268	   -39.749
1172		1171	 79842.993	  1139.298	    68.184	     0.915
1173		1172	 79163.177	  -679.816	    67.545	    -0.638
1174		1173	 80211.175	  1047.998	    68.381	     0.836
1175		1174	 78618.333	 -1592.843	    66.966	    -1.415
1176		1175	 81284.638	  2666.305	    69.178	     2.212
1177		1176	 77728.653	 -3555.985	    66.096	    -3.083
1178		1177	 80169.200	  2440.547	    68.113	     2.017
1179		1178	 80076.853	   -92.347	    67.977	    -0.136
1180		1179	 80977.109	   900.257	    68.683	     0.706
1181		1180	 78269.839	 -2707.271	    66.330	    -2.353
1182		1181	 81404.924	  3135.086	    68.929	     2.598
1183		1182	 80629.818	  -775.106	    68.215	    -0.714
1184		1183	 80945.011	   315.193	    68.424	     0.209
1185		1184	 78979.197	 -1965.814	    66.705	    -1.718
1186		1185	 82413.961	  3434.764	    69.548	     2.842
1187		1186	 81090.946	 -1323.015	    68.373	    -1.174
1188		1187	 81368.749	   277.803	    68.550	     0.176
1189		1188	 80791.831	  -576.918	    68.007	    -0.543
1190		1189	 83572.504	  2780.673	    70.288	     2.281
1191		1190	 81243.412	 -2329.092	    68.272	    -2.016
1192		1191	 82033.824	   790.412	    68.878	     0.606
1193		1192	 82967.591	   933.767	    69.604	     0.726
1194		1193	 82601.872	  -365.719	    69.239	    -0.365
1195		1194	 83440.147	   838.275	    69.883	     0.644
1196		1195	 82135.743	 -1304.404	    68.733	    -1.150
1197		1196	 84178.622	  2042.879	    70.383	     1.651
1198		1197	 82473.118	 -1705.504	    68.900	    -1.484
1199		1198	 84824.116	  2350.998	    70.805	     1.905
1200		1199	 82823.061	 -2001.054	    69.077	    -1.728
1201		1200	 85658.303	  2835.241	    71.382	     2.305
1202		1201	 83100.380	 -2557.923	    69.193	    -2.189
1203		1202	 85509.683	  2409.303	    71.140	     1.947
1204		1203	 83599.839	 -1909.843	    69.493	    -1.647
1205		1204	 85973.339	  2373.500	    71.406	     1.914
1206		1205	 84075.875	 -1897.464	    69.773	    -1.634
1207		1206	 86307.297	  2231.422	    71.565	     1.792
1208		1207	 84575.377	 -1731.920	    70.071	    -1.494
1209		1208	 86709.987	  2134.610	    71.780	     1.709
1210		1209	 84988.613	 -1721.374	    70.297	    -1.483
1211		1210	 86815.700	  1827.087	    71.749	     1.452
1212		1211	 85169.956	 -1645.743	    70.330	    -1.418
1213		1212	 86478.134	  1308.177	    71.352	     1.021
1214		1213	 86505.715	    27.581	    71.316	    -0.036
1215		1214	 86592.006	    86.291	    71.328	     0.012
1216		1215	 86976.926	   384.920	    71.586	     0.258
1217		1216	 87081.028	   104.101	    71.613	     0.027
1218		1217	 87744.162	   663.134	    72.099	     0.486
1219		1218	 86414.090	 -1330.072	    70.948	    -1.151
1220		1219	 89018.096	  2604.006	    73.026	     2.078
1221		1220	 86717.118	 -2300.978	    71.080	    -1.946
1222		1221	 89769.380	  3052.262	    73.521	     2.442
1223		1222	 86327.057	 -3442.323	    70.644	    -2.877
1224		1223	 89994.777	  3667.721	    73.585	     2.941
1225		1224	 86336.396	 -3658.382	    70.536	    -3.049
1226		1225	 90553.842	  4217.446	    73.922	     3.385
1227		1226	 86820.798	 -3733.044	    70.816	    -3.105
1228		1227	 90925.069	  4104.271	    74.104	     3.287
1229		1228	 86438.380	 -4486.689	    70.390	    -3.714
1230		1229	 91447.936	  5009.556	    74.408	     4.019
1231		1230	 86785.691	 -4662.245	    70.557	    -3.851
1232		1231	 91596.275	  4810.583	    74.408	     3.851
1233		1232	 87109.723	 -4486.552	    70.706	    -3.702
1234		1233	 91901.956	  4792.233	    74.535	     3.829
