#Size	#Para	 Time		 Diff		 Proc		 Diff
3		2	     0.095	     0.095	     0.047	     0.047
4		3	     0.118	     0.024	     0.039	    -0.008
5		4	     0.285	     0.167	     0.071	     0.032
6		5	     0.251	    -0.034	     0.050	    -0.021
7		6	     0.326	     0.075	     0.054	     0.004
8		7	     0.402	     0.077	     0.057	     0.003
9		8	     0.493	     0.090	     0.062	     0.004
10		9	     0.601	     0.108	     0.067	     0.005
11		10	     0.825	     0.224	     0.082	     0.016
12		11	     0.821	    -0.004	     0.075	    -0.008
13		12	     0.951	     0.130	     0.079	     0.005
14		13	     1.092	     0.141	     0.084	     0.005
15		14	     1.248	     0.156	     0.089	     0.005
16		15	     1.426	     0.179	     0.095	     0.006
17		16	     1.612	     0.186	     0.101	     0.006
18		17	     1.739	     0.127	     0.102	     0.002
19		18	     2.081	     0.342	     0.116	     0.013
20		19	     2.283	     0.202	     0.120	     0.005
21		20	     2.456	     0.173	     0.123	     0.003
22		21	     3.232	     0.776	     0.154	     0.031
23		22	     2.733	    -0.498	     0.124	    -0.030
24		23	     3.016	     0.283	     0.131	     0.007
25		24	     3.217	     0.201	     0.134	     0.003
26		25	     3.469	     0.252	     0.139	     0.005
27		26	     3.707	     0.238	     0.143	     0.004
28		27	     3.978	     0.271	     0.147	     0.005
29		28	     4.237	     0.259	     0.151	     0.004
30		29	     4.449	     0.212	     0.153	     0.002
31		30	     4.893	     0.444	     0.163	     0.010
32		31	     5.235	     0.343	     0.169	     0.006
33		32	     5.572	     0.337	     0.174	     0.005
34		33	     5.891	     0.319	     0.179	     0.004
35		34	     6.236	     0.345	     0.183	     0.005
36		35	     6.594	     0.359	     0.188	     0.005
37		36	     6.934	     0.340	     0.193	     0.004
38		37	     7.318	     0.384	     0.198	     0.005
39		38	     7.732	     0.413	     0.203	     0.006
40		39	     8.170	     0.438	     0.209	     0.006
41		40	     8.630	     0.460	     0.216	     0.006
42		41	     9.041	     0.411	     0.221	     0.005
43		42	     9.504	     0.464	     0.226	     0.006
44		43	     9.952	     0.448	     0.231	     0.005
45		44	    10.308	     0.356	     0.234	     0.003
46		45	    10.781	     0.473	     0.240	     0.005
47		46	    11.437	     0.656	     0.249	     0.009
48		47	    11.795	     0.358	     0.251	     0.002
49		48	    12.387	     0.592	     0.258	     0.007
50		49	    12.858	     0.472	     0.262	     0.004
51		50	    13.334	     0.476	     0.267	     0.004
52		51	    13.897	     0.563	     0.272	     0.006
53		52	    14.578	     0.681	     0.280	     0.008
54		53	    15.145	     0.566	     0.286	     0.005
55		54	    15.626	     0.482	     0.289	     0.004
56		55	    16.112	     0.486	     0.293	     0.004
57		56	    16.845	     0.733	     0.301	     0.008
58		57	    17.534	     0.689	     0.308	     0.007
59		58	    18.036	     0.502	     0.311	     0.003
60		59	    18.751	     0.715	     0.318	     0.007
61		60	    19.310	     0.559	     0.322	     0.004
62		61	    19.944	     0.634	     0.327	     0.005
63		62	    21.441	     1.497	     0.346	     0.019
64		63	    22.178	     0.737	     0.352	     0.006
65		64	    22.825	     0.647	     0.357	     0.005
66		65	    23.238	     0.414	     0.358	     0.001
67		66	    24.086	     0.848	     0.365	     0.007
68		67	    24.816	     0.730	     0.370	     0.005
69		68	    25.685	     0.870	     0.378	     0.007
70		69	    26.578	     0.893	     0.385	     0.007
71		70	    27.470	     0.892	     0.392	     0.007
72		71	    27.942	     0.473	     0.394	     0.001
73		72	    29.050	     1.108	     0.403	     0.010
74		73	    29.799	     0.749	     0.408	     0.005
75		74	    30.750	     0.951	     0.416	     0.007
76		75	    35.112	     4.362	     0.468	     0.053
77		76	    33.808	    -1.304	     0.445	    -0.023
78		77	    34.303	     0.495	     0.445	     0.001
79		78	    35.020	     0.716	     0.449	     0.003
80		79	    35.957	     0.937	     0.455	     0.006
81		80	    36.644	     0.687	     0.458	     0.003
82		81	    37.737	     1.093	     0.466	     0.008
83		82	    38.708	     0.972	     0.472	     0.006
84		83	    39.608	     0.900	     0.477	     0.005
85		84	    40.836	     1.228	     0.486	     0.009
86		85	    41.445	     0.609	     0.488	     0.001
87		86	    42.835	     1.390	     0.498	     0.010
88		87	    43.893	     1.057	     0.505	     0.006
89		88	    45.546	     1.653	     0.518	     0.013
90		89	    46.148	     0.602	     0.519	     0.001
91		90	    47.574	     1.426	     0.529	     0.010
92		91	    47.968	     0.394	     0.527	    -0.001
93		92	    49.223	     1.255	     0.535	     0.008
94		93	    50.115	     0.892	     0.539	     0.004
95		94	    51.708	     1.593	     0.550	     0.011
96		95	    53.814	     2.106	     0.566	     0.016
97		96	    53.809	    -0.005	     0.561	    -0.006
98		97	    56.300	     2.491	     0.580	     0.020
99		98	    60.061	     3.761	     0.613	     0.032
100		99	    58.135	    -1.926	     0.587	    -0.026
101		100	    59.413	     1.279	     0.594	     0.007
102		101	    60.168	     0.755	     0.596	     0.002
103		102	    60.982	     0.814	     0.598	     0.002
104		103	    62.563	     1.581	     0.607	     0.010
105		104	    63.639	     1.076	     0.612	     0.005
106		105	    64.934	     1.295	     0.618	     0.007
107		106	    66.999	     2.065	     0.632	     0.014
108		107	    67.365	     0.365	     0.630	    -0.002
109		108	    68.655	     1.290	     0.636	     0.006
110		109	    71.114	     2.459	     0.652	     0.017
111		110	    70.974	    -0.139	     0.645	    -0.007
112		111	    73.715	     2.741	     0.664	     0.019
113		112	    73.169	    -0.546	     0.653	    -0.011
114		113	    75.211	     2.042	     0.666	     0.012
115		114	    76.350	     1.139	     0.670	     0.004
116		115	    77.963	     1.612	     0.678	     0.008
117		116	    78.922	     0.959	     0.680	     0.002
118		117	    80.415	     1.494	     0.687	     0.007
119		118	    81.745	     1.330	     0.693	     0.005
120		119	    83.205	     1.460	     0.699	     0.006
121		120	    84.719	     1.514	     0.706	     0.007
122		121	    86.588	     1.869	     0.716	     0.010
123		122	    87.820	     1.232	     0.720	     0.004
124		123	    89.495	     1.675	     0.728	     0.008
125		124	    90.633	     1.138	     0.731	     0.003
126		125	    92.216	     1.583	     0.738	     0.007
127		126	    99.075	     6.860	     0.786	     0.049
128		127	   101.516	     2.441	     0.799	     0.013
129		128	   102.769	     1.253	     0.803	     0.004
130		129	   105.385	     2.616	     0.817	     0.014
131		130	   106.197	     0.812	     0.817	    -0.000
132		131	   108.334	     2.137	     0.827	     0.010
133		132	   109.581	     1.247	     0.830	     0.003
134		133	   111.284	     1.703	     0.837	     0.007
135		134	   112.979	     1.695	     0.843	     0.006
136		135	   114.648	     1.669	     0.849	     0.006
137		136	   116.776	     2.129	     0.859	     0.009
138		137	   119.283	     2.507	     0.871	     0.012
139		138	   120.188	     0.905	     0.871	     0.000
140		139	   122.694	     2.506	     0.883	     0.012
141		140	   123.241	     0.547	     0.880	    -0.002
142		141	   125.432	     2.191	     0.890	     0.009
143		142	   128.962	     3.531	     0.908	     0.019
144		143	   128.838	    -0.125	     0.901	    -0.007
145		144	   131.944	     3.107	     0.916	     0.015
146		145	   134.561	     2.617	     0.928	     0.012
147		146	   134.770	     0.209	     0.923	    -0.005
148		147	   136.602	     1.832	     0.929	     0.006
149		148	   138.866	     2.264	     0.938	     0.009
150		149	   140.440	     1.574	     0.943	     0.004
151		150	   143.605	     3.166	     0.957	     0.015
152		151	   144.610	     1.005	     0.958	     0.000
153		152	   147.787	     3.177	     0.972	     0.015
154		153	   163.418	    15.631	     1.068	     0.096
155		154	   150.741	   -12.676	     0.979	    -0.089
156		155	   173.538	    22.797	     1.120	     0.141
157		156	   168.020	    -5.518	     1.077	    -0.043
158		157	   170.047	     2.027	     1.083	     0.006
159		158	   172.973	     2.926	     1.095	     0.012
160		159	   174.632	     1.659	     1.098	     0.004
161		160	   177.377	     2.745	     1.109	     0.010
162		161	   179.466	     2.089	     1.115	     0.006
163		162	   171.678	    -7.788	     1.060	    -0.055
164		163	   173.196	     1.518	     1.063	     0.003
165		164	   187.186	    13.990	     1.141	     0.079
166		165	   189.098	     1.912	     1.146	     0.005
167		166	   180.450	    -8.648	     1.087	    -0.059
168		167	   195.998	    15.548	     1.174	     0.087
169		168	   184.105	   -11.893	     1.096	    -0.078
170		169	   201.865	    17.760	     1.194	     0.099
171		170	   204.382	     2.517	     1.202	     0.008
172		171	   211.825	     7.443	     1.239	     0.036
173		172	   208.566	    -3.259	     1.213	    -0.026
174		173	   207.068	    -1.498	     1.197	    -0.016
175		174	   209.676	     2.608	     1.205	     0.008
176		175	   213.818	     4.142	     1.222	     0.017
177		176	   216.797	     2.979	     1.232	     0.010
178		177	   216.494	    -0.303	     1.223	    -0.009
179		178	   218.636	     2.142	     1.228	     0.005
180		179	   211.176	    -7.460	     1.180	    -0.049
181		180	   224.751	    13.576	     1.249	     0.069
182		181	   226.912	     2.161	     1.254	     0.005
183		182	   216.770	   -10.142	     1.191	    -0.063
184		183	   220.902	     4.132	     1.207	     0.016
185		184	   222.110	     1.208	     1.207	     0.000
186		185	   226.360	     4.250	     1.224	     0.016
187		186	   228.359	     1.999	     1.228	     0.004
188		187	   243.330	    14.970	     1.301	     0.073
189		188	   250.939	     7.609	     1.335	     0.034
190		189	   248.872	    -2.067	     1.317	    -0.018
191		190	   250.630	     1.758	     1.319	     0.002
192		191	   251.566	     0.936	     1.317	    -0.002
193		192	   242.294	    -9.272	     1.262	    -0.055
194		193	   258.115	    15.821	     1.337	     0.075
195		194	   260.096	     1.981	     1.341	     0.003
196		195	   265.497	     5.401	     1.362	     0.021
197		196	   266.228	     0.731	     1.358	    -0.003
198		197	   268.764	     2.536	     1.364	     0.006
199		198	   271.278	     2.514	     1.370	     0.006
200		199	   261.636	    -9.642	     1.315	    -0.055
201		200	   276.646	    15.010	     1.383	     0.068
202		201	   268.578	    -8.069	     1.336	    -0.047
203		202	   282.761	    14.184	     1.400	     0.064
204		203	   289.691	     6.930	     1.427	     0.027
205		204	   288.891	    -0.800	     1.416	    -0.011
206		205	   295.773	     6.882	     1.443	     0.027
207		206	   298.894	     3.120	     1.451	     0.008
208		207	   311.702	    12.809	     1.506	     0.055
209		208	   376.019	    64.316	     1.808	     0.302
210		209	   310.534	   -65.484	     1.486	    -0.322
211		210	   301.460	    -9.075	     1.436	    -0.050
212		211	   319.696	    18.236	     1.515	     0.080
213		212	   322.523	     2.827	     1.521	     0.006
214		213	   326.186	     3.663	     1.531	     0.010
215		214	   335.102	     8.916	     1.566	     0.035
216		215	   329.902	    -5.200	     1.534	    -0.031
217		216	   333.298	     3.396	     1.543	     0.009
218		217	   335.284	     1.987	     1.545	     0.002
219		218	   340.143	     4.858	     1.560	     0.015
220		219	   329.771	   -10.372	     1.506	    -0.054
221		220	   335.197	     5.425	     1.524	     0.018
222		221	   350.215	    15.019	     1.585	     0.061
223		222	   356.060	     5.844	     1.604	     0.019
224		223	   344.465	   -11.595	     1.545	    -0.059
225		224	   361.926	    17.461	     1.616	     0.071
226		225	   364.037	     2.111	     1.618	     0.002
227		226	   368.808	     4.771	     1.632	     0.014
228		227	   375.000	     6.192	     1.652	     0.020
229		228	   383.264	     8.265	     1.681	     0.029
230		229	   370.051	   -13.213	     1.616	    -0.065
231		230	   387.884	    17.833	     1.686	     0.071
232		231	   385.936	    -1.948	     1.671	    -0.016
233		232	   407.592	    21.656	     1.757	     0.086
234		233	   389.612	   -17.980	     1.672	    -0.085
235		234	   394.195	     4.583	     1.685	     0.012
236		235	   398.115	     3.920	     1.694	     0.010
237		236	   448.296	    50.181	     1.900	     0.205
238		237	   389.794	   -58.501	     1.645	    -0.255
239		238	   409.093	    19.299	     1.719	     0.074
240		239	   412.003	     2.910	     1.724	     0.005
241		240	   419.363	     7.361	     1.747	     0.023
242		241	   423.021	     3.658	     1.755	     0.008
243		242	   422.278	    -0.743	     1.745	    -0.010
244		243	   430.192	     7.914	     1.770	     0.025
245		244	   442.396	    12.205	     1.813	     0.043
246		245	   433.925	    -8.472	     1.771	    -0.042
247		246	   452.018	    18.094	     1.837	     0.066
248		247	   440.859	   -11.160	     1.785	    -0.053
249		248	   456.578	    15.720	     1.841	     0.056
250		249	   448.382	    -8.197	     1.801	    -0.040
251		250	   470.007	    21.626	     1.880	     0.079
252		251	   455.691	   -14.316	     1.816	    -0.065
253		252	   474.206	    18.515	     1.882	     0.066
254		253	   463.538	   -10.668	     1.832	    -0.050
255		254	   517.040	    53.502	     2.036	     0.203
256		255	   510.426	    -6.615	     2.002	    -0.034
257		256	   510.287	    -0.139	     1.993	    -0.008
258		257	   516.226	     5.939	     2.009	     0.015
259		258	   520.393	     4.167	     2.017	     0.008
260		259	   524.369	     3.975	     2.025	     0.008
261		260	   528.877	     4.508	     2.034	     0.010
262		261	   533.667	     4.790	     2.045	     0.011
263		262	   549.005	    15.338	     2.095	     0.051
264		263	   547.474	    -1.530	     2.082	    -0.014
265		264	   548.100	     0.625	     2.076	    -0.006
266		265	   564.527	    16.428	     2.130	     0.054
267		266	   557.187	    -7.341	     2.095	    -0.036
268		267	   561.200	     4.013	     2.102	     0.007
269		268	   567.311	     6.111	     2.117	     0.015
270		269	   567.874	     0.563	     2.111	    -0.006
271		270	   574.054	     6.180	     2.126	     0.015
272		271	   577.323	     3.268	     2.130	     0.004
273		272	   584.779	     7.456	     2.150	     0.020
274		273	   585.791	     1.012	     2.146	    -0.004
275		274	   592.465	     6.674	     2.162	     0.017
276		275	   595.683	     3.218	     2.166	     0.004
277		276	   601.400	     5.717	     2.179	     0.013
278		277	   605.166	     3.766	     2.185	     0.006
279		278	   611.706	     6.541	     2.200	     0.016
280		279	   639.611	    27.905	     2.293	     0.092
281		280	   654.845	    15.234	     2.339	     0.046
282		281	   662.483	     7.637	     2.358	     0.019
283		282	   654.289	    -8.194	     2.320	    -0.037
284		283	   660.504	     6.215	     2.334	     0.014
285		284	   663.591	     3.087	     2.337	     0.003
286		285	   678.377	    14.786	     2.380	     0.044
287		286	   678.123	    -0.255	     2.371	    -0.009
288		287	   686.120	     7.997	     2.391	     0.020
289		288	   685.727	    -0.392	     2.381	    -0.010
290		289	   684.070	    -1.657	     2.367	    -0.014
291		290	   699.202	    15.132	     2.411	     0.044
292		291	   708.218	     9.015	     2.434	     0.023
293		292	   707.781	    -0.437	     2.424	    -0.010
294		293	   711.262	     3.481	     2.428	     0.004
295		294	   718.770	     7.508	     2.445	     0.017
296		295	   726.538	     7.768	     2.463	     0.018
297		296	   751.335	    24.798	     2.538	     0.075
298		297	   732.909	   -18.426	     2.468	    -0.071
299		298	   739.231	     6.322	     2.481	     0.013
300		299	   744.547	     5.316	     2.490	     0.009
301		300	   748.643	     4.096	     2.495	     0.005
302		301	   776.607	    27.964	     2.580	     0.085
303		302	   794.855	    18.248	     2.632	     0.052
304		303	   794.003	    -0.852	     2.620	    -0.011
305		304	   801.814	     7.811	     2.638	     0.017
306		305	   806.090	     4.276	     2.643	     0.005
307		306	   812.493	     6.403	     2.655	     0.012
308		307	   821.779	     9.286	     2.677	     0.022
309		308	   828.713	     6.934	     2.691	     0.014
310		309	   817.611	   -11.101	     2.646	    -0.045
311		310	   821.645	     4.034	     2.650	     0.004
312		311	   827.210	     5.565	     2.660	     0.009
313		312	   840.400	    13.189	     2.694	     0.034
314		313	   849.528	     9.128	     2.714	     0.021
315		314	   847.601	    -1.927	     2.699	    -0.015
316		315	   850.960	     3.359	     2.701	     0.002
317		316	   873.096	    22.137	     2.763	     0.062
318		317	   866.107	    -6.989	     2.732	    -0.031
319		318	   873.446	     7.339	     2.747	     0.014
320		319	   878.361	     4.914	     2.753	     0.007
321		320	   880.747	     2.387	     2.752	    -0.001
322		321	   886.748	     6.001	     2.762	     0.010
323		322	   903.311	    16.564	     2.805	     0.043
324		323	   897.655	    -5.656	     2.779	    -0.026
325		324	   903.192	     5.537	     2.788	     0.009
326		325	   918.912	    15.720	     2.827	     0.040
327		326	   924.074	     5.162	     2.835	     0.007
328		327	   921.598	    -2.476	     2.818	    -0.016
329		328	   927.921	     6.323	     2.829	     0.011
330		329	   941.254	    13.333	     2.861	     0.032
331		330	   953.424	    12.171	     2.889	     0.028
332		331	   959.051	     5.626	     2.897	     0.008
333		332	   960.600	     1.549	     2.893	    -0.004
334		333	   967.894	     7.294	     2.907	     0.013
335		334	   961.027	    -6.867	     2.877	    -0.029
336		335	   976.914	    15.887	     2.916	     0.039
337		336	   985.278	     8.364	     2.932	     0.016
338		337	   981.122	    -4.156	     2.911	    -0.021
339		338	   996.258	    15.136	     2.948	     0.036
340		339	  1006.035	     9.777	     2.968	     0.020
341		340	  1021.019	    14.984	     3.003	     0.035
342		341	  1006.053	   -14.966	     2.950	    -0.053
343		342	  1025.629	    19.576	     2.999	     0.049
344		343	  1030.587	     4.958	     3.005	     0.006
345		344	  1028.182	    -2.405	     2.989	    -0.016
346		345	  1061.716	    33.534	     3.077	     0.089
347		346	  1058.173	    -3.543	     3.058	    -0.019
348		347	  1058.987	     0.814	     3.052	    -0.006
349		348	  1066.638	     7.651	     3.065	     0.013
350		349	  1059.502	    -7.136	     3.036	    -0.029
351		350	  1085.359	    25.857	     3.101	     0.065
352		351	  1083.988	    -1.372	     3.088	    -0.013
353		352	  1082.045	    -1.943	     3.074	    -0.014
354		353	  1097.481	    15.436	     3.109	     0.035
355		354	  1107.437	     9.957	     3.128	     0.019
356		355	  1117.014	     9.577	     3.147	     0.018
357		356	  1122.197	     5.183	     3.152	     0.006
358		357	  1116.341	    -5.857	     3.127	    -0.025
359		358	  1132.953	    16.613	     3.165	     0.038
360		359	  1138.527	     5.574	     3.171	     0.007
361		360	  1147.710	     9.182	     3.188	     0.017
362		361	  1157.182	     9.472	     3.205	     0.017
363		362	  1146.638	   -10.544	     3.168	    -0.038
364		363	  1156.149	     9.511	     3.185	     0.017
365		364	  1179.069	    22.920	     3.239	     0.054
366		365	  1174.944	    -4.125	     3.219	    -0.020
367		366	  1183.135	     8.191	     3.233	     0.014
368		367	  1185.642	     2.507	     3.231	    -0.002
369		368	  1207.188	    21.545	     3.280	     0.050
370		369	  1207.793	     0.605	     3.273	    -0.007
371		370	  1223.637	    15.844	     3.307	     0.034
372		371	  1228.830	     5.193	     3.312	     0.005
373		372	  1237.109	     8.280	     3.326	     0.013
374		373	  1237.351	     0.242	     3.317	    -0.008
375		374	  1265.167	    27.816	     3.383	     0.066
376		375	  1268.539	     3.372	     3.383	    -0.000
377		376	  1279.048	    10.509	     3.402	     0.019
378		377	  1279.051	     0.002	     3.393	    -0.009
379		378	  1287.072	     8.022	     3.405	     0.012
380		379	  1296.850	     9.777	     3.422	     0.017
381		380	  1319.757	    22.907	     3.473	     0.051
382		381	  1344.232	    24.476	     3.528	     0.055
383		382	  1338.975	    -5.257	     3.505	    -0.023
384		383	  1346.095	     7.120	     3.515	     0.009
385		384	  1364.820	    18.725	     3.554	     0.040
386		385	  1384.239	    19.419	     3.595	     0.041
387		386	  1382.110	    -2.130	     3.581	    -0.015
388		387	  1401.404	    19.295	     3.621	     0.041
389		388	  1418.050	    16.646	     3.655	     0.034
390		389	  1415.214	    -2.836	     3.638	    -0.017
391		390	  1425.242	    10.028	     3.654	     0.016
392		391	  1439.462	    14.220	     3.681	     0.027
393		392	  1447.161	     7.699	     3.692	     0.010
394		393	  1429.579	   -17.581	     3.638	    -0.054
395		394	  1430.045	     0.466	     3.630	    -0.008
396		395	  1434.588	     4.543	     3.632	     0.002
397		396	  1440.950	     6.361	     3.639	     0.007
398		397	  1449.194	     8.245	     3.650	     0.012
399		398	  1457.614	     8.419	     3.662	     0.012
400		399	  1471.327	    13.713	     3.688	     0.025
401		400	  1479.108	     7.782	     3.698	     0.010
402		401	  1490.362	    11.253	     3.717	     0.019
403		402	  1504.539	    14.177	     3.743	     0.026
404		403	  1508.867	     4.328	     3.744	     0.001
405		404	  1521.815	    12.948	     3.767	     0.023
406		405	  1518.269	    -3.546	     3.749	    -0.018
407		406	  1526.931	     8.662	     3.761	     0.012
408		407	  1537.810	    10.879	     3.778	     0.017
409		408	  1542.010	     4.200	     3.779	     0.001
410		409	  1560.611	    18.601	     3.816	     0.036
411		410	  1554.301	    -6.310	     3.791	    -0.025
412		411	  1564.269	     9.969	     3.806	     0.015
413		412	  1586.437	    22.168	     3.851	     0.045
414		413	  1596.051	     9.614	     3.865	     0.014
415		414	  1607.273	    11.222	     3.882	     0.018
416		415	  1611.868	     4.595	     3.884	     0.002
417		416	  1611.374	    -0.494	     3.873	    -0.011
418		417	  1615.649	     4.275	     3.874	     0.001
419		418	  1634.872	    19.222	     3.911	     0.037
420		419	  1655.781	    20.910	     3.952	     0.041
421		420	  1649.640	    -6.142	     3.928	    -0.024
422		421	  1662.890	    13.251	     3.950	     0.022
423		422	  1668.513	     5.623	     3.954	     0.004
424		423	  1673.008	     4.495	     3.955	     0.001
425		424	  1682.923	     9.914	     3.969	     0.014
426		425	  1691.308	     8.385	     3.980	     0.010
427		426	  1701.148	     9.840	     3.993	     0.014
428		427	  1718.606	    17.458	     4.025	     0.032
429		428	  1735.615	    17.009	     4.055	     0.030
430		429	  1736.820	     1.206	     4.049	    -0.007
431		430	  1752.379	    15.558	     4.075	     0.027
432		431	  1768.255	    15.876	     4.103	     0.027
433		432	  1769.356	     1.101	     4.096	    -0.007
434		433	  1776.193	     6.837	     4.102	     0.006
435		434	  1787.034	    10.842	     4.118	     0.016
436		435	  1802.307	    15.273	     4.143	     0.026
437		436	  1813.244	    10.936	     4.159	     0.016
438		437	  1820.350	     7.106	     4.166	     0.007
439		438	  1833.305	    12.955	     4.186	     0.020
440		439	  1841.202	     7.897	     4.194	     0.008
441		440	  1841.375	     0.173	     4.185	    -0.009
442		441	  1859.578	    18.203	     4.217	     0.032
443		442	  1852.764	    -6.814	     4.192	    -0.025
444		443	  1860.295	     7.531	     4.199	     0.008
445		444	  1887.525	    27.230	     4.251	     0.052
446		445	  1889.269	     1.745	     4.246	    -0.006
447		446	  1895.056	     5.787	     4.249	     0.003
448		447	  1897.233	     2.177	     4.244	    -0.005
449		448	  1892.183	    -5.050	     4.224	    -0.021
450		449	  1918.093	    25.910	     4.272	     0.048
451		450	  1929.272	    11.179	     4.287	     0.015
452		451	  1930.457	     1.185	     4.280	    -0.007
453		452	  1953.161	    22.705	     4.321	     0.041
454		453	  1975.135	    21.974	     4.360	     0.039
455		454	  1980.661	     5.526	     4.363	     0.003
456		455	  1976.604	    -4.058	     4.344	    -0.019
457		456	  1990.660	    14.056	     4.365	     0.021
458		457	  2003.856	    13.196	     4.385	     0.019
459		458	  2014.717	    10.860	     4.399	     0.014
460		459	  2022.595	     7.879	     4.407	     0.008
461		460	  2031.604	     9.009	     4.417	     0.010
462		461	  2029.248	    -2.356	     4.402	    -0.015
463		462	  2034.585	     5.336	     4.404	     0.002
464		463	  2038.733	     4.148	     4.403	    -0.001
465		464	  2050.288	    11.555	     4.419	     0.015
466		465	  2056.871	     6.583	     4.423	     0.005
467		466	  2075.588	    18.717	     4.454	     0.031
468		467	  2091.264	    15.676	     4.478	     0.024
469		468	  2091.251	    -0.013	     4.468	    -0.010
470		469	  2093.991	     2.740	     4.465	    -0.004
471		470	  2109.113	    15.121	     4.487	     0.023
472		471	  2115.922	     6.809	     4.492	     0.005
473		472	  2141.063	    25.142	     4.536	     0.044
474		473	  2157.297	    16.233	     4.561	     0.025
475		474	  2151.208	    -6.089	     4.538	    -0.022
476		475	  2166.667	    15.460	     4.561	     0.023
477		476	  2182.182	    15.515	     4.584	     0.023
478		477	  2175.005	    -7.177	     4.560	    -0.025
479		478	  2197.603	    22.598	     4.597	     0.038
480		479	  2219.709	    22.105	     4.634	     0.037
481		480	  2230.372	    10.663	     4.647	     0.013
482		481	  2230.263	    -0.109	     4.637	    -0.010
483		482	  2259.511	    29.249	     4.688	     0.051
484		483	  2261.858	     2.347	     4.683	    -0.005
485		484	  2267.246	     5.388	     4.684	     0.001
486		485	  2276.187	     8.941	     4.693	     0.009
487		486	  2293.693	    17.506	     4.720	     0.026
488		487	  2287.587	    -6.106	     4.697	    -0.022
489		488	  2307.818	    20.231	     4.729	     0.032
490		489	  2324.606	    16.788	     4.754	     0.025
491		490	  2337.297	    12.690	     4.770	     0.016
492		491	  2328.530	    -8.767	     4.742	    -0.028
493		492	  2342.554	    14.024	     4.761	     0.019
494		493	  2348.596	     6.042	     4.764	     0.003
495		494	  2366.845	    18.250	     4.791	     0.027
496		495	  2364.396	    -2.450	     4.777	    -0.015
497		496	  2400.558	    36.163	     4.840	     0.063
498		497	  2391.412	    -9.146	     4.812	    -0.028
499		498	  2470.595	    79.183	     4.961	     0.149
500		499	  2504.291	    33.695	     5.019	     0.058
501		500	  2520.683	    16.392	     5.041	     0.023
502		501	  2512.118	    -8.565	     5.014	    -0.027
503		502	  2519.323	     7.205	     5.019	     0.004
504		503	  2511.801	    -7.522	     4.994	    -0.025
505		504	  2547.246	    35.444	     5.054	     0.060
506		505	  2538.055	    -9.191	     5.026	    -0.028
507		506	  2577.751	    39.696	     5.094	     0.069
508		507	  2565.181	   -12.570	     5.060	    -0.035
509		508	  2477.380	   -87.801	     4.877	    -0.183
510		509	  2477.657	     0.277	     4.868	    -0.009
511		510	  2859.106	   381.449	     5.606	     0.738
512		511	  2976.348	   117.242	     5.825	     0.218
513		512	  3013.160	    36.813	     5.885	     0.061
514		513	  3029.464	    16.304	     5.905	     0.020
515		514	  3039.183	     9.719	     5.913	     0.007
516		515	  3068.462	    29.278	     5.958	     0.045
517		516	  3075.064	     6.603	     5.959	     0.001
518		517	  3127.364	    52.299	     6.049	     0.090
519		518	  3095.514	   -31.850	     5.976	    -0.073
520		519	  3106.408	    10.895	     5.985	     0.009
521		520	  3113.477	     7.069	     5.987	     0.002
522		521	  3153.615	    40.138	     6.053	     0.066
523		522	  3135.176	   -18.439	     6.006	    -0.047
524		523	  3163.614	    28.438	     6.049	     0.043
525		524	  3201.051	    37.436	     6.109	     0.060
526		525	  3186.526	   -14.525	     6.070	    -0.039
527		526	  3221.627	    35.101	     6.125	     0.055
528		527	  3231.791	    10.164	     6.132	     0.008
529		528	  3238.186	     6.395	     6.133	     0.000
530		529	  3261.830	    23.644	     6.166	     0.033
531		530	  3280.146	    18.316	     6.189	     0.023
532		531	  3295.294	    15.148	     6.206	     0.017
533		532	  3287.801	    -7.494	     6.180	    -0.026
534		533	  3315.900	    28.100	     6.221	     0.041
535		534	  3321.261	     5.361	     6.220	    -0.002
536		535	  3313.943	    -7.318	     6.194	    -0.025
537		536	  3358.166	    44.223	     6.265	     0.071
538		537	  3357.336	    -0.830	     6.252	    -0.013
539		538	  3412.047	    54.711	     6.342	     0.090
540		539	  3393.246	   -18.800	     6.295	    -0.047
541		540	  3429.168	    35.922	     6.350	     0.055
542		541	  3428.734	    -0.434	     6.338	    -0.013
543		542	  3460.155	    31.421	     6.384	     0.046
544		543	  3478.846	    18.691	     6.407	     0.023
545		544	  3494.014	    15.168	     6.423	     0.016
546		545	  3518.013	    24.000	     6.455	     0.032
547		546	  3539.522	    21.509	     6.483	     0.028
548		547	  3542.289	     2.767	     6.476	    -0.007
549		548	  3548.602	     6.313	     6.476	    -0.000
550		549	  3550.653	     2.051	     6.467	    -0.008
551		550	  3582.776	    32.123	     6.514	     0.047
552		551	  3583.310	     0.534	     6.503	    -0.011
553		552	  3608.880	    25.571	     6.538	     0.035
554		553	  3614.525	     5.644	     6.536	    -0.002
555		554	  3629.773	    15.249	     6.552	     0.016
556		555	  3634.880	     5.107	     6.549	    -0.003
557		556	  3650.943	    16.063	     6.566	     0.017
558		557	  3677.251	    26.308	     6.602	     0.035
559		558	  3681.383	     4.132	     6.597	    -0.004
560		559	  3711.721	    30.339	     6.640	     0.042
561		560	  3723.044	    11.322	     6.648	     0.008
562		561	  3733.694	    10.650	     6.655	     0.007
563		562	  3756.853	    23.159	     6.685	     0.029
564		563	  3759.211	     2.357	     6.677	    -0.008
565		564	  3776.104	    16.894	     6.695	     0.018
566		565	  3796.961	    20.857	     6.720	     0.025
567		566	  3821.647	    24.686	     6.752	     0.032
568		567	  3835.714	    14.067	     6.765	     0.013
569		568	  3841.523	     5.809	     6.763	    -0.002
570		569	  3863.802	    22.279	     6.791	     0.027
571		570	  3872.851	     9.049	     6.794	     0.004
572		571	  3909.303	    36.452	     6.846	     0.052
573		572	  3909.577	     0.274	     6.835	    -0.011
574		573	  3923.093	    13.516	     6.847	     0.012
575		574	  3953.862	    30.769	     6.888	     0.042
576		575	  3958.052	     4.190	     6.884	    -0.005
577		576	  3968.832	    10.780	     6.890	     0.007
578		577	  3993.493	    24.661	     6.921	     0.031
579		578	  4006.750	    13.257	     6.932	     0.011
580		579	  4032.223	    25.473	     6.964	     0.032
581		580	  4053.544	    21.321	     6.989	     0.025
582		581	  4084.575	    31.031	     7.030	     0.041
583		582	  4093.739	     9.164	     7.034	     0.004
584		583	  4109.980	    16.241	     7.050	     0.016
585		584	  4092.303	   -17.677	     7.007	    -0.042
586		585	  4123.454	    31.151	     7.049	     0.041
587		586	  4137.844	    14.390	     7.061	     0.013
588		587	  4167.076	    29.233	     7.099	     0.038
589		588	  4191.227	    24.151	     7.128	     0.029
590		589	  4184.613	    -6.615	     7.105	    -0.023
591		590	  4208.556	    23.944	     7.133	     0.029
592		591	  4209.531	     0.975	     7.123	    -0.010
593		592	  4248.673	    39.142	     7.177	     0.054
594		593	  4249.148	     0.474	     7.166	    -0.011
595		594	  4265.096	    15.948	     7.180	     0.015
596		595	  4282.255	    17.159	     7.197	     0.017
597		596	  4319.361	    37.106	     7.247	     0.050
598		597	  4319.166	    -0.195	     7.235	    -0.012
599		598	  4322.061	     2.895	     7.228	    -0.007
600		599	  4351.274	    29.212	     7.264	     0.037
601		600	  4359.359	     8.085	     7.266	     0.001
602		601	  4408.444	    49.085	     7.335	     0.070
603		602	  4392.171	   -16.273	     7.296	    -0.039
604		603	  4414.517	    22.346	     7.321	     0.025
605		604	  4442.451	    27.934	     7.355	     0.034
606		605	  4464.602	    22.151	     7.380	     0.024
607		606	  4488.835	    24.233	     7.407	     0.028
608		607	  4479.497	    -9.338	     7.380	    -0.028
609		608	  4497.430	    17.933	     7.397	     0.017
610		609	  4536.554	    39.124	     7.449	     0.052
611		610	  4565.949	    29.395	     7.485	     0.036
612		611	  4562.162	    -3.787	     7.467	    -0.018
613		612	  4599.707	    37.545	     7.516	     0.049
614		613	  4613.990	    14.283	     7.527	     0.011
615		614	  4755.991	   142.000	     7.746	     0.219
616		615	  4742.358	   -13.633	     7.711	    -0.035
617		616	  4754.005	    11.647	     7.718	     0.006
618		617	  4859.049	   105.043	     7.875	     0.158
619		618	  4796.721	   -62.327	     7.762	    -0.114
620		619	  4799.596	     2.875	     7.754	    -0.008
621		620	  4822.353	    22.757	     7.778	     0.024
622		621	  4834.298	    11.945	     7.785	     0.007
623		622	  4962.779	   128.481	     7.979	     0.194
624		623	  4859.891	  -102.888	     7.801	    -0.178
625		624	  4979.878	   119.987	     7.981	     0.180
626		625	  4915.380	   -64.498	     7.865	    -0.116
627		626	  4949.480	    34.101	     7.907	     0.042
628		627	  4981.863	    32.382	     7.946	     0.039
629		628	  4970.100	   -11.763	     7.914	    -0.031
630		629	  5052.490	    82.390	     8.033	     0.118
631		630	  5070.017	    17.527	     8.048	     0.015
632		631	  5136.467	    66.450	     8.140	     0.093
633		632	  5152.714	    16.246	     8.153	     0.013
634		633	  5125.640	   -27.073	     8.097	    -0.056
635		634	  5179.912	    54.271	     8.170	     0.073
636		635	  5129.934	   -49.978	     8.079	    -0.092
637		636	  5233.041	   103.107	     8.228	     0.149
638		637	  5247.183	    14.142	     8.237	     0.009
639		638	  5263.526	    16.344	     8.250	     0.013
640		639	  5267.276	     3.750	     8.243	    -0.007
641		640	  5235.120	   -32.156	     8.180	    -0.063
642		641	  5261.208	    26.088	     8.208	     0.028
643		642	  5312.662	    51.453	     8.275	     0.067
644		643	  5360.416	    47.755	     8.337	     0.061
645		644	  5302.362	   -58.054	     8.233	    -0.103
646		645	  5337.945	    35.583	     8.276	     0.042
647		646	  5363.101	    25.156	     8.302	     0.026
648		647	  5358.399	    -4.702	     8.282	    -0.020
649		648	  5404.735	    46.336	     8.341	     0.059
650		649	  5406.902	     2.167	     8.331	    -0.010
651		650	  5473.373	    66.471	     8.421	     0.089
652		651	  5466.664	    -6.709	     8.397	    -0.023
653		652	  5454.589	   -12.075	     8.366	    -0.031
654		653	  5525.054	    70.465	     8.461	     0.095
655		654	  5507.011	   -18.043	     8.421	    -0.041
656		655	  5530.561	    23.550	     8.444	     0.023
657		656	  5556.209	    25.647	     8.470	     0.026
658		657	  5554.378	    -1.831	     8.454	    -0.016
659		658	  5634.944	    80.566	     8.564	     0.110
660		659	  5671.583	    36.639	     8.606	     0.043
661		660	  5637.864	   -33.719	     8.542	    -0.064
662		661	  5653.478	    15.614	     8.553	     0.011
663		662	  5677.157	    23.679	     8.576	     0.023
664		663	  5676.751	    -0.406	     8.562	    -0.014
665		664	  5679.946	     3.195	     8.554	    -0.008
666		665	  5728.982	    49.036	     8.615	     0.061
667		666	  5739.301	    10.319	     8.618	     0.003
668		667	  5834.705	    95.404	     8.748	     0.130
669		668	  5755.213	   -79.492	     8.616	    -0.132
670		669	  5814.892	    59.680	     8.692	     0.076
671		670	  5813.391	    -1.501	     8.677	    -0.015
672		671	  5854.999	    41.607	     8.726	     0.049
673		672	  5954.616	    99.617	     8.861	     0.135
674		673	  5894.137	   -60.478	     8.758	    -0.103
675		674	  5925.959	    31.822	     8.792	     0.034
676		675	  5976.024	    50.065	     8.853	     0.061
677		676	  5934.849	   -41.175	     8.779	    -0.074
678		677	  5966.483	    31.634	     8.813	     0.034
679		678	  6023.858	    57.375	     8.885	     0.072
680		679	  6011.946	   -11.911	     8.854	    -0.031
681		680	  6099.364	    87.417	     8.970	     0.116
682		681	  6122.138	    22.774	     8.990	     0.020
683		682	  6173.368	    51.230	     9.052	     0.062
684		683	  6111.277	   -62.091	     8.948	    -0.104
685		684	  6135.034	    23.757	     8.969	     0.022
686		685	  6293.232	   158.198	     9.187	     0.218
687		686	  6232.634	   -60.599	     9.085	    -0.102
688		687	  6225.459	    -7.175	     9.062	    -0.024
689		688	  6262.420	    36.961	     9.102	     0.041
690		689	  6271.453	     9.033	     9.102	    -0.000
691		690	  6295.100	    23.647	     9.123	     0.021
692		691	  6291.741	    -3.360	     9.105	    -0.018
693		692	  6437.747	   146.006	     9.303	     0.198
694		693	  6489.187	    51.440	     9.364	     0.061
695		694	  6499.189	    10.001	     9.365	     0.001
696		695	  6401.773	   -97.416	     9.211	    -0.154
697		696	  6483.130	    81.357	     9.315	     0.104
698		697	  6560.545	    77.415	     9.413	     0.098
699		698	  6598.638	    38.092	     9.454	     0.041
700		699	  6612.593	    13.956	     9.460	     0.006
701		700	  6567.532	   -45.062	     9.382	    -0.078
702		701	  6612.422	    44.891	     9.433	     0.051
703		702	  6670.041	    57.618	     9.501	     0.069
704		703	  6669.053	    -0.988	     9.487	    -0.015
705		704	  6696.500	    27.447	     9.512	     0.026
706		705	  6689.217	    -7.283	     9.488	    -0.024
707		706	  6760.572	    71.356	     9.576	     0.088
708		707	  6746.640	   -13.932	     9.543	    -0.033
709		708	  6869.399	   122.759	     9.703	     0.160
710		709	  6766.185	  -103.215	     9.543	    -0.159
711		710	  6784.841	    18.656	     9.556	     0.013
712		711	  6785.735	     0.894	     9.544	    -0.012
713		712	  6849.658	    63.923	     9.620	     0.076
714		713	  6873.233	    23.575	     9.640	     0.020
715		714	  6927.109	    53.876	     9.702	     0.062
716		715	  6930.298	     3.188	     9.693	    -0.009
717		716	  6907.810	   -22.488	     9.648	    -0.045
718		717	  7082.919	   175.109	     9.879	     0.231
719		718	  7024.875	   -58.044	     9.784	    -0.095
720		719	  6959.792	   -65.083	     9.680	    -0.104
721		720	  7032.373	    72.581	     9.767	     0.087
722		721	  7004.047	   -28.326	     9.714	    -0.053
723		722	  7040.178	    36.131	     9.751	     0.037
724		723	  7133.103	    92.925	     9.866	     0.115
725		724	  7090.016	   -43.087	     9.793	    -0.073
726		725	  7103.467	    13.451	     9.798	     0.005
727		726	  7152.197	    48.730	     9.852	     0.054
728		727	  7196.297	    44.100	     9.899	     0.047
729		728	  7185.412	   -10.885	     9.870	    -0.029
730		729	  7233.191	    47.778	     9.922	     0.052
731		730	  7262.630	    29.440	     9.949	     0.027
732		731	  7284.130	    21.500	     9.965	     0.016
733		732	  7278.809	    -5.322	     9.944	    -0.021
734		733	  7345.500	    66.692	    10.021	     0.077
735		734	  7328.266	   -17.234	     9.984	    -0.037
736		735	  7443.878	   115.612	    10.128	     0.144
737		736	  7402.255	   -41.623	    10.057	    -0.070
738		737	  7437.925	    35.670	    10.092	     0.035
739		738	  7405.264	   -32.661	    10.034	    -0.058
740		739	  7463.052	    57.788	    10.099	     0.065
741		740	  7583.736	   120.684	    10.248	     0.149
742		741	  7654.583	    70.847	    10.330	     0.082
743		742	  7542.320	  -112.262	    10.165	    -0.165
744		743	  7599.345	    57.024	    10.228	     0.063
745		744	  7587.372	   -11.973	    10.198	    -0.030
746		745	  7692.411	   105.040	    10.325	     0.127
747		746	  7704.287	    11.875	    10.327	     0.002
748		747	  7773.274	    68.987	    10.406	     0.079
749		748	  7788.707	    15.433	    10.413	     0.007
750		749	  7784.231	    -4.476	    10.393	    -0.020
751		750	  7800.612	    16.381	    10.401	     0.008
752		751	  7845.518	    44.906	    10.447	     0.046
753		752	  7879.802	    34.284	    10.478	     0.032
754		753	  7965.276	    85.474	    10.578	     0.100
755		754	  7906.927	   -58.350	    10.487	    -0.091
756		755	  7909.373	     2.446	    10.476	    -0.011
757		756	  7921.644	    12.272	    10.478	     0.002
758		757	  8002.025	    80.381	    10.571	     0.092
759		758	  7991.518	   -10.507	    10.543	    -0.028
760		759	  8022.359	    30.841	    10.570	     0.027
761		760	  8030.854	     8.495	    10.567	    -0.003
762		761	  8033.936	     3.082	    10.557	    -0.010
763		762	  8019.325	   -14.611	    10.524	    -0.033
764		763	  8073.855	    54.530	    10.582	     0.058
765		764	  8152.104	    78.250	    10.670	     0.089
766		765	  8175.571	    23.467	    10.687	     0.017
767		766	  8171.662	    -3.910	    10.668	    -0.019
768		767	  8187.647	    15.986	    10.675	     0.007
769		768	  8291.267	   103.620	    10.796	     0.121
770		769	  8320.558	    29.290	    10.820	     0.024
771		770	  8416.494	    95.937	    10.931	     0.111
772		771	  8341.692	   -74.802	    10.819	    -0.111
773		772	  8417.610	    75.918	    10.904	     0.084
774		773	  8445.450	    27.840	    10.926	     0.022
775		774	  8469.637	    24.187	    10.943	     0.017
776		775	  8497.661	    28.024	    10.965	     0.022
777		776	  8477.514	   -20.147	    10.925	    -0.040
778		777	  8542.065	    64.551	    10.994	     0.069
779		778	  8556.247	    14.182	    10.998	     0.004
780		779	  8652.360	    96.113	    11.107	     0.109
781		780	  8711.067	    58.707	    11.168	     0.061
782		781	  8611.081	   -99.985	    11.026	    -0.142
783		782	  8715.171	   104.089	    11.145	     0.119
784		783	  8727.018	    11.847	    11.146	     0.001
785		784	  8717.324	    -9.694	    11.119	    -0.027
786		785	  8747.005	    29.680	    11.143	     0.024
787		786	  8732.816	   -14.188	    11.110	    -0.032
788		787	  8804.720	    71.904	    11.188	     0.077
789		788	  8856.874	    52.154	    11.240	     0.052
790		789	  8859.531	     2.657	    11.229	    -0.011
791		790	  8900.112	    40.582	    11.266	     0.037
792		791	  8905.305	     5.193	    11.258	    -0.008
793		792	  8916.716	    11.411	    11.258	     0.000
794		793	  9020.888	   104.172	    11.376	     0.117
795		794	  8976.612	   -44.276	    11.306	    -0.070
796		795	  9070.815	    94.203	    11.410	     0.104
797		796	  9078.055	     7.240	    11.405	    -0.005
798		797	  9129.843	    51.788	    11.455	     0.051
799		798	  9101.228	   -28.615	    11.405	    -0.050
800		799	  9249.416	   148.188	    11.576	     0.171
801		800	  9182.141	   -67.275	    11.478	    -0.099
802		801	  9252.875	    70.734	    11.552	     0.074
803		802	  9267.938	    15.063	    11.556	     0.004
804		803	  9296.566	    28.628	    11.577	     0.021
805		804	  9339.219	    42.653	    11.616	     0.039
806		805	  9391.594	    52.375	    11.667	     0.051
807		806	  9435.418	    43.824	    11.706	     0.040
808		807	  9449.818	    14.400	    11.710	     0.003
809		808	  9476.000	    26.182	    11.728	     0.018
810		809	  9520.341	    44.341	    11.768	     0.040
811		810	  9534.732	    14.391	    11.771	     0.003
812		811	  9615.269	    80.537	    11.856	     0.085
813		812	  9641.705	    26.436	    11.874	     0.018
814		813	  9672.183	    30.478	    11.897	     0.023
815		814	  9687.853	    15.670	    11.902	     0.005
816		815	  9683.757	    -4.096	    11.882	    -0.020
817		816	  9720.676	    36.919	    11.913	     0.031
818		817	  9756.960	    36.283	    11.942	     0.030
819		818	  9830.975	    74.015	    12.018	     0.076
820		819	  9896.522	    65.547	    12.084	     0.065
821		820	  9978.203	    81.680	    12.169	     0.085
822		821	  9886.430	   -91.773	    12.042	    -0.127
823		822	  9940.186	    53.756	    12.093	     0.051
824		823	  9987.826	    47.641	    12.136	     0.043
825		824	 10030.780	    42.953	    12.173	     0.037
826		825	 10101.340	    70.561	    12.244	     0.071
827		826	 10124.662	    23.321	    12.257	     0.013
828		827	 10203.641	    78.979	    12.338	     0.081
829		828	 10174.825	   -28.816	    12.288	    -0.050
830		829	 10186.096	    11.271	    12.287	    -0.001
831		830	 10196.782	    10.686	    12.285	    -0.002
832		831	 10289.925	    93.143	    12.383	     0.097
833		832	 10273.126	   -16.799	    12.348	    -0.035
834		833	 10289.833	    16.707	    12.353	     0.005
835		834	 10332.120	    42.287	    12.389	     0.036
836		835	 10381.880	    49.759	    12.433	     0.045
837		836	 10544.074	   162.194	    12.613	     0.179
838		837	 10454.686	   -89.387	    12.491	    -0.122
839		838	 10505.703	    51.017	    12.537	     0.046
840		839	 10543.581	    37.878	    12.567	     0.030
841		840	 10518.521	   -25.060	    12.522	    -0.045
842		841	 10630.144	   111.624	    12.640	     0.118
843		842	 10666.292	    36.148	    12.668	     0.028
844		843	 10649.232	   -17.061	    12.633	    -0.035
845		844	 10761.336	   112.104	    12.750	     0.118
846		845	 10734.883	   -26.453	    12.704	    -0.046
847		846	 10717.967	   -16.916	    12.669	    -0.035
848		847	 10780.798	    62.831	    12.728	     0.059
849		848	 10852.099	    71.301	    12.797	     0.069
850		849	 10888.350	    36.251	    12.825	     0.028
851		850	 10936.894	    48.544	    12.867	     0.042
852		851	 10866.599	   -70.294	    12.769	    -0.098
853		852	 10901.533	    34.934	    12.795	     0.026
854		853	 10916.458	    14.925	    12.798	     0.002
855		854	 10982.634	    66.176	    12.860	     0.063
856		855	 11050.407	    67.773	    12.924	     0.064
857		856	 11038.177	   -12.230	    12.895	    -0.029
858		857	 11085.985	    47.808	    12.936	     0.041
859		858	 11187.282	   101.297	    13.039	     0.103
860		859	 11166.353	   -20.929	    12.999	    -0.040
861		860	 11204.345	    37.992	    13.028	     0.029
862		861	 11286.736	    82.391	    13.109	     0.081
863		862	 11411.826	   125.090	    13.239	     0.130
864		863	 11449.762	    37.936	    13.267	     0.029
865		864	 11489.360	    39.598	    13.298	     0.030
866		865	 11575.884	    86.524	    13.383	     0.085
867		866	 11656.964	    81.080	    13.461	     0.078
868		867	 11641.394	   -15.570	    13.427	    -0.033
869		868	 11814.423	   173.029	    13.611	     0.184
870		869	 11683.220	  -131.203	    13.444	    -0.167
871		870	 11773.176	    89.956	    13.532	     0.088
872		871	 11777.724	     4.548	    13.522	    -0.010
873		872	 11776.366	    -1.358	    13.505	    -0.017
874		873	 11883.779	   107.413	    13.613	     0.108
875		874	 11841.409	   -42.370	    13.549	    -0.064
876		875	 11950.707	   109.298	    13.658	     0.109
877		876	 11922.793	   -27.914	    13.610	    -0.047
878		877	 11952.121	    29.329	    13.628	     0.018
879		878	 12095.380	   143.259	    13.776	     0.148
880		879	 12026.267	   -69.113	    13.682	    -0.094
881		880	 12083.007	    56.740	    13.731	     0.049
882		881	 12066.398	   -16.609	    13.696	    -0.034
883		882	 12163.912	    97.514	    13.791	     0.095
884		883	 12199.455	    35.542	    13.816	     0.025
885		884	 12232.298	    32.844	    13.837	     0.022
886		885	 12277.509	    45.211	    13.873	     0.035
887		886	 12282.240	     4.731	    13.863	    -0.010
888		887	 12347.108	    64.868	    13.920	     0.058
889		888	 12397.509	    50.401	    13.961	     0.041
890		889	 12551.281	   153.772	    14.118	     0.157
891		890	 12385.225	  -166.056	    13.916	    -0.202
892		891	 12432.042	    46.817	    13.953	     0.037
893		892	 12506.523	    74.481	    14.021	     0.068
894		893	 12647.456	   140.933	    14.163	     0.142
895		894	 12666.757	    19.302	    14.169	     0.006
896		895	 12721.459	    54.701	    14.214	     0.045
897		896	 12709.648	   -11.811	    14.185	    -0.029
898		897	 12708.021	    -1.626	    14.167	    -0.018
899		898	 12834.065	   126.044	    14.292	     0.125
900		899	 12764.693	   -69.372	    14.199	    -0.093
901		900	 12981.739	   217.046	    14.424	     0.225
902		901	 12866.819	  -114.919	    14.281	    -0.144
903		902	 13054.664	   187.845	    14.473	     0.192
904		903	 12987.311	   -67.353	    14.382	    -0.091
905		904	 12924.236	   -63.074	    14.297	    -0.086
906		905	 13066.818	   142.582	    14.438	     0.142
907		906	 13045.986	   -20.833	    14.400	    -0.039
908		907	 13128.186	    82.201	    14.474	     0.075
909		908	 13219.237	    91.050	    14.559	     0.084
910		909	 13119.158	  -100.079	    14.433	    -0.126
911		910	 13219.031	    99.873	    14.526	     0.094
912		911	 13342.783	   123.753	    14.646	     0.120
913		912	 13303.534	   -39.250	    14.587	    -0.059
914		913	 13381.098	    77.564	    14.656	     0.069
915		914	 13339.592	   -41.505	    14.595	    -0.061
916		915	 13336.188	    -3.405	    14.575	    -0.020
917		916	 13404.127	    67.940	    14.633	     0.058
918		917	 13472.311	    68.184	    14.692	     0.058
919		918	 13484.087	    11.776	    14.689	    -0.003
920		919	 13505.932	    21.845	    14.696	     0.008
921		920	 13542.896	    36.964	    14.721	     0.024
922		921	 13622.810	    79.914	    14.791	     0.071
923		922	 13717.521	    94.711	    14.878	     0.087
924		923	 13747.392	    29.871	    14.894	     0.016
925		924	 13674.077	   -73.315	    14.799	    -0.095
926		925	 13740.079	    66.002	    14.854	     0.055
927		926	 13781.710	    41.631	    14.883	     0.029
928		927	 13837.833	    56.124	    14.928	     0.044
929		928	 13837.334	    -0.500	    14.911	    -0.017
930		929	 13887.496	    50.162	    14.949	     0.038
931		930	 13987.419	    99.923	    15.040	     0.091
932		931	 14092.621	   105.202	    15.137	     0.097
933		932	 14030.250	   -62.371	    15.054	    -0.083
934		933	 14075.724	    45.474	    15.087	     0.033
935		934	 14117.968	    42.244	    15.116	     0.029
936		935	 14200.400	    82.432	    15.188	     0.072
937		936	 14191.866	    -8.534	    15.162	    -0.025
938		937	 14231.788	    39.922	    15.189	     0.026
939		938	 14404.732	   172.944	    15.357	     0.168
940		939	 14266.211	  -138.521	    15.193	    -0.164
941		940	 14275.298	     9.087	    15.186	    -0.006
942		941	 14289.815	    14.517	    15.186	    -0.001
943		942	 14382.911	    93.096	    15.268	     0.083
944		943	 14352.914	   -29.997	    15.220	    -0.048
945		944	 14339.654	   -13.260	    15.190	    -0.030
946		945	 14429.467	    89.813	    15.269	     0.079
947		946	 14615.231	   185.764	    15.450	     0.180
948		947	 14523.619	   -91.612	    15.336	    -0.113
949		948	 14585.863	    62.244	    15.386	     0.049
950		949	 14621.283	    35.420	    15.407	     0.021
951		950	 14639.382	    18.099	    15.410	     0.003
952		951	 14731.001	    91.620	    15.490	     0.080
953		952	 14704.298	   -26.704	    15.446	    -0.044
954		953	 14703.669	    -0.629	    15.429	    -0.017
955		954	 14801.217	    97.548	    15.515	     0.086
956		955	 14801.245	     0.029	    15.499	    -0.016
957		956	 14944.846	   143.600	    15.633	     0.134
958		957	 15018.410	    73.565	    15.693	     0.061
959		958	 14977.259	   -41.151	    15.634	    -0.059
960		959	 15024.266	    47.007	    15.667	     0.033
961		960	 15035.400	    11.135	    15.662	    -0.005
962		961	 15191.470	   156.070	    15.808	     0.146
963		962	 15140.328	   -51.142	    15.738	    -0.070
964		963	 15192.275	    51.947	    15.776	     0.038
965		964	 15291.443	    99.168	    15.862	     0.087
966		965	 15363.575	    72.131	    15.921	     0.058
967		966	 15370.300	     6.725	    15.911	    -0.010
968		967	 15441.358	    71.058	    15.968	     0.057
969		968	 15478.584	    37.226	    15.990	     0.022
970		969	 15454.781	   -23.803	    15.949	    -0.041
971		970	 15505.632	    50.851	    15.985	     0.036
972		971	 15555.295	    49.663	    16.020	     0.035
973		972	 15622.290	    66.996	    16.072	     0.052
974		973	 15619.367	    -2.924	    16.053	    -0.020
975		974	 15720.699	   101.332	    16.140	     0.088
976		975	 15741.314	    20.615	    16.145	     0.005
977		976	 15780.602	    39.288	    16.169	     0.024
978		977	 15841.014	    60.412	    16.214	     0.045
979		978	 15979.549	   138.535	    16.339	     0.125
980		979	 16070.287	    90.738	    16.415	     0.076
981		980	 16167.983	    97.696	    16.498	     0.083
982		981	 16184.718	    16.735	    16.498	     0.000
983		982	 16321.084	   136.366	    16.620	     0.122
984		983	 16334.664	    13.580	    16.617	    -0.003
985		984	 16203.988	  -130.676	    16.467	    -0.150
986		985	 16440.451	   236.463	    16.691	     0.223
987		986	 16351.635	   -88.816	    16.584	    -0.107
988		987	 16425.854	    74.219	    16.642	     0.058
989		988	 16451.013	    25.159	    16.651	     0.009
990		989	 16427.511	   -23.502	    16.610	    -0.041
991		990	 16545.380	   117.869	    16.713	     0.102
992		991	 16475.504	   -69.876	    16.625	    -0.087
993		992	 16474.198	    -1.307	    16.607	    -0.018
994		993	 16580.381	   106.183	    16.697	     0.090
995		994	 16551.572	   -28.808	    16.651	    -0.046
996		995	 16626.303	    74.731	    16.710	     0.058
997		996	 16545.115	   -81.188	    16.612	    -0.098
998		997	 16273.715	  -271.401	    16.323	    -0.289
999		998	 16268.640	    -5.075	    16.301	    -0.021
1000		999	 15757.267	  -511.373	    15.773	    -0.528
1001		1000	 15306.656	  -450.611	    15.307	    -0.466
