#Size	#Para	 Time		 Diff		 Proc		 Diff
3		2	     0.084	     0.084	     0.042	     0.042
4		3	     0.129	     0.045	     0.043	     0.001
5		4	     0.309	     0.180	     0.077	     0.034
6		5	     0.233	    -0.076	     0.047	    -0.031
7		6	     0.345	     0.112	     0.057	     0.011
8		7	     0.368	     0.024	     0.053	    -0.005
9		8	     0.455	     0.087	     0.057	     0.004
10		9	     0.586	     0.130	     0.065	     0.008
11		10	     0.846	     0.261	     0.085	     0.020
12		11	     0.803	    -0.043	     0.073	    -0.012
13		12	     0.942	     0.139	     0.078	     0.005
14		13	     1.048	     0.106	     0.081	     0.002
15		14	     1.148	     0.099	     0.082	     0.001
16		15	     1.293	     0.146	     0.086	     0.004
17		16	     1.542	     0.248	     0.096	     0.010
18		17	     1.604	     0.062	     0.094	    -0.002
19		18	     1.886	     0.282	     0.105	     0.010
20		19	     2.192	     0.306	     0.115	     0.011
21		20	     2.290	     0.097	     0.114	    -0.001
22		21	     2.926	     0.636	     0.139	     0.025
23		22	     2.686	    -0.240	     0.122	    -0.017
24		23	     2.844	     0.158	     0.124	     0.002
25		24	     2.978	     0.134	     0.124	     0.000
26		25	     3.262	     0.284	     0.130	     0.006
27		26	     3.448	     0.186	     0.133	     0.002
28		27	     3.738	     0.290	     0.138	     0.006
29		28	     3.989	     0.251	     0.142	     0.004
30		29	     4.236	     0.247	     0.146	     0.004
31		30	     4.693	     0.457	     0.156	     0.010
32		31	     5.009	     0.317	     0.162	     0.005
33		32	     5.393	     0.383	     0.169	     0.007
34		33	     5.666	     0.274	     0.172	     0.003
35		34	     5.943	     0.276	     0.175	     0.003
36		35	     6.315	     0.372	     0.180	     0.006
37		36	     6.617	     0.302	     0.184	     0.003
38		37	     7.031	     0.414	     0.190	     0.006
39		38	     7.466	     0.435	     0.196	     0.006
40		39	     7.892	     0.426	     0.202	     0.006
41		40	     8.292	     0.400	     0.207	     0.005
42		41	     8.726	     0.434	     0.213	     0.006
43		42	     9.197	     0.471	     0.219	     0.006
44		43	     9.464	     0.268	     0.220	     0.001
45		44	     9.816	     0.352	     0.223	     0.003
46		45	    10.403	     0.587	     0.231	     0.008
47		46	    10.794	     0.391	     0.235	     0.003
48		47	    11.412	     0.618	     0.243	     0.008
49		48	    11.898	     0.486	     0.248	     0.005
50		49	    12.408	     0.510	     0.253	     0.005
51		50	    12.875	     0.467	     0.258	     0.004
52		51	    13.436	     0.561	     0.263	     0.006
53		52	    13.776	     0.340	     0.265	     0.001
54		53	    14.485	     0.709	     0.273	     0.008
55		54	    14.818	     0.333	     0.274	     0.001
56		55	    15.355	     0.537	     0.279	     0.005
57		56	    16.171	     0.816	     0.289	     0.010
58		57	    16.666	     0.495	     0.292	     0.004
59		58	    17.224	     0.559	     0.297	     0.005
60		59	    17.947	     0.723	     0.304	     0.007
61		60	    18.293	     0.346	     0.305	     0.001
62		61	    19.292	     0.999	     0.316	     0.011
63		62	    20.304	     1.011	     0.327	     0.011
64		63	    20.983	     0.679	     0.333	     0.006
65		64	    21.592	     0.609	     0.337	     0.004
66		65	    22.458	     0.866	     0.346	     0.008
67		66	    23.065	     0.607	     0.349	     0.004
68		67	    23.849	     0.783	     0.356	     0.006
69		68	    24.512	     0.663	     0.360	     0.005
70		69	    26.416	     1.904	     0.383	     0.022
71		70	    27.031	     0.615	     0.386	     0.003
72		71	    28.053	     1.021	     0.395	     0.009
73		72	    28.810	     0.757	     0.400	     0.005
74		73	    29.113	     0.304	     0.399	    -0.001
75		74	    30.132	     1.019	     0.407	     0.008
76		75	    32.655	     2.523	     0.435	     0.028
77		76	    31.910	    -0.745	     0.420	    -0.016
78		77	    31.812	    -0.098	     0.413	    -0.007
79		78	    32.636	     0.823	     0.418	     0.005
80		79	    33.581	     0.945	     0.425	     0.007
81		80	    34.135	     0.554	     0.427	     0.002
82		81	    34.720	     0.585	     0.429	     0.002
83		82	    35.876	     1.155	     0.438	     0.009
84		83	    36.461	     0.586	     0.439	     0.002
85		84	    37.676	     1.215	     0.449	     0.009
86		85	    38.409	     0.732	     0.452	     0.003
87		86	    39.722	     1.314	     0.462	     0.010
88		87	    40.548	     0.826	     0.466	     0.004
89		88	    41.775	     1.227	     0.475	     0.009
90		89	    42.239	     0.464	     0.475	    -0.000
91		90	    43.890	     1.651	     0.488	     0.013
92		91	    44.549	     0.659	     0.490	     0.002
93		92	    45.942	     1.393	     0.499	     0.010
94		93	    46.827	     0.885	     0.504	     0.004
95		94	    47.781	     0.954	     0.508	     0.005
96		95	    49.574	     1.792	     0.522	     0.014
97		96	    49.941	     0.367	     0.520	    -0.002
98		97	    50.541	     0.600	     0.521	     0.001
99		98	    55.587	     5.047	     0.567	     0.046
100		99	    56.037	     0.450	     0.566	    -0.001
101		100	    87.914	    31.877	     0.879	     0.313
102		101	    71.621	   -16.294	     0.709	    -0.170
103		102	    60.158	   -11.463	     0.590	    -0.119
104		103	    59.971	    -0.188	     0.582	    -0.008
105		104	    60.593	     0.622	     0.583	     0.000
106		105	    61.234	     0.641	     0.583	     0.001
107		106	    62.588	     1.354	     0.590	     0.007
108		107	    63.879	     1.291	     0.597	     0.007
109		108	    65.072	     1.194	     0.603	     0.006
110		109	    67.161	     2.088	     0.616	     0.014
111		110	    67.258	     0.097	     0.611	    -0.005
112		111	    69.563	     2.305	     0.627	     0.015
113		112	    69.347	    -0.216	     0.619	    -0.008
114		113	    71.368	     2.021	     0.632	     0.012
115		114	    72.285	     0.917	     0.634	     0.003
116		115	    74.012	     1.727	     0.644	     0.010
117		116	    75.102	     1.091	     0.647	     0.004
118		117	    76.157	     1.055	     0.651	     0.003
119		118	    77.572	     1.415	     0.657	     0.006
120		119	    78.680	     1.107	     0.661	     0.004
121		120	    80.112	     1.432	     0.668	     0.006
122		121	    81.847	     1.735	     0.676	     0.009
123		122	    83.045	     1.198	     0.681	     0.004
124		123	    84.704	     1.659	     0.689	     0.008
125		124	    86.050	     1.346	     0.694	     0.005
126		125	    87.092	     1.042	     0.697	     0.003
127		126	    97.075	     9.984	     0.770	     0.074
128		127	   100.866	     3.791	     0.794	     0.024
129		128	   101.264	     0.398	     0.791	    -0.003
130		129	    99.641	    -1.623	     0.772	    -0.019
131		130	   101.076	     1.436	     0.778	     0.005
132		131	   102.923	     1.847	     0.786	     0.008
133		132	   103.704	     0.781	     0.786	    -0.000
134		133	   105.439	     1.735	     0.793	     0.007
135		134	   107.605	     2.166	     0.803	     0.010
136		135	   108.325	     0.720	     0.802	    -0.001
137		136	   110.634	     2.309	     0.813	     0.011
138		137	   112.172	     1.538	     0.819	     0.005
139		138	   114.465	     2.293	     0.829	     0.011
140		139	   117.651	     3.187	     0.846	     0.017
141		140	   119.773	     2.122	     0.856	     0.009
142		141	   125.463	     5.690	     0.890	     0.034
143		142	   151.098	    25.635	     1.064	     0.174
144		143	   128.169	   -22.929	     0.896	    -0.168
145		144	   128.110	    -0.059	     0.890	    -0.007
146		145	   130.251	     2.141	     0.898	     0.009
147		146	   131.029	     0.779	     0.897	    -0.001
148		147	   132.932	     1.902	     0.904	     0.007
149		148	   134.459	     1.528	     0.909	     0.004
150		149	   136.580	     2.121	     0.917	     0.008
151		150	   142.729	     6.149	     0.952	     0.035
152		151	   143.767	     1.039	     0.952	     0.001
153		152	   146.992	     3.225	     0.967	     0.015
154		153	   161.103	    14.111	     1.053	     0.086
155		154	   147.259	   -13.843	     0.956	    -0.097
156		155	   164.279	    17.019	     1.060	     0.104
157		156	   170.821	     6.543	     1.095	     0.035
158		157	   165.937	    -4.884	     1.057	    -0.038
159		158	   168.032	     2.095	     1.063	     0.007
160		159	   173.831	     5.799	     1.093	     0.030
161		160	   218.091	    44.260	     1.363	     0.270
162		161	   174.410	   -43.682	     1.083	    -0.280
163		162	   166.939	    -7.470	     1.030	    -0.053
164		163	   169.794	     2.854	     1.042	     0.011
165		164	   185.984	    16.190	     1.134	     0.092
166		165	   185.886	    -0.097	     1.127	    -0.007
167		166	   178.564	    -7.322	     1.076	    -0.051
168		167	   193.896	    15.332	     1.161	     0.085
169		168	   251.659	    57.764	     1.498	     0.337
170		169	   196.327	   -55.332	     1.162	    -0.336
171		170	   197.615	     1.288	     1.162	     0.001
172		171	   201.196	     3.581	     1.177	     0.014
173		172	   212.334	    11.138	     1.235	     0.058
174		173	   204.521	    -7.813	     1.182	    -0.052
175		174	   207.251	     2.730	     1.191	     0.009
176		175	   209.402	     2.151	     1.197	     0.005
177		176	   212.397	     2.994	     1.207	     0.010
178		177	   214.044	     1.647	     1.209	     0.002
179		178	   216.673	     2.630	     1.217	     0.008
180		179	   208.413	    -8.260	     1.164	    -0.053
181		180	   223.631	    15.218	     1.242	     0.078
182		181	   224.177	     0.546	     1.239	    -0.004
183		182	   214.819	    -9.358	     1.180	    -0.058
184		183	   218.597	     3.778	     1.195	     0.014
185		184	   220.749	     2.152	     1.200	     0.005
186		185	   224.228	     3.479	     1.212	     0.012
187		186	   225.709	     1.480	     1.213	     0.001
188		187	   241.270	    15.561	     1.290	     0.077
189		188	   241.409	     0.139	     1.284	    -0.006
190		189	   245.683	     4.274	     1.300	     0.016
191		190	   253.963	     8.280	     1.337	     0.037
192		191	   249.662	    -4.301	     1.307	    -0.030
193		192	   240.508	    -9.154	     1.253	    -0.054
194		193	   255.527	    15.020	     1.324	     0.071
195		194	   257.557	     2.029	     1.328	     0.004
196		195	   262.748	     5.192	     1.347	     0.020
197		196	   263.558	     0.810	     1.345	    -0.003
198		197	   266.447	     2.889	     1.353	     0.008
199		198	   267.856	     1.409	     1.353	     0.000
200		199	   259.726	    -8.130	     1.305	    -0.048
201		200	   273.761	    14.035	     1.369	     0.064
202		201	   265.903	    -7.859	     1.323	    -0.046
203		202	   278.866	    12.963	     1.381	     0.058
204		203	   286.044	     7.178	     1.409	     0.029
205		204	   287.490	     1.446	     1.409	     0.000
206		205	   289.074	     1.584	     1.410	     0.001
207		206	   293.028	     3.953	     1.422	     0.012
208		207	   295.399	     2.371	     1.427	     0.005
209		208	   300.968	     5.569	     1.447	     0.020
210		209	   310.478	     9.510	     1.486	     0.039
211		210	   295.601	   -14.877	     1.408	    -0.078
212		211	   310.222	    14.621	     1.470	     0.063
213		212	   313.721	     3.499	     1.480	     0.010
214		213	   317.014	     3.293	     1.488	     0.009
215		214	   321.100	     4.086	     1.500	     0.012
216		215	   323.724	     2.623	     1.506	     0.005
217		216	   326.530	     2.806	     1.512	     0.006
218		217	   328.543	     2.014	     1.514	     0.002
219		218	   331.372	     2.828	     1.520	     0.006
220		219	   321.909	    -9.463	     1.470	    -0.050
221		220	   328.794	     6.885	     1.495	     0.025
222		221	   342.595	    13.801	     1.550	     0.056
223		222	   411.211	    68.616	     1.852	     0.302
224		223	   338.537	   -72.675	     1.518	    -0.334
225		224	   351.478	    12.941	     1.569	     0.051
226		225	   374.762	    23.284	     1.666	     0.097
227		226	   361.962	   -12.800	     1.602	    -0.064
228		227	   362.277	     0.315	     1.596	    -0.006
229		228	   369.701	     7.424	     1.621	     0.026
230		229	   359.046	   -10.655	     1.568	    -0.054
231		230	   376.636	    17.590	     1.638	     0.070
232		231	   375.593	    -1.043	     1.626	    -0.012
233		232	   378.858	     3.264	     1.633	     0.007
234		233	   404.474	    25.617	     1.736	     0.103
235		234	   389.343	   -15.131	     1.664	    -0.072
236		235	   391.141	     1.798	     1.664	     0.001
237		236	   395.592	     4.451	     1.676	     0.012
238		237	   451.088	    55.496	     1.903	     0.227
239		238	   405.324	   -45.764	     1.703	    -0.200
240		239	   408.110	     2.786	     1.708	     0.005
241		240	   407.508	    -0.602	     1.698	    -0.010
242		241	   412.128	     4.620	     1.710	     0.012
243		242	   419.140	     7.012	     1.732	     0.022
244		243	   487.226	    68.086	     2.005	     0.273
245		244	   438.016	   -49.211	     1.795	    -0.210
246		245	   426.165	   -11.851	     1.739	    -0.056
247		246	   440.632	    14.466	     1.791	     0.052
248		247	   527.069	    86.437	     2.134	     0.343
249		248	   451.786	   -75.283	     1.822	    -0.312
250		249	   441.407	   -10.379	     1.773	    -0.049
251		250	   506.097	    64.690	     2.024	     0.252
252		251	   455.072	   -51.025	     1.813	    -0.211
253		252	   468.063	    12.991	     1.857	     0.044
254		253	   565.048	    96.985	     2.233	     0.376
255		254	   511.137	   -53.911	     2.012	    -0.221
256		255	   508.483	    -2.654	     1.994	    -0.018
257		256	   577.861	    69.378	     2.257	     0.263
258		257	   514.068	   -63.793	     2.000	    -0.257
259		258	   516.088	     2.020	     2.000	     0.000
260		259	   521.346	     5.258	     2.013	     0.013
261		260	   524.829	     3.483	     2.019	     0.006
262		261	   531.773	     6.944	     2.037	     0.019
263		262	   547.062	    15.289	     2.088	     0.051
264		263	   540.534	    -6.528	     2.055	    -0.033
265		264	   546.448	     5.913	     2.070	     0.015
266		265	   561.336	    14.889	     2.118	     0.048
267		266	   555.501	    -5.835	     2.088	    -0.030
268		267	   558.875	     3.374	     2.093	     0.005
269		268	   565.166	     6.291	     2.109	     0.016
270		269	   566.060	     0.893	     2.104	    -0.005
271		270	   572.311	     6.251	     2.120	     0.015
272		271	   575.395	     3.084	     2.123	     0.004
273		272	   580.678	     5.283	     2.135	     0.012
274		273	   593.383	    12.705	     2.174	     0.039
275		274	   590.588	    -2.795	     2.155	    -0.018
276		275	   594.818	     4.230	     2.163	     0.008
277		276	   599.632	     4.814	     2.173	     0.010
278		277	   603.841	     4.209	     2.180	     0.007
279		278	   609.638	     5.798	     2.193	     0.013
280		279	   639.003	    29.365	     2.290	     0.097
281		280	   655.156	    16.153	     2.340	     0.050
282		281	   655.560	     0.404	     2.333	    -0.007
283		282	   656.404	     0.844	     2.328	    -0.005
284		283	   653.814	    -2.591	     2.310	    -0.017
285		284	   662.756	     8.943	     2.334	     0.023
286		285	   677.784	    15.028	     2.378	     0.045
287		286	   678.478	     0.694	     2.372	    -0.006
288		287	   676.890	    -1.588	     2.359	    -0.014
289		288	   684.283	     7.393	     2.376	     0.017
290		289	   681.118	    -3.165	     2.357	    -0.019
291		290	   695.157	    14.038	     2.397	     0.040
292		291	   697.259	     2.102	     2.396	    -0.001
293		292	   705.938	     8.679	     2.418	     0.022
294		293	   726.499	    20.561	     2.480	     0.062
295		294	   720.652	    -5.847	     2.451	    -0.028
296		295	   719.292	    -1.359	     2.438	    -0.013
297		296	   733.128	    13.835	     2.477	     0.039
298		297	   738.679	     5.552	     2.487	     0.010
299		298	   732.678	    -6.001	     2.459	    -0.028
300		299	   743.620	    10.942	     2.487	     0.028
301		300	   742.725	    -0.895	     2.476	    -0.011
302		301	   769.179	    26.454	     2.555	     0.080
303		302	   788.680	    19.500	     2.612	     0.056
304		303	   794.725	     6.045	     2.623	     0.011
305		304	   796.599	     1.874	     2.620	    -0.002
306		305	   801.308	     4.710	     2.627	     0.007
307		306	   806.708	     5.400	     2.636	     0.009
308		307	   812.651	     5.943	     2.647	     0.011
309		308	   820.354	     7.703	     2.663	     0.016
310		309	   814.274	    -6.080	     2.635	    -0.028
311		310	   818.188	     3.915	     2.639	     0.004
312		311	   822.217	     4.029	     2.644	     0.004
313		312	   826.722	     4.505	     2.650	     0.006
314		313	   847.669	    20.947	     2.708	     0.058
315		314	   848.038	     0.369	     2.701	    -0.007
316		315	   847.116	    -0.922	     2.689	    -0.012
317		316	   865.657	    18.541	     2.739	     0.050
318		317	   863.865	    -1.791	     2.725	    -0.014
319		318	   872.922	     9.057	     2.745	     0.020
320		319	   871.433	    -1.489	     2.732	    -0.013
321		320	   877.487	     6.054	     2.742	     0.010
322		321	   885.376	     7.889	     2.758	     0.016
323		322	   894.428	     9.052	     2.778	     0.020
324		323	   899.622	     5.195	     2.785	     0.007
325		324	   902.221	     2.599	     2.785	    -0.001
326		325	   914.288	    12.066	     2.813	     0.029
327		326	   924.387	    10.100	     2.836	     0.022
328		327	   921.863	    -2.525	     2.819	    -0.016
329		328	   924.018	     2.155	     2.817	    -0.002
330		329	   939.537	    15.519	     2.856	     0.039
331		330	   946.380	     6.844	     2.868	     0.012
332		331	   953.862	     7.482	     2.882	     0.014
333		332	   958.048	     4.186	     2.886	     0.004
334		333	   965.115	     7.067	     2.898	     0.013
335		334	   957.239	    -7.876	     2.866	    -0.032
336		335	   978.800	    21.561	     2.922	     0.056
337		336	   981.305	     2.505	     2.921	    -0.001
338		337	   977.217	    -4.088	     2.900	    -0.021
339		338	   995.133	    17.916	     2.944	     0.044
340		339	  1006.550	    11.417	     2.969	     0.025
341		340	  1010.509	     3.959	     2.972	     0.003
342		341	   999.504	   -11.006	     2.931	    -0.041
343		342	  1021.291	    21.787	     2.986	     0.055
344		343	  1028.925	     7.634	     3.000	     0.014
345		344	  1021.648	    -7.277	     2.970	    -0.030
346		345	  1042.895	    21.247	     3.023	     0.053
347		346	  1045.316	     2.420	     3.021	    -0.002
348		347	  1051.711	     6.395	     3.031	     0.010
349		348	  1065.699	    13.988	     3.062	     0.031
350		349	  1059.851	    -5.847	     3.037	    -0.026
351		350	  1072.212	    12.361	     3.063	     0.027
352		351	  1088.144	    15.932	     3.100	     0.037
353		352	  1073.824	   -14.320	     3.051	    -0.049
354		353	  1098.904	    25.080	     3.113	     0.062
355		354	  1101.077	     2.173	     3.110	    -0.003
356		355	  1103.593	     2.516	     3.109	    -0.002
357		356	  1110.847	     7.254	     3.120	     0.012
358		357	  1107.434	    -3.413	     3.102	    -0.018
359		358	  1126.693	    19.259	     3.147	     0.045
360		359	  1132.087	     5.394	     3.153	     0.006
361		360	  1137.596	     5.509	     3.160	     0.007
362		361	  1150.664	    13.068	     3.187	     0.027
363		362	  1139.445	   -11.219	     3.148	    -0.040
364		363	  1146.339	     6.895	     3.158	     0.010
365		364	  1166.744	    20.405	     3.205	     0.047
366		365	  1172.739	     5.995	     3.213	     0.008
367		366	  1170.392	    -2.347	     3.198	    -0.015
368		367	  1176.033	     5.641	     3.204	     0.007
369		368	  1192.180	    16.146	     3.240	     0.035
370		369	  1196.492	     4.312	     3.243	     0.003
371		370	  1204.696	     8.204	     3.256	     0.013
372		371	  1212.053	     7.356	     3.267	     0.011
373		372	  1220.992	     8.939	     3.282	     0.015
374		373	  1226.461	     5.469	     3.288	     0.006
375		374	  1247.080	    20.620	     3.334	     0.046
376		375	  1252.622	     5.542	     3.340	     0.006
377		376	  1257.307	     4.685	     3.344	     0.004
378		377	  1267.109	     9.802	     3.361	     0.017
379		378	  1274.608	     7.499	     3.372	     0.011
380		379	  1285.891	    11.283	     3.393	     0.021
381		380	  1290.634	     4.743	     3.396	     0.004
382		381	  1331.275	    40.640	     3.494	     0.098
383		382	  1326.278	    -4.997	     3.472	    -0.022
384		383	  1331.437	     5.159	     3.476	     0.004
385		384	  1364.583	    33.146	     3.554	     0.077
386		385	  1358.800	    -5.783	     3.529	    -0.024
387		386	  1364.056	     5.256	     3.534	     0.004
388		387	  1384.553	    20.497	     3.578	     0.044
389		388	  1403.031	    18.478	     3.616	     0.038
390		389	  1392.186	   -10.845	     3.579	    -0.037
391		390	  1392.034	    -0.153	     3.569	    -0.010
392		391	  1406.101	    14.067	     3.596	     0.027
393		392	  1407.612	     1.511	     3.591	    -0.005
394		393	  1405.709	    -1.903	     3.577	    -0.014
395		394	  1424.068	    18.359	     3.614	     0.038
396		395	  1413.650	   -10.419	     3.579	    -0.036
397		396	  1425.418	    11.768	     3.600	     0.021
398		397	  1458.678	    33.260	     3.674	     0.075
399		398	  1445.304	   -13.374	     3.631	    -0.043
400		399	  1465.774	    20.470	     3.674	     0.042
401		400	  1467.589	     1.815	     3.669	    -0.005
402		401	  1477.057	     9.468	     3.683	     0.014
403		402	  1480.595	     3.538	     3.683	    -0.000
404		403	  1501.852	    21.257	     3.727	     0.044
405		404	  1513.185	    11.333	     3.746	     0.019
406		405	  1504.189	    -8.995	     3.714	    -0.031
407		406	  1512.038	     7.849	     3.724	     0.010
408		407	  1535.405	    23.367	     3.772	     0.048
409		408	  1527.036	    -8.368	     3.743	    -0.030
410		409	  1539.742	    12.706	     3.765	     0.022
411		410	  1558.431	    18.688	     3.801	     0.036
412		411	  1562.910	     4.479	     3.803	     0.002
413		412	  1568.095	     5.184	     3.806	     0.003
414		413	  1574.084	     5.989	     3.811	     0.005
415		414	  1592.100	    18.017	     3.846	     0.034
416		415	  1607.387	    15.286	     3.873	     0.028
417		416	  1605.791	    -1.596	     3.860	    -0.013
418		417	  1607.560	     1.769	     3.855	    -0.005
419		418	  1623.158	    15.598	     3.883	     0.028
420		419	  1652.521	    29.363	     3.944	     0.061
421		420	  1638.752	   -13.769	     3.902	    -0.042
422		421	  1656.442	    17.690	     3.935	     0.033
423		422	  1659.015	     2.573	     3.931	    -0.003
424		423	  1665.793	     6.778	     3.938	     0.007
425		424	  1676.762	    10.969	     3.955	     0.017
426		425	  1682.742	     5.980	     3.959	     0.005
427		426	  1690.098	     7.356	     3.967	     0.008
428		427	  1715.047	    24.949	     4.017	     0.049
429		428	  1717.866	     2.818	     4.014	    -0.003
430		429	  1727.638	     9.773	     4.027	     0.013
431		430	  1745.786	    18.148	     4.060	     0.033
432		431	  1741.555	    -4.231	     4.041	    -0.019
433		432	  1756.676	    15.121	     4.066	     0.026
434		433	  1765.288	     8.612	     4.077	     0.010
435		434	  1763.367	    -1.921	     4.063	    -0.014
436		435	  1770.966	     7.599	     4.071	     0.008
437		436	  1782.751	    11.786	     4.089	     0.018
438		437	  1787.694	     4.942	     4.091	     0.002
439		438	  1800.852	    13.159	     4.112	     0.021
440		439	  1810.962	    10.110	     4.125	     0.014
441		440	  1820.076	     9.114	     4.137	     0.011
442		441	  1825.384	     5.308	     4.139	     0.003
443		442	  1827.103	     1.719	     4.134	    -0.005
444		443	  1839.899	    12.796	     4.153	     0.020
445		444	  1848.838	     8.939	     4.164	     0.011
446		445	  1856.980	     8.142	     4.173	     0.009
447		446	  1877.461	    20.481	     4.210	     0.037
448		447	  1876.475	    -0.986	     4.198	    -0.012
449		448	  1872.340	    -4.135	     4.179	    -0.019
450		449	  1906.275	    33.935	     4.246	     0.066
451		450	  1917.089	    10.814	     4.260	     0.015
452		451	  1917.489	     0.400	     4.252	    -0.009
453		452	  1917.108	    -0.381	     4.241	    -0.010
454		453	  1944.645	    27.537	     4.293	     0.051
455		454	  1960.901	    16.256	     4.319	     0.026
456		455	  1947.617	   -13.285	     4.280	    -0.039
457		456	  1955.991	     8.374	     4.289	     0.009
458		457	  1971.430	    15.439	     4.314	     0.024
459		458	  1994.934	    23.504	     4.356	     0.042
460		459	  1994.745	    -0.189	     4.346	    -0.010
461		460	  2002.475	     7.730	     4.353	     0.007
462		461	  2003.727	     1.252	     4.346	    -0.007
463		462	  2017.756	    14.029	     4.367	     0.021
464		463	  2026.680	     8.924	     4.377	     0.010
465		464	  2024.765	    -1.915	     4.364	    -0.014
466		465	  2037.221	    12.456	     4.381	     0.017
467		466	  2057.395	    20.173	     4.415	     0.034
468		467	  2062.043	     4.648	     4.416	     0.000
469		468	  2065.481	     3.438	     4.413	    -0.002
470		469	  2074.602	     9.121	     4.423	     0.010
471		470	  2087.743	    13.141	     4.442	     0.019
472		471	  2092.956	     5.213	     4.444	     0.002
473		472	  2114.249	    21.292	     4.479	     0.036
474		473	  2112.033	    -2.216	     4.465	    -0.014
475		474	  2128.625	    16.592	     4.491	     0.026
476		475	  2141.490	    12.865	     4.508	     0.018
477		476	  2151.664	    10.175	     4.520	     0.012
478		477	  2153.084	     1.419	     4.514	    -0.007
479		478	  2173.383	    20.299	     4.547	     0.033
480		479	  2187.150	    13.767	     4.566	     0.019
481		480	  2204.914	    17.764	     4.594	     0.027
482		481	  2201.586	    -3.329	     4.577	    -0.016
483		482	  2211.618	    10.032	     4.588	     0.011
484		483	  2233.422	    21.804	     4.624	     0.036
485		484	  2243.459	    10.037	     4.635	     0.011
486		485	  2253.948	    10.489	     4.647	     0.012
487		486	  2259.626	     5.678	     4.649	     0.002
488		487	  2258.358	    -1.268	     4.637	    -0.012
489		488	  2285.880	    27.522	     4.684	     0.047
490		489	  2296.812	    10.932	     4.697	     0.013
491		490	  2293.430	    -3.382	     4.680	    -0.016
492		491	  2310.784	    17.354	     4.706	     0.026
493		492	  2317.795	     7.011	     4.711	     0.005
494		493	  2328.605	    10.809	     4.723	     0.012
495		494	  2358.895	    30.291	     4.775	     0.052
496		495	  2341.700	   -17.195	     4.731	    -0.044
497		496	  2376.254	    34.554	     4.791	     0.060
498		497	  2372.880	    -3.374	     4.774	    -0.016
499		498	  2444.824	    71.944	     4.909	     0.135
500		499	  2449.340	     4.517	     4.908	    -0.001
501		500	  2444.531	    -4.809	     4.889	    -0.019
502		501	  2464.493	    19.962	     4.919	     0.030
503		502	  2493.137	    28.645	     4.966	     0.047
504		503	  2516.829	    23.692	     5.004	     0.037
505		504	  2514.155	    -2.675	     4.988	    -0.015
506		505	  2508.956	    -5.199	     4.968	    -0.020
507		506	  2530.845	    21.889	     5.002	     0.033
508		507	  2525.375	    -5.470	     4.981	    -0.021
509		508	  2443.937	   -81.438	     4.811	    -0.170
510		509	  2445.577	     1.640	     4.805	    -0.006
511		510	  2853.677	   408.100	     5.595	     0.791
512		511	  2979.040	   125.363	     5.830	     0.234
513		512	  3031.222	    52.182	     5.920	     0.091
514		513	  3053.371	    22.149	     5.952	     0.032
515		514	  3048.097	    -5.274	     5.930	    -0.022
516		515	  3067.879	    19.783	     5.957	     0.027
517		516	  3097.175	    29.295	     6.002	     0.045
518		517	  3089.127	    -8.048	     5.975	    -0.027
519		518	  3084.659	    -4.467	     5.955	    -0.020
520		519	  3156.393	    71.733	     6.082	     0.127
521		520	  3190.096	    33.704	     6.135	     0.053
522		521	  3195.735	     5.639	     6.134	    -0.001
523		522	  3215.602	    19.867	     6.160	     0.026
524		523	  3180.376	   -35.226	     6.081	    -0.079
525		524	  3220.159	    39.783	     6.145	     0.064
526		525	  3240.313	    20.154	     6.172	     0.027
527		526	  3217.249	   -23.064	     6.116	    -0.056
528		527	  3235.678	    18.428	     6.140	     0.023
529		528	  3267.343	    31.666	     6.188	     0.048
530		529	  3284.625	    17.282	     6.209	     0.021
531		530	  3313.496	    28.871	     6.252	     0.043
532		531	  3288.075	   -25.420	     6.192	    -0.060
533		532	  3309.532	    21.457	     6.221	     0.029
534		533	  3348.014	    38.482	     6.281	     0.061
535		534	  3342.609	    -5.405	     6.260	    -0.022
536		535	  3350.164	     7.555	     6.262	     0.002
537		536	  3366.852	    16.688	     6.281	     0.019
538		537	  3388.192	    21.340	     6.309	     0.028
539		538	  3403.199	    15.007	     6.326	     0.016
540		539	  3410.225	     7.026	     6.327	     0.001
541		540	  3432.291	    22.066	     6.356	     0.029
542		541	  3442.665	    10.374	     6.364	     0.007
543		542	  3457.980	    15.315	     6.380	     0.017
544		543	  3469.867	    11.887	     6.390	     0.010
545		544	  3491.060	    21.192	     6.417	     0.027
546		545	  3487.093	    -3.966	     6.398	    -0.019
547		546	  3540.069	    52.976	     6.484	     0.085
548		547	  3522.761	   -17.308	     6.440	    -0.043
549		548	  3546.649	    23.888	     6.472	     0.032
550		549	  3543.568	    -3.081	     6.455	    -0.017
551		550	  3578.901	    35.334	     6.507	     0.053
552		551	  3574.083	    -4.819	     6.487	    -0.021
553		552	  3600.667	    26.584	     6.523	     0.036
554		553	  3604.091	     3.424	     6.517	    -0.006
555		554	  3636.021	    31.931	     6.563	     0.046
556		555	  3636.347	     0.326	     6.552	    -0.011
557		556	  3648.648	    12.300	     6.562	     0.010
558		557	  3657.651	     9.003	     6.567	     0.004
559		558	  3670.691	    13.040	     6.578	     0.012
560		559	  3701.835	    31.145	     6.622	     0.044
561		560	  3719.585	    17.750	     6.642	     0.020
562		561	  3726.822	     7.236	     6.643	     0.001
563		562	  3737.617	    10.796	     6.651	     0.007
564		563	  3764.808	    27.191	     6.687	     0.036
565		564	  3792.568	    27.760	     6.724	     0.037
566		565	  3794.071	     1.503	     6.715	    -0.009
567		566	  3813.282	    19.211	     6.737	     0.022
568		567	  3816.784	     3.502	     6.732	    -0.006
569		568	  3840.279	    23.495	     6.761	     0.030
570		569	  3873.199	    32.920	     6.807	     0.046
571		570	  3867.691	    -5.509	     6.785	    -0.022
572		571	  3892.429	    24.738	     6.817	     0.031
573		572	  3889.503	    -2.926	     6.800	    -0.017
574		573	  3922.663	    33.160	     6.846	     0.046
575		574	  3940.922	    18.258	     6.866	     0.020
576		575	  3948.112	     7.190	     6.866	     0.001
577		576	  3961.116	    13.004	     6.877	     0.011
578		577	  3981.188	    20.072	     6.900	     0.023
579		578	  3989.053	     7.865	     6.901	     0.002
580		579	  4016.760	    27.707	     6.937	     0.036
581		580	  4035.042	    18.282	     6.957	     0.020
582		581	  4043.798	     8.756	     6.960	     0.003
583		582	  4061.735	    17.937	     6.979	     0.019
584		583	  4079.181	    17.446	     6.997	     0.018
585		584	  4103.931	    24.750	     7.027	     0.030
586		585	  4106.158	     2.227	     7.019	    -0.008
587		586	  4114.860	     8.702	     7.022	     0.003
588		587	  4154.231	    39.371	     7.077	     0.055
589		588	  4175.173	    20.941	     7.101	     0.024
590		589	  4169.453	    -5.720	     7.079	    -0.022
591		590	  4181.578	    12.125	     7.087	     0.009
592		591	  4190.544	     8.966	     7.091	     0.003
593		592	  4216.825	    26.280	     7.123	     0.032
594		593	  4235.916	    19.092	     7.143	     0.020
595		594	  4240.950	     5.033	     7.140	    -0.004
596		595	  4259.400	    18.450	     7.159	     0.019
597		596	  4277.264	    17.864	     7.177	     0.018
598		597	  4298.074	    20.810	     7.199	     0.023
599		598	  4296.596	    -1.478	     7.185	    -0.015
600		599	  4356.945	    60.349	     7.274	     0.089
601		600	  4354.753	    -2.192	     7.258	    -0.016
602		601	  4360.298	     5.545	     7.255	    -0.003
603		602	  4366.838	     6.540	     7.254	    -0.001
604		603	  4382.973	    16.135	     7.269	     0.015
605		604	  4416.429	    33.457	     7.312	     0.043
606		605	  4430.039	    13.610	     7.322	     0.010
607		606	  4463.942	    33.903	     7.366	     0.044
608		607	  4480.255	    16.313	     7.381	     0.015
609		608	  4489.295	     9.040	     7.384	     0.003
610		609	  4524.124	    34.829	     7.429	     0.045
611		610	  4566.606	    42.482	     7.486	     0.057
612		611	  4560.695	    -5.911	     7.464	    -0.022
613		612	  4561.490	     0.794	     7.453	    -0.011
614		613	  4591.373	    29.884	     7.490	     0.037
615		614	  4714.198	   122.824	     7.678	     0.188
616		615	  4719.325	     5.127	     7.674	    -0.004
617		616	  4742.733	    23.409	     7.699	     0.026
618		617	  4764.390	    21.656	     7.722	     0.023
619		618	  4793.823	    29.433	     7.757	     0.035
620		619	  4834.266	    40.443	     7.810	     0.053
621		620	  4806.828	   -27.439	     7.753	    -0.057
622		621	  4792.808	   -14.019	     7.718	    -0.035
623		622	  4818.043	    25.235	     7.746	     0.028
624		623	  4863.923	    45.879	     7.807	     0.061
625		624	  4889.935	    26.013	     7.836	     0.029
626		625	  4909.890	    19.955	     7.856	     0.019
627		626	  4888.569	   -21.322	     7.809	    -0.047
628		627	  4915.435	    26.866	     7.840	     0.030
629		628	  4961.252	    45.818	     7.900	     0.060
630		629	  5046.958	    85.706	     8.024	     0.124
631		630	  5060.836	    13.878	     8.033	     0.009
632		631	  5062.795	     1.959	     8.023	    -0.010
633		632	  5150.283	    87.488	     8.149	     0.126
634		633	  5081.274	   -69.009	     8.027	    -0.122
635		634	  5099.885	    18.610	     8.044	     0.017
636		635	  5146.775	    46.890	     8.105	     0.061
637		636	  5295.600	   148.826	     8.326	     0.221
638		637	  5162.627	  -132.974	     8.105	    -0.222
639		638	  5211.656	    49.030	     8.169	     0.064
640		639	  5233.655	    21.999	     8.190	     0.022
641		640	  5273.010	    39.355	     8.239	     0.049
642		641	  5279.666	     6.656	     8.237	    -0.002
643		642	  5277.459	    -2.207	     8.220	    -0.016
644		643	  5286.465	     9.006	     8.222	     0.001
645		644	  5297.006	    10.540	     8.225	     0.004
646		645	  5374.328	    77.323	     8.332	     0.107
647		646	  5338.847	   -35.482	     8.264	    -0.068
648		647	  5337.639	    -1.208	     8.250	    -0.015
649		648	  5376.310	    38.671	     8.297	     0.047
650		649	  5393.751	    17.441	     8.311	     0.014
651		650	  5434.969	    41.219	     8.361	     0.051
652		651	  5516.813	    81.844	     8.474	     0.113
653		652	  5589.005	    72.191	     8.572	     0.098
654		653	  5499.088	   -89.916	     8.421	    -0.151
655		654	  5571.537	    72.449	     8.519	     0.098
656		655	  5610.960	    39.423	     8.566	     0.047
657		656	  5636.118	    25.159	     8.592	     0.025
658		657	  5561.322	   -74.796	     8.465	    -0.127
659		658	  5602.161	    40.839	     8.514	     0.049
660		659	  5684.736	    82.576	     8.626	     0.112
661		660	  5651.739	   -32.998	     8.563	    -0.063
662		661	  5675.803	    24.064	     8.587	     0.023
663		662	  5680.068	     4.265	     8.580	    -0.007
664		663	  5690.620	    10.552	     8.583	     0.003
665		664	  5699.759	     9.139	     8.584	     0.001
666		665	  5700.101	     0.342	     8.572	    -0.012
667		666	  5783.989	    83.888	     8.685	     0.113
668		667	  5744.359	   -39.629	     8.612	    -0.072
669		668	  5852.473	   108.114	     8.761	     0.149
670		669	  5806.766	   -45.708	     8.680	    -0.081
671		670	  5828.153	    21.388	     8.699	     0.019
672		671	  5858.708	    30.555	     8.731	     0.033
673		672	  5957.540	    98.833	     8.865	     0.134
674		673	  5927.774	   -29.766	     8.808	    -0.057
675		674	  5919.748	    -8.026	     8.783	    -0.025
676		675	  6004.743	    84.996	     8.896	     0.113
677		676	  5948.086	   -56.657	     8.799	    -0.097
678		677	  5977.673	    29.586	     8.830	     0.031
679		678	  6082.832	   105.160	     8.972	     0.142
680		679	  6052.920	   -29.912	     8.914	    -0.057
681		680	  6060.674	     7.754	     8.913	    -0.002
682		681	  6115.911	    55.237	     8.981	     0.068
683		682	  6087.605	   -28.306	     8.926	    -0.055
684		683	  6150.011	    62.405	     9.004	     0.078
685		684	  6128.756	   -21.255	     8.960	    -0.044
686		685	  6173.350	    44.594	     9.012	     0.052
687		686	  6211.438	    38.088	     9.055	     0.042
688		687	  6297.447	    86.010	     9.167	     0.112
689		688	  6278.188	   -19.259	     9.125	    -0.041
690		689	  6345.440	    67.251	     9.210	     0.084
691		690	  6379.792	    34.352	     9.246	     0.036
692		691	  6310.496	   -69.296	     9.132	    -0.114
693		692	  6410.364	    99.868	     9.264	     0.131
694		693	  6392.586	   -17.778	     9.225	    -0.039
695		694	  6418.826	    26.240	     9.249	     0.025
696		695	  6421.418	     2.592	     9.239	    -0.010
697		696	  6484.339	    62.922	     9.317	     0.077
698		697	  6472.125	   -12.214	     9.286	    -0.031
699		698	  6468.098	    -4.027	     9.267	    -0.019
700		699	  6517.542	    49.444	     9.324	     0.057
701		700	  6501.112	   -16.430	     9.287	    -0.037
702		701	  6557.437	    56.326	     9.354	     0.067
703		702	  6591.378	    33.940	     9.389	     0.035
704		703	  6598.966	     7.588	     9.387	    -0.003
705		704	  6658.473	    59.507	     9.458	     0.071
706		705	  6666.251	     7.778	     9.456	    -0.002
707		706	  6706.856	    40.606	     9.500	     0.044
708		707	  6750.752	    43.896	     9.548	     0.049
709		708	  6745.081	    -5.672	     9.527	    -0.021
710		709	  6695.246	   -49.835	     9.443	    -0.084
711		710	  6759.795	    64.549	     9.521	     0.078
712		711	  6864.985	   105.190	     9.655	     0.135
713		712	  6813.853	   -51.132	     9.570	    -0.085
714		713	  6849.605	    35.751	     9.607	     0.037
715		714	  6855.116	     5.512	     9.601	    -0.006
716		715	  6894.429	    39.313	     9.643	     0.042
717		716	  6887.561	    -6.869	     9.619	    -0.023
718		717	  6915.001	    27.441	     9.644	     0.025
719		718	  6948.379	    33.377	     9.677	     0.033
720		719	  6992.120	    43.741	     9.725	     0.047
721		720	  7054.612	    62.492	     9.798	     0.073
722		721	  7040.898	   -13.714	     9.765	    -0.033
723		722	  7078.244	    37.346	     9.804	     0.038
724		723	  7050.897	   -27.347	     9.752	    -0.051
725		724	  7104.359	    53.462	     9.813	     0.060
726		725	  7128.534	    24.175	     9.832	     0.020
727		726	  7142.864	    14.330	     9.839	     0.006
728		727	  7205.137	    62.273	     9.911	     0.072
729		728	  7172.900	   -32.237	     9.853	    -0.058
730		729	  7225.161	    52.261	     9.911	     0.058
731		730	  7188.974	   -36.187	     9.848	    -0.063
732		731	  7218.939	    29.965	     9.875	     0.028
733		732	  7264.785	    45.846	     9.925	     0.049
734		733	  7366.046	   101.261	    10.049	     0.125
735		734	  7358.663	    -7.383	    10.025	    -0.024
736		735	  7356.512	    -2.151	    10.009	    -0.017
737		736	  7367.511	    11.000	    10.010	     0.001
738		737	  7391.236	    23.725	    10.029	     0.019
739		738	  7402.370	    11.134	    10.030	     0.001
740		739	  7442.941	    40.571	    10.072	     0.041
741		740	  7450.636	     7.695	    10.068	    -0.003
742		741	  7486.054	    35.418	    10.103	     0.034
743		742	  7511.966	    25.911	    10.124	     0.021
744		743	  7543.538	    31.572	    10.153	     0.029
745		744	  7612.947	    69.409	    10.232	     0.080
746		745	  7700.030	    87.084	    10.336	     0.103
747		746	  7698.653	    -1.378	    10.320	    -0.016
748		747	  7743.811	    45.159	    10.367	     0.047
749		748	  7778.896	    35.085	    10.400	     0.033
750		749	  7775.305	    -3.591	    10.381	    -0.019
751		750	  7812.418	    37.113	    10.417	     0.036
752		751	  7830.036	    17.618	    10.426	     0.010
753		752	  7880.211	    50.175	    10.479	     0.053
754		753	  7876.017	    -4.194	    10.460	    -0.019
755		754	  7854.018	   -21.999	    10.416	    -0.043
756		755	  7871.913	    17.895	    10.426	     0.010
757		756	  7950.894	    78.981	    10.517	     0.091
758		757	  7924.704	   -26.191	    10.469	    -0.048
759		758	  7939.487	    14.784	    10.474	     0.006
760		759	  7995.869	    56.382	    10.535	     0.060
761		760	  8042.772	    46.903	    10.583	     0.048
762		761	  8044.376	     1.604	    10.571	    -0.012
763		762	  8064.236	    19.860	    10.583	     0.012
764		763	  8096.126	    31.890	    10.611	     0.028
765		764	  8082.497	   -13.628	    10.579	    -0.032
766		765	  8121.850	    39.353	    10.617	     0.038
767		766	  8169.722	    47.872	    10.665	     0.049
768		767	  8179.046	     9.325	    10.664	    -0.002
769		768	  8294.311	   115.265	    10.800	     0.136
770		769	  8324.976	    30.665	    10.826	     0.026
771		770	  8357.813	    32.836	    10.854	     0.029
772		771	  8414.070	    56.258	    10.913	     0.059
773		772	  8454.627	    40.556	    10.952	     0.038
774		773	  8456.038	     1.411	    10.939	    -0.012
775		774	  8457.163	     1.126	    10.927	    -0.013
776		775	  8452.068	    -5.095	    10.906	    -0.021
777		776	  8497.620	    45.552	    10.951	     0.045
778		777	  8577.196	    79.576	    11.039	     0.088
779		778	  8536.657	   -40.539	    10.973	    -0.066
780		779	  8630.433	    93.776	    11.079	     0.106
781		780	  8626.076	    -4.358	    11.059	    -0.020
782		781	  8647.826	    21.751	    11.073	     0.014
783		782	  8680.869	    33.043	    11.101	     0.028
784		783	  8773.041	    92.172	    11.204	     0.104
785		784	  8778.051	     5.010	    11.196	    -0.008
786		785	  8752.841	   -25.211	    11.150	    -0.046
787		786	  8908.550	   155.709	    11.334	     0.184
788		787	  8879.882	   -28.668	    11.283	    -0.051
789		788	  8846.344	   -33.537	    11.226	    -0.057
790		789	  8888.197	    41.853	    11.265	     0.039
791		790	  8969.841	    81.644	    11.354	     0.089
792		791	  8946.936	   -22.905	    11.311	    -0.043
793		792	  9015.926	    68.990	    11.384	     0.073
794		793	  9000.537	   -15.390	    11.350	    -0.034
795		794	  9090.612	    90.076	    11.449	     0.099
796		795	  9072.388	   -18.224	    11.412	    -0.037
797		796	  9125.618	    53.229	    11.464	     0.053
798		797	  9142.251	    16.634	    11.471	     0.006
799		798	  9093.895	   -48.356	    11.396	    -0.075
800		799	  9179.429	    85.533	    11.489	     0.093
801		800	  9191.400	    11.971	    11.489	     0.001
802		801	  9220.073	    28.673	    11.511	     0.021
803		802	  9299.827	    79.754	    11.596	     0.085
804		803	  9325.034	    25.207	    11.613	     0.017
805		804	  9347.122	    22.089	    11.626	     0.013
806		805	  9489.717	   142.595	    11.788	     0.163
807		806	  9419.455	   -70.262	    11.687	    -0.102
808		807	  9433.427	    13.972	    11.690	     0.003
809		808	  9579.400	   145.972	    11.856	     0.166
810		809	  9528.891	   -50.508	    11.779	    -0.077
811		810	  9550.792	    21.900	    11.791	     0.012
812		811	  9645.545	    94.753	    11.893	     0.102
813		812	  9702.346	    56.801	    11.949	     0.055
814		813	  9656.433	   -45.913	    11.878	    -0.071
815		814	  9698.547	    42.114	    11.915	     0.037
816		815	  9789.368	    90.821	    12.011	     0.097
817		816	  9793.802	     4.434	    12.002	    -0.009
818		817	  9778.292	   -15.510	    11.969	    -0.034
819		818	  9818.750	    40.458	    12.003	     0.035
820		819	  9857.649	    38.899	    12.036	     0.033
821		820	  9934.093	    76.443	    12.115	     0.079
822		821	 10005.349	    71.257	    12.187	     0.072
823		822	  9976.081	   -29.268	    12.136	    -0.050
824		823	  9970.540	    -5.541	    12.115	    -0.021
825		824	 10016.717	    46.177	    12.156	     0.041
826		825	 10055.449	    38.732	    12.188	     0.032
827		826	 10077.443	    21.995	    12.200	     0.012
828		827	 10128.286	    50.843	    12.247	     0.047
829		828	 10163.467	    35.181	    12.275	     0.028
830		829	 10172.188	     8.720	    12.270	    -0.004
831		830	 10212.623	    40.435	    12.304	     0.034
832		831	 10212.990	     0.367	    12.290	    -0.014
833		832	 10228.429	    15.439	    12.294	     0.004
834		833	 10317.079	    88.650	    12.385	     0.092
835		834	 10378.916	    61.837	    12.445	     0.059
836		835	 10367.739	   -11.177	    12.416	    -0.028
837		836	 10415.076	    47.338	    12.458	     0.042
838		837	 10416.009	     0.932	    12.444	    -0.014
839		838	 10532.306	   116.298	    12.568	     0.124
840		839	 10491.545	   -40.761	    12.505	    -0.064
841		840	 10495.154	     3.609	    12.494	    -0.011
842		841	 10543.806	    48.651	    12.537	     0.043
843		842	 10610.250	    66.444	    12.601	     0.064
844		843	 10597.441	   -12.809	    12.571	    -0.030
845		844	 10700.741	   103.300	    12.679	     0.107
846		845	 10711.540	    10.800	    12.676	    -0.002
847		846	 10690.795	   -20.746	    12.637	    -0.040
848		847	 10744.208	    53.413	    12.685	     0.048
849		848	 10755.656	    11.448	    12.684	    -0.001
850		849	 10785.568	    29.912	    12.704	     0.020
851		850	 10793.523	     7.955	    12.698	    -0.006
852		851	 10843.628	    50.105	    12.742	     0.044
853		852	 10857.351	    13.723	    12.743	     0.001
854		853	 10866.150	     8.799	    12.739	    -0.005
855		854	 10898.952	    32.802	    12.762	     0.023
856		855	 10956.020	    57.068	    12.814	     0.052
857		856	 10978.857	    22.836	    12.826	     0.012
858		857	 11022.765	    43.909	    12.862	     0.036
859		858	 11088.696	    65.931	    12.924	     0.062
860		859	 11090.816	     2.120	    12.911	    -0.013
861		860	 11151.411	    60.596	    12.967	     0.055
862		861	 11251.656	   100.245	    13.068	     0.101
863		862	 11353.024	   101.367	    13.171	     0.102
864		863	 11364.823	    11.800	    13.169	    -0.002
865		864	 11381.216	    16.393	    13.173	     0.004
866		865	 11376.095	    -5.122	    13.152	    -0.021
867		866	 11423.355	    47.261	    13.191	     0.039
868		867	 11544.050	   120.695	    13.315	     0.124
869		868	 11514.833	   -29.217	    13.266	    -0.049
870		869	 11545.006	    30.173	    13.285	     0.019
871		870	 11577.921	    32.915	    13.308	     0.023
872		871	 11649.952	    72.031	    13.375	     0.067
873		872	 11685.419	    35.466	    13.401	     0.025
874		873	 11728.295	    42.876	    13.434	     0.034
875		874	 11862.499	   134.204	    13.573	     0.138
876		875	 11882.038	    19.539	    13.579	     0.007
877		876	 11895.197	    13.159	    13.579	    -0.000
878		877	 11815.018	   -80.178	    13.472	    -0.107
879		878	 12062.599	   247.581	    13.739	     0.267
880		879	 12021.445	   -41.154	    13.676	    -0.062
881		880	 11947.510	   -73.934	    13.577	    -0.100
882		881	 12033.733	    86.222	    13.659	     0.082
883		882	 12045.532	    11.799	    13.657	    -0.002
884		883	 12090.600	    45.069	    13.693	     0.036
885		884	 12093.262	     2.662	    13.680	    -0.012
886		885	 12135.197	    41.935	    13.712	     0.032
887		886	 12166.019	    30.822	    13.731	     0.019
888		887	 12229.849	    63.830	    13.788	     0.056
889		888	 12319.947	    90.098	    13.874	     0.086
890		889	 12264.274	   -55.673	    13.796	    -0.078
891		890	 12322.185	    57.911	    13.845	     0.050
892		891	 12322.113	    -0.072	    13.830	    -0.016
893		892	 12347.806	    25.694	    13.843	     0.013
894		893	 12437.998	    90.191	    13.928	     0.085
895		894	 12427.957	   -10.041	    13.902	    -0.027
896		895	 12518.286	    90.330	    13.987	     0.085
897		896	 12554.966	    36.680	    14.012	     0.025
898		897	 12545.538	    -9.428	    13.986	    -0.026
899		898	 12594.554	    49.016	    14.025	     0.039
900		899	 12626.432	    31.878	    14.045	     0.020
901		900	 12652.004	    25.572	    14.058	     0.013
902		901	 12729.062	    77.058	    14.128	     0.070
903		902	 12752.846	    23.784	    14.138	     0.011
904		903	 12777.981	    25.135	    14.151	     0.012
905		904	 12814.435	    36.454	    14.175	     0.025
906		905	 12873.484	    59.048	    14.225	     0.050
907		906	 12892.542	    19.058	    14.230	     0.005
908		907	 12893.557	     1.015	    14.216	    -0.015
909		908	 13008.705	   115.148	    14.327	     0.111
910		909	 13061.019	    52.314	    14.369	     0.042
911		910	 13037.901	   -23.118	    14.327	    -0.041
912		911	 13096.106	    58.205	    14.376	     0.048
913		912	 13124.771	    28.666	    14.391	     0.016
914		913	 13165.390	    40.619	    14.420	     0.029
915		914	 13208.434	    43.044	    14.451	     0.031
916		915	 13322.527	   114.093	    14.560	     0.109
917		916	 13441.029	   118.502	    14.674	     0.113
918		917	 13334.129	  -106.899	    14.541	    -0.133
919		918	 13377.730	    43.601	    14.573	     0.032
920		919	 13444.565	    66.835	    14.630	     0.057
921		920	 13502.417	    57.853	    14.677	     0.047
922		921	 13446.225	   -56.192	    14.600	    -0.077
923		922	 13536.777	    90.553	    14.682	     0.082
924		923	 13611.129	    74.351	    14.747	     0.065
925		924	 13651.684	    40.555	    14.775	     0.028
926		925	 13531.954	  -119.729	    14.629	    -0.145
927		926	 13678.607	   146.652	    14.772	     0.143
928		927	 13647.020	   -31.586	    14.722	    -0.050
929		928	 13716.493	    69.473	    14.781	     0.059
930		929	 13741.704	    25.211	    14.792	     0.011
931		930	 13735.192	    -6.512	    14.769	    -0.023
932		931	 13829.676	    94.483	    14.855	     0.086
933		932	 13890.680	    61.004	    14.904	     0.050
934		933	 13927.321	    36.641	    14.927	     0.023
935		934	 13900.775	   -26.546	    14.883	    -0.044
936		935	 14025.592	   124.817	    15.001	     0.118
937		936	 14054.857	    29.265	    15.016	     0.015
938		937	 14108.862	    54.005	    15.057	     0.042
939		938	 14154.335	    45.472	    15.090	     0.032
940		939	 14176.416	    22.082	    15.097	     0.007
941		940	 14303.305	   126.889	    15.216	     0.119
942		941	 14234.261	   -69.044	    15.127	    -0.090
943		942	 14318.838	    84.577	    15.200	     0.074
944		943	 14337.037	    18.199	    15.204	     0.003
945		944	 14325.693	   -11.344	    15.176	    -0.028
946		945	 14414.378	    88.686	    15.253	     0.078
947		946	 14449.489	    35.110	    15.274	     0.021
948		947	 14588.835	   139.347	    15.405	     0.131
949		948	 14518.915	   -69.921	    15.315	    -0.090
950		949	 14569.837	    50.922	    15.353	     0.038
951		950	 14615.867	    46.030	    15.385	     0.032
952		951	 14663.691	    47.825	    15.419	     0.034
953		952	 14677.714	    14.023	    15.418	    -0.001
954		953	 14827.395	   149.681	    15.559	     0.141
955		954	 14772.005	   -55.390	    15.484	    -0.074
956		955	 14840.094	    68.089	    15.539	     0.055
957		956	 14886.117	    46.023	    15.571	     0.032
958		957	 14898.802	    12.685	    15.568	    -0.003
959		958	 14928.898	    30.096	    15.583	     0.015
960		959	 14971.896	    42.998	    15.612	     0.029
961		960	 15051.143	    79.247	    15.678	     0.066
962		961	 15046.847	    -4.295	    15.657	    -0.021
963		962	 15100.915	    54.067	    15.697	     0.040
964		963	 15173.390	    72.475	    15.756	     0.059
965		964	 15207.018	    33.629	    15.775	     0.019
966		965	 15255.545	    48.527	    15.809	     0.034
967		966	 15298.052	    42.506	    15.836	     0.028
968		967	 15304.811	     6.760	    15.827	    -0.009
969		968	 15324.373	    19.562	    15.831	     0.004
970		969	 15362.906	    38.533	    15.854	     0.023
971		970	 15528.958	   166.052	    16.009	     0.155
972		971	 15495.612	   -33.346	    15.958	    -0.051
973		972	 15514.999	    19.387	    15.962	     0.004
974		973	 15536.242	    21.243	    15.967	     0.005
975		974	 15575.222	    38.980	    15.991	     0.024
976		975	 15624.502	    49.280	    16.025	     0.034
977		976	 15645.328	    20.826	    16.030	     0.005
978		977	 15735.745	    90.417	    16.106	     0.076
979		978	 15842.596	   106.851	    16.199	     0.093
980		979	 15971.550	   128.954	    16.314	     0.115
981		980	 15935.599	   -35.950	    16.261	    -0.053
982		981	 15942.201	     6.602	    16.251	    -0.010
983		982	 15959.907	    17.705	    16.252	     0.001
984		983	 15949.868	   -10.039	    16.226	    -0.027
985		984	 16181.951	   232.083	    16.445	     0.219
986		985	 16142.232	   -39.719	    16.388	    -0.057
987		986	 16127.272	   -14.960	    16.356	    -0.032
988		987	 16080.970	   -46.302	    16.293	    -0.063
989		988	 16114.464	    33.494	    16.310	     0.017
990		989	 16134.695	    20.231	    16.314	     0.004
991		990	 16220.716	    86.021	    16.385	     0.070
992		991	 16128.084	   -92.632	    16.275	    -0.110
993		992	 16190.475	    62.391	    16.321	     0.046
994		993	 16218.652	    28.176	    16.333	     0.012
995		994	 16285.837	    67.186	    16.384	     0.051
996		995	 16454.616	   168.778	    16.537	     0.153
997		996	 16534.711	    80.096	    16.601	     0.064
998		997	 16579.082	    44.370	    16.629	     0.028
999		998	 16244.548	  -334.534	    16.277	    -0.352
1000		999	 16031.422	  -213.125	    16.047	    -0.230
1001		1000	 16054.909	    23.487	    16.055	     0.007
