#Size	#Para	 Time		 Diff		 Proc		 Diff
4		2	     0.107	     0.107	     0.054	     0.054
8		3	     0.284	     0.177	     0.095	     0.041
14		4	     0.421	     0.137	     0.105	     0.011
22		5	     0.741	     0.320	     0.148	     0.043
32		6	     1.181	     0.439	     0.197	     0.048
44		7	     1.789	     0.608	     0.256	     0.059
58		8	     2.573	     0.784	     0.322	     0.066
74		9	     3.574	     1.001	     0.397	     0.075
92		10	     4.847	     1.273	     0.485	     0.088
112		11	     6.333	     1.487	     0.576	     0.091
134		12	    19.027	    12.693	     1.586	     1.010
158		13	    10.577	    -8.450	     0.814	    -0.772
184		14	    14.533	     3.956	     1.038	     0.224
212		15	    16.009	     1.476	     1.067	     0.029
242		16	    19.534	     3.525	     1.221	     0.154
274		17	    23.420	     3.886	     1.378	     0.157
308		18	    28.174	     4.754	     1.565	     0.188
344		19	    33.094	     4.920	     1.742	     0.177
382		20	    48.596	    15.502	     2.430	     0.688
422		21	    52.714	     4.118	     2.510	     0.080
464		22	    63.972	    11.258	     2.908	     0.398
508		23	    76.335	    12.363	     3.319	     0.411
554		24	    87.766	    11.431	     3.657	     0.338
602		25	    87.537	    -0.230	     3.501	    -0.155
652		26	    96.623	     9.086	     3.716	     0.215
704		27	   106.191	     9.568	     3.933	     0.217
758		28	   130.932	    24.741	     4.676	     0.743
814		29	   145.000	    14.068	     5.000	     0.324
872		30	   152.325	     7.325	     5.078	     0.077
932		31	   168.513	    16.188	     5.436	     0.358
994		32	   184.528	    16.016	     5.767	     0.331
1058		33	   199.608	    15.080	     6.049	     0.282
