1.000000000000000000e+00 4.067999999999999394e-01
2.000000000000000000e+00 9.266999999999999682e-01
3.000000000000000000e+00 1.554699999999999971e+00
4.000000000000000000e+00 2.177900000000000169e+00
5.000000000000000000e+00 2.728699999999999903e+00
6.000000000000000000e+00 3.628799999999999581e+00
7.000000000000000000e+00 4.553900000000000503e+00
8.000000000000000000e+00 5.818399999999999572e+00
9.000000000000000000e+00 7.196499999999997677e+00
1.000000000000000000e+01 8.486299999999999955e+00
1.100000000000000000e+01 9.792500000000000426e+00
1.200000000000000000e+01 1.191709999999999958e+01
1.300000000000000000e+01 1.358499999999999908e+01
1.400000000000000000e+01 1.608569999999999922e+01
1.500000000000000000e+01 1.840019999999999456e+01
1.600000000000000000e+01 2.098859999999999815e+01
1.700000000000000000e+01 2.337160000000000082e+01
1.800000000000000000e+01 2.652830000000000155e+01
1.900000000000000000e+01 3.356419999999999249e+01
2.000000000000000000e+01 2.996180000000000021e+01
2.100000000000000000e+01 3.659109999999999729e+01
2.200000000000000000e+01 5.842970000000000397e+01
2.300000000000000000e+01 4.374540000000000362e+01
2.400000000000000000e+01 4.322520000000000095e+01
2.500000000000000000e+01 7.000900000000000034e+01
2.600000000000000000e+01 5.473749999999999005e+01
2.700000000000000000e+01 7.678919999999999391e+01
2.800000000000000000e+01 5.851930000000000121e+01
2.900000000000000000e+01 9.380060000000000286e+01
3.000000000000000000e+01 7.038200000000000500e+01
3.100000000000000000e+01 8.062309999999999377e+01
3.200000000000000000e+01 8.453719999999999857e+01
3.300000000000000000e+01 1.062112000000000052e+02
3.400000000000000000e+01 1.012495999999999867e+02
3.500000000000000000e+01 1.191931000000000012e+02
3.600000000000000000e+01 1.121380000000000052e+02
3.700000000000000000e+01 1.528206999999999880e+02
3.800000000000000000e+01 1.510854999999999961e+02
3.900000000000000000e+01 1.390731000000000108e+02
4.000000000000000000e+01 1.652094999999999629e+02
4.100000000000000000e+01 1.750161999999999978e+02
4.200000000000000000e+01 1.665967999999999734e+02
4.300000000000000000e+01 2.007606999999999857e+02
4.400000000000000000e+01 1.907047999999999774e+02
4.500000000000000000e+01 2.105305999999999642e+02
4.600000000000000000e+01 2.094795000000000016e+02
4.700000000000000000e+01 2.057579999999999814e+02
4.800000000000000000e+01 2.236391000000000133e+02
4.900000000000000000e+01 2.375367999999999995e+02
5.000000000000000000e+01 2.437110999999999876e+02
5.100000000000000000e+01 2.550307999999999424e+02
5.200000000000000000e+01 2.801796000000000504e+02
5.300000000000000000e+01 2.881848999999999705e+02
5.400000000000000000e+01 3.080212000000000216e+02
5.500000000000000000e+01 3.177853999999999814e+02
5.600000000000000000e+01 3.269156999999999584e+02
5.700000000000000000e+01 3.495926000000000613e+02
5.800000000000000000e+01 3.953255000000000337e+02
5.900000000000000000e+01 3.778229000000000042e+02
6.000000000000000000e+01 3.725726999999999975e+02
6.100000000000000000e+01 4.400731999999999289e+02
6.200000000000000000e+01 4.670942999999999188e+02
6.300000000000000000e+01 4.951144000000000460e+02
6.400000000000000000e+01 5.086559999999999491e+02
6.500000000000000000e+01 5.387713999999999714e+02
6.600000000000000000e+01 5.556587000000000671e+02
6.700000000000000000e+01 5.725622999999999365e+02
6.800000000000000000e+01 5.900021000000000413e+02
6.900000000000000000e+01 6.044759999999999991e+02
7.000000000000000000e+01 6.387468000000000075e+02
7.100000000000000000e+01 6.579392000000000280e+02
7.200000000000000000e+01 6.735335999999999785e+02
7.300000000000000000e+01 7.239192000000000462e+02
7.400000000000000000e+01 7.423550999999999931e+02
7.500000000000000000e+01 7.648173000000000457e+02
7.600000000000000000e+01 7.812167000000000598e+02
7.700000000000000000e+01 8.022684000000000424e+02
7.800000000000000000e+01 8.205314999999998236e+02
7.900000000000000000e+01 8.424567000000000689e+02
8.000000000000000000e+01 8.411998999999999569e+02
8.100000000000000000e+01 8.780658999999999423e+02
8.200000000000000000e+01 9.043380999999999403e+02
8.300000000000000000e+01 9.410117999999999938e+02
8.400000000000000000e+01 9.445041000000001077e+02
8.500000000000000000e+01 9.662659999999999627e+02
8.600000000000000000e+01 9.895342999999999165e+02
8.700000000000000000e+01 1.012520599999999831e+03
8.800000000000000000e+01 1.035309499999999844e+03
8.900000000000000000e+01 1.096861800000000130e+03
9.000000000000000000e+01 1.154901500000000169e+03
9.100000000000000000e+01 1.179155799999999999e+03
9.200000000000000000e+01 1.200213799999999992e+03
9.300000000000000000e+01 1.229895299999999907e+03
9.400000000000000000e+01 1.256132000000000062e+03
9.500000000000000000e+01 1.285406500000000051e+03
9.600000000000000000e+01 1.306394799999999805e+03
9.700000000000000000e+01 1.335805700000000115e+03
9.800000000000000000e+01 1.376207100000000082e+03
9.900000000000000000e+01 1.406472599999999829e+03
1.000000000000000000e+02 1.429568600000000060e+03
1.010000000000000000e+02 1.424533600000000206e+03
1.020000000000000000e+02 1.391304899999999861e+03
1.030000000000000000e+02 1.419395999999999958e+03
1.040000000000000000e+02 1.445346000000000004e+03
1.050000000000000000e+02 1.472641100000000051e+03
1.060000000000000000e+02 1.521248600000000124e+03
1.070000000000000000e+02 1.526369400000000041e+03
1.080000000000000000e+02 1.483188000000000102e+03
1.090000000000000000e+02 1.407340199999999868e+03
1.100000000000000000e+02 1.420160399999999981e+03
1.110000000000000000e+02 1.435662799999999834e+03
1.120000000000000000e+02 1.354957400000000007e+03
1.130000000000000000e+02 1.380033699999999953e+03
1.140000000000000000e+02 1.274836499999999887e+03
1.150000000000000000e+02 1.313398400000000038e+03
1.160000000000000000e+02 1.330984800000000178e+03
1.170000000000000000e+02 1.344206100000000106e+03
1.180000000000000000e+02 1.378863500000000158e+03
1.190000000000000000e+02 1.401237800000000107e+03
1.200000000000000000e+02 1.424826499999999669e+03
1.210000000000000000e+02 1.444126899999999978e+03
1.220000000000000000e+02 1.466490000000000009e+03
1.230000000000000000e+02 1.525098899999999730e+03
1.240000000000000000e+02 1.559388799999999947e+03
1.250000000000000000e+02 1.595800099999999929e+03
1.260000000000000000e+02 1.755982700000000023e+03
1.270000000000000000e+02 1.798106099999999742e+03
1.280000000000000000e+02 1.844244199999999864e+03
1.290000000000000000e+02 1.880031500000000278e+03
1.300000000000000000e+02 1.910408799999999928e+03
1.310000000000000000e+02 1.936121700000000146e+03
1.320000000000000000e+02 1.959141200000000026e+03
1.330000000000000000e+02 1.990791799999999739e+03
1.340000000000000000e+02 2.014603700000000117e+03
1.350000000000000000e+02 2.060315999999999804e+03
1.360000000000000000e+02 2.089992099999999937e+03
1.370000000000000000e+02 2.113626799999999548e+03
1.380000000000000000e+02 2.145868400000000292e+03
1.390000000000000000e+02 2.175301800000000185e+03
1.400000000000000000e+02 2.234817600000000311e+03
1.410000000000000000e+02 2.266643399999999929e+03
1.420000000000000000e+02 2.286928600000000188e+03
1.430000000000000000e+02 2.335609100000000126e+03
1.440000000000000000e+02 2.367850600000000213e+03
1.450000000000000000e+02 2.398101499999999760e+03
1.460000000000000000e+02 2.427120100000001003e+03
1.470000000000000000e+02 2.473038500000000113e+03
1.480000000000000000e+02 2.492071399999999812e+03
1.490000000000000000e+02 2.534364000000000033e+03
1.500000000000000000e+02 2.595237000000000080e+03
1.510000000000000000e+02 2.637261600000000271e+03
1.520000000000000000e+02 2.675467200000000048e+03
1.530000000000000000e+02 2.691765899999999874e+03
1.540000000000000000e+02 2.728504699999999957e+03
1.550000000000000000e+02 2.747308400000000347e+03
1.560000000000000000e+02 2.755681000000000040e+03
1.570000000000000000e+02 2.773146399999999630e+03
1.580000000000000000e+02 2.810199299999999766e+03
1.590000000000000000e+02 2.843643399999999929e+03
1.600000000000000000e+02 2.891978299999999763e+03
1.610000000000000000e+02 2.925183299999999690e+03
1.620000000000000000e+02 2.950429000000000087e+03
1.630000000000000000e+02 2.971052299999999832e+03
1.640000000000000000e+02 3.066009299999999712e+03
1.650000000000000000e+02 3.071691199999999753e+03
1.660000000000000000e+02 3.123314000000000306e+03
1.670000000000000000e+02 3.293023500000000240e+03
