#Size	#Para	 Time		 Diff		 Proc		 Diff
9		1	     0.526	     0.526	     0.132	     0.132
15		2	     1.215	     0.688	     0.202	     0.071
21		3	     2.216	     1.002	     0.277	     0.075
27		4	     3.161	     0.944	     0.316	     0.039
33		5	     4.570	     1.410	     0.381	     0.065
39		6	     6.208	     1.637	     0.443	     0.063
45		7	     7.917	     1.709	     0.495	     0.051
51		8	    10.031	     2.114	     0.557	     0.062
57		9	    12.406	     2.375	     0.620	     0.063
63		10	    14.359	     1.953	     0.653	     0.032
69		11	    16.633	     2.274	     0.693	     0.040
75		12	    19.565	     2.932	     0.752	     0.059
81		13	    22.687	     3.122	     0.810	     0.058
87		14	    26.789	     4.102	     0.893	     0.083
93		15	    30.468	     3.679	     0.952	     0.059
99		16	    34.741	     4.273	     1.022	     0.070
105		17	    38.711	     3.970	     1.075	     0.054
111		18	    45.967	     7.256	     1.210	     0.134
117		19	    84.054	    38.087	     2.101	     0.892
123		20	    28.017	   -56.037	     0.667	    -1.434
129		21	    31.008	     2.992	     0.705	     0.038
135		22	    50.501	    19.492	     1.098	     0.393
141		23	    37.060	   -13.441	     0.772	    -0.326
147		24	    39.680	     2.620	     0.794	     0.022
153		25	    62.838	    23.158	     1.208	     0.415
159		26	    46.006	   -16.833	     0.852	    -0.356
165		27	    63.956	    17.951	     1.142	     0.290
171		28	    53.467	   -10.490	     0.922	    -0.220
177		29	    72.078	    18.611	     1.201	     0.279
183		30	    63.662	    -8.416	     1.027	    -0.174
189		31	   133.926	    70.264	     2.093	     1.066
195		32	   137.829	     3.903	     2.088	    -0.004
201		33	   172.937	    35.108	     2.543	     0.455
207		34	   156.700	   -16.237	     2.239	    -0.305
213		35	   187.884	    31.184	     2.609	     0.371
219		36	   177.678	   -10.206	     2.401	    -0.208
225		37	   223.300	    45.622	     2.938	     0.537
231		38	   212.809	   -10.491	     2.728	    -0.210
237		39	   213.862	     1.052	     2.673	    -0.055
243		40	   238.810	    24.948	     2.912	     0.239
249		41	   260.386	    21.577	     3.100	     0.188
255		42	   261.214	     0.828	     3.037	    -0.062
261		43	   293.903	    32.689	     3.340	     0.302
267		44	   302.337	     8.434	     3.359	     0.019
273		45	   317.477	    15.140	     3.451	     0.092
279		46	   322.586	     5.109	     3.432	    -0.019
285		47	   328.427	     5.842	     3.421	    -0.011
291		48	   336.549	     8.122	     3.434	     0.013
297		49	   379.213	    42.664	     3.792	     0.358
303		50	   371.270	    -7.943	     3.640	    -0.152
309		51	   378.834	     7.564	     3.643	     0.003
315		52	   412.479	    33.646	     3.891	     0.249
321		53	   420.190	     7.711	     3.891	    -0.001
327		54	   460.112	    39.922	     4.183	     0.292
333		55	   470.575	    10.463	     4.202	     0.019
339		56	   488.781	    18.206	     4.288	     0.086
345		57	   497.022	     8.241	     4.285	    -0.003
351		58	   516.016	    18.994	     4.373	     0.088
357		59	   546.375	    30.359	     4.553	     0.180
363		60	   542.192	    -4.183	     4.444	    -0.109
369		61	   588.193	    46.001	     4.743	     0.299
375		62	   633.325	    45.131	     5.026	     0.283
381		63	   642.057	     8.733	     5.016	    -0.010
387		64	   664.354	    22.296	     5.110	     0.094
393		65	   699.237	    34.883	     5.297	     0.187
399		66	   713.499	    14.262	     5.325	     0.027
405		67	   735.030	    21.531	     5.405	     0.080
411		68	   775.075	    40.045	     5.616	     0.212
417		69	   785.822	    10.746	     5.613	    -0.003
423		70	   829.534	    43.712	     5.842	     0.229
429		71	   851.683	    22.149	     5.914	     0.073
435		72	   872.536	    20.853	     5.976	     0.062
441		73	   941.426	    68.890	     6.361	     0.385
447		74	   964.548	    23.122	     6.430	     0.069
453		75	   993.915	    29.366	     6.539	     0.109
459		76	  1010.440	    16.526	     6.561	     0.022
465		77	  1049.269	    38.829	     6.726	     0.165
471		78	  1074.243	    24.974	     6.799	     0.073
477		79	  1080.635	     6.392	     6.754	    -0.045
483		80	  1086.308	     5.672	     6.706	    -0.048
489		81	  1134.599	    48.292	     6.918	     0.213
495		82	  1176.926	    42.327	     7.090	     0.172
501		83	  1223.710	    46.783	     7.284	     0.194
507		84	  1227.911	     4.201	     7.223	    -0.061
513		85	  1263.860	    35.949	     7.348	     0.125
519		86	  1294.962	    31.103	     7.442	     0.094
525		87	  1323.799	    28.837	     7.522	     0.079
531		88	  1340.711	    16.912	     7.532	     0.010
537		89	  1417.384	    76.673	     7.874	     0.342
543		90	  1499.412	    82.028	     8.239	     0.364
549		91	  1545.539	    46.127	     8.400	     0.161
555		92	  1558.979	    13.440	     8.382	    -0.018
561		93	  1598.372	    39.394	     8.502	     0.120
567		94	  1644.004	    45.631	     8.653	     0.151
573		95	  1675.905	    31.901	     8.729	     0.076
579		96	  1700.972	    25.067	     8.768	     0.039
585		97	  1745.110	    44.138	     8.904	     0.136
591		98	  1809.673	    64.564	     9.140	     0.236
597		99	  1835.373	    25.700	     9.177	     0.037
603		100	  1869.975	    34.603	     9.257	     0.080
609		101	  1889.672	    19.697	     9.263	     0.006
615		102	  1934.636	    44.964	     9.391	     0.128
621		103	  1967.461	    32.825	     9.459	     0.068
627		104	  2020.539	    53.078	     9.622	     0.163
633		105	  2059.439	    38.900	     9.714	     0.093
639		106	  2122.854	    63.415	     9.920	     0.206
645		107	  2181.908	    59.054	    10.101	     0.182
651		108	  2228.897	    46.989	    10.224	     0.123
657		109	  1298.390	  -930.507	     5.902	    -4.323
663		110	  1215.204	   -83.186	     5.474	    -0.428
669		111	  1263.576	    48.372	     5.641	     0.167
675		112	  1257.260	    -6.316	     5.563	    -0.078
681		113	  1281.381	    24.121	     5.620	     0.057
687		114	  1296.996	    15.615	     5.639	     0.019
693		115	  1326.917	    29.921	     5.719	     0.080
699		116	  1357.789	    30.872	     5.803	     0.083
705		117	  1347.458	   -10.331	     5.710	    -0.093
711		118	  1397.955	    50.497	     5.874	     0.164
717		119	  1430.609	    32.654	     5.961	     0.087
723		120	  1441.345	    10.736	     5.956	    -0.005
729		121	  1461.998	    20.652	     5.992	     0.036
735		122	  1485.260	    23.263	     6.038	     0.046
741		123	  1555.846	    70.586	     6.274	     0.236
747		124	  1591.619	    35.773	     6.366	     0.093
753		125	  1641.944	    50.325	     6.516	     0.149
759		126	  1796.998	   155.054	     7.075	     0.559
765		127	  1803.711	     6.713	     7.046	    -0.029
771		128	  1872.619	    68.907	     7.258	     0.212
777		129	  1926.300	    53.681	     7.409	     0.151
783		130	  1951.751	    25.451	     7.449	     0.041
789		131	  1981.073	    29.322	     7.504	     0.055
795		132	  1973.893	    -7.179	     7.421	    -0.083
801		133	  2010.604	    36.711	     7.502	     0.082
807		134	  2025.491	    14.888	     7.502	    -0.000
813		135	  2068.094	    42.602	     7.603	     0.101
819		136	  2102.863	    34.770	     7.675	     0.071
825		137	  2141.219	    38.356	     7.758	     0.083
831		138	  2159.915	    18.696	     7.769	     0.011
837		139	  2180.957	    21.042	     7.789	     0.020
843		140	  2262.544	    81.587	     8.023	     0.234
849		141	  2290.700	    28.156	     8.066	     0.043
855		142	  2305.815	    15.115	     8.062	    -0.004
861		143	  2340.990	    35.174	     8.128	     0.066
867		144	  2395.747	    54.758	     8.261	     0.133
873		145	  2426.003	    30.256	     8.308	     0.047
879		146	  2453.160	    27.157	     8.344	     0.036
885		147	  2503.861	    50.701	     8.459	     0.115
891		148	  2531.986	    28.125	     8.497	     0.038
897		149	  2562.693	    30.707	     8.542	     0.046
903		150	  2727.664	   164.971	     9.032	     0.490
909		151	  2825.319	    97.654	     9.294	     0.262
915		152	  2743.199	   -82.120	     8.965	    -0.329
921		153	  2729.785	   -13.413	     8.863	    -0.102
927		154	  2856.416	   126.631	     9.214	     0.351
933		155	  2779.130	   -77.286	     8.907	    -0.307
939		156	  2754.678	   -24.452	     8.773	    -0.135
945		157	  2783.593	    28.915	     8.809	     0.036
951		158	  2808.033	    24.440	     8.830	     0.021
957		159	  2844.777	    36.744	     8.890	     0.060
963		160	  2919.779	    75.002	     9.068	     0.178
969		161	  2901.495	   -18.284	     8.955	    -0.112
975		162	  2951.113	    49.618	     9.052	     0.097
981		163	  2978.743	    27.631	     9.082	     0.029
987		164	  3046.046	    67.303	     9.230	     0.149
993		165	  3079.243	    33.197	     9.275	     0.044
999		166	  3106.928	    27.685	     9.302	     0.027
1005		167	  3245.738	   138.809	     9.660	     0.358
