> promela file    : ../load_balancer/spin_code/load_balancer_112.pml
> date            : 27-Jan-2021 22:56:09
> spin version    : Spin Version 6.5.1 -- 31 July 2020
> gcc version     : 8
> runspin command : runspin ../load_balancer/spin_code/load_balancer_112.pml
> config source   : default commands for a safety verification run
> spin command    : spin -a -b
> gcc command     : gcc -o pan -DVECTORSZ=4096 -DSAFETY -DMEMLIM=8192 pan.c
> pan command     : ./pan -m10000000 -c1 -w19 -n

(Spin Version 6.5.1 -- 31 July 2020)
	+ Partial Order Reduction

Full statespace search for:
	never claim         	- (none specified)
	assertion violations	+
	cycle checks       	- (disabled by -DSAFETY)
	invalid end states	+

State-vector 2948 byte, depth reached 119, errors: 0
      453 states, stored
      112 states, matched
      565 transitions (= stored+matched)
        0 atomic steps
hash conflicts:         0 (resolved)

Stats on memory usage (in Megabytes):
    1.286	equivalent memory usage for states (stored*(State-vector + overhead))
    1.777	actual memory usage for states
    4.000	memory used for hash table (-w19)
  534.058	memory used for DFS stack (-m10000000)
  539.620	total actual memory usage



pan: elapsed time 0.02 seconds
pan: rate     22650 states/second

real	0m0.283s
user	0m0.060s
sys	0m0.208s
