> promela file    : ../load_balancer/spin_code/load_balancer_27.pml
> date            : 27-Jan-2021 19:21:28
> spin version    : Spin Version 6.5.1 -- 31 July 2020
> gcc version     : 8
> runspin command : runspin ../load_balancer/spin_code/load_balancer_27.pml
> config source   : default commands for a safety verification run
> spin command    : spin -a
> gcc command     : gcc -o pan -DVECTORSZ=4096 -DSAFETY -DMEMLIM=8192 pan.c
> pan command     : ./pan -m100000 -c1 -w19 -n

(Spin Version 6.5.1 -- 31 July 2020)
	+ Partial Order Reduction

Full statespace search for:
	never claim         	- (none specified)
	assertion violations	+
	cycle checks       	- (disabled by -DSAFETY)
	invalid end states	+

State-vector 740 byte, depth reached 34, errors: 0
      113 states, stored
       27 states, matched
      140 transitions (= stored+matched)
        0 atomic steps
hash conflicts:         0 (resolved)

Stats on memory usage (in Megabytes):
    0.083	equivalent memory usage for states (stored*(State-vector + overhead))
    1.127	actual memory usage for states
    4.000	memory used for hash table (-w19)
    5.341	memory used for DFS stack (-m100000)
   10.122	total actual memory usage



pan: elapsed time 0 seconds

real	0m0.013s
user	0m0.000s
sys	0m0.006s
