#Size	#Para	 Time		 Diff		 Proc		 Diff
11		1	     1.134	     1.134	     0.283	     0.283
16		2	     2.379	     1.245	     0.476	     0.192
21		3	     4.129	     1.750	     0.688	     0.212
26		4	     6.335	     2.205	     0.905	     0.217
31		5	     9.260	     2.925	     1.157	     0.253
36		6	    13.350	     4.090	     1.483	     0.326
41		7	    18.050	     4.700	     1.805	     0.322
46		8	    23.787	     5.737	     2.162	     0.357
51		9	    30.602	     6.814	     2.550	     0.388
56		10	    38.980	     8.378	     2.998	     0.448
61		11	    48.267	     9.287	     3.448	     0.449
66		12	    59.444	    11.177	     3.963	     0.515
71		13	    72.032	    12.588	     4.502	     0.539
76		14	    83.980	    11.948	     4.940	     0.438
81		15	    99.950	    15.970	     5.553	     0.613
86		16	   117.790	    17.840	     6.199	     0.647
91		17	   136.811	    19.021	     6.841	     0.641
96		18	   159.032	    22.221	     7.573	     0.732
101		19	   181.123	    22.092	     8.233	     0.660
106		20	   206.931	    25.808	     8.997	     0.764
111		21	   233.836	    26.905	     9.743	     0.746
116		22	   265.507	    31.672	    10.620	     0.877
121		23	   296.804	    31.296	    11.416	     0.795
126		24	   333.575	    36.771	    12.355	     0.939
131		25	   370.050	    36.475	    13.216	     0.861
136		26	   410.241	    40.191	    14.146	     0.930
141		27	   454.849	    44.608	    15.162	     1.015
146		28	   513.212	    58.363	    16.555	     1.394
151		29	   552.636	    39.424	    17.270	     0.715
156		30	   607.080	    54.444	    18.396	     1.126
161		31	   654.960	    47.880	    19.264	     0.867
166		32	   713.916	    58.956	    20.398	     1.134
171		33	   777.578	    63.662	    21.599	     1.202
176		34	   857.671	    80.092	    23.180	     1.581
181		35	   908.545	    50.875	    23.909	     0.729
186		36	   990.480	    81.935	    25.397	     1.488
191		37	  1060.500	    70.019	    26.512	     1.116
196		38	  1152.311	    91.811	    28.105	     1.593
201		39	  1228.803	    76.493	    29.257	     1.152
206		40	  1306.495	    77.692	    30.384	     1.126
211		41	  1402.602	    96.107	    31.877	     1.494
216		42	  1510.498	   107.896	    33.567	     1.689
221		43	  1611.232	   100.734	    35.027	     1.460
226		44	  1736.120	   124.887	    36.939	     1.912
231		45	  1830.615	    94.496	    38.138	     1.199
236		46	  1937.635	   107.020	    39.544	     1.406
241		47	  2075.352	   137.717	    41.507	     1.963
246		48	  2209.522	   134.170	    43.324	     1.817
251		49	  2333.282	   123.759	    44.871	     1.547
256		50	  2469.951	   136.670	    46.603	     1.732
261		51	  2601.174	   131.223	    48.170	     1.567
266		52	  2761.973	   160.799	    50.218	     2.048
271		53	  2925.871	   163.898	    52.248	     2.030
276		54	  3046.062	   120.191	    53.440	     1.192
281		55	  3226.073	   180.011	    55.622	     2.182
286		56	  3375.134	   149.061	    57.206	     1.584
291		57	  3543.757	   168.623	    59.063	     1.857
296		58	  3744.935	   201.178	    61.392	     2.330
301		59	  3938.758	   193.823	    63.528	     2.136
306		60	  4115.308	   176.550	    65.322	     1.794
311		61	  4316.630	   201.321	    67.447	     2.125
316		62	  4529.256	   212.626	    69.681	     2.234
321		63	  4715.247	   185.992	    71.443	     1.762
326		64	  4988.730	   273.483	    74.459	     3.016
331		65	  5182.188	   193.458	    76.209	     1.750
336		66	  5441.108	   258.920	    78.857	     2.648
341		67	  5626.622	   185.514	    80.380	     1.524
346		68	  5857.177	   230.554	    82.495	     2.115
351		69	  6145.225	   288.048	    85.350	     2.855
356		70	  6355.471	   210.246	    87.061	     1.711
361		71	  6667.124	   311.652	    90.096	     3.035
366		72	  6959.736	   292.613	    92.796	     2.700
371		73	  7240.147	   280.411	    95.265	     2.469
376		74	  7563.475	   323.328	    98.227	     2.962
381		75	  7796.838	   233.364	    99.959	     1.733
386		76	  8133.752	   336.913	   102.959	     2.999
391		77	  8491.462	   357.711	   106.143	     3.184
396		78	  8696.816	   205.353	   107.368	     1.225
401		79	  9118.530	   421.715	   111.202	     3.833
406		80	  9444.609	   326.079	   113.790	     2.589
411		81	  9724.849	   280.241	   115.772	     1.982
416		82	 10140.961	   416.112	   119.305	     3.533
421		83	 10505.252	   364.290	   122.154	     2.849
426		84	 10889.054	   383.803	   125.162	     3.007
431		85	 11257.452	   368.397	   127.926	     2.764
436		86	 11666.967	   409.515	   131.090	     3.164
441		87	 12040.390	   373.423	   133.782	     2.693
446		88	 12459.540	   419.149	   136.918	     3.136
451		89	 12860.227	   400.688	   139.785	     2.867
456		90	 13266.796	   406.568	   142.654	     2.869
461		91	 13703.327	   436.532	   145.780	     3.126
466		92	 14220.920	   517.592	   149.694	     3.914
471		93	 14599.486	   378.567	   152.078	     2.384
476		94	 15138.146	   538.660	   156.063	     3.985
481		95	 15632.041	   493.895	   159.511	     3.447
486		96	 15895.894	   263.853	   160.565	     1.054
491		97	 16461.665	   565.771	   164.617	     4.052
496		98	 17550.142	  1088.477	   173.764	     9.147
501		99	 17846.994	   296.852	   174.971	     1.207
506		100	 18422.969	   575.975	   178.864	     3.893
511		101	 18699.990	   277.021	   179.808	     0.944
516		102	 19445.406	   745.416	   185.194	     5.387
521		103	 19796.996	   351.590	   186.764	     1.570
526		104	 20416.663	   619.667	   190.810	     4.046
531		105	 21257.319	   840.655	   196.827	     6.017
536		106	 21760.522	   503.203	   199.638	     2.811
541		107	 22339.094	   578.572	   203.083	     3.445
546		108	 23043.677	   704.582	   207.601	     4.518
551		109	 23645.032	   601.356	   211.116	     3.516
556		110	 24213.314	   568.281	   214.277	     3.161
561		111	 25007.838	   794.524	   219.367	     5.090
566		112	 25439.919	   432.081	   221.217	     1.850
571		113	 26262.441	   822.523	   226.400	     5.184
576		114	 26635.154	   372.713	   227.651	     1.251
581		115	 27709.204	  1074.050	   234.824	     7.173
586		116	 28059.680	   350.476	   235.796	     0.972
591		117	 28547.094	   487.414	   237.892	     2.097
596		118	 28442.070	  -105.024	   235.058	    -2.834
601		119	 29292.869	   850.799	   240.105	     5.047
606		120	 29772.703	   479.834	   242.054	     1.949
611		121	 30804.340	  1031.637	   248.422	     6.368
616		122	 31392.002	   587.662	   251.136	     2.714
621		123	 32163.688	   771.686	   255.267	     4.131
626		124	 32721.328	   557.640	   257.648	     2.381
631		125	 33839.809	  1118.482	   264.374	     6.725
636		126	 34811.886	   972.076	   269.860	     5.486
641		127	 35501.376	   689.490	   273.088	     3.228
646		128	 36403.834	   902.458	   277.892	     4.804
651		129	 37529.305	  1125.472	   284.313	     6.421
656		130	 38326.494	   797.189	   288.169	     3.856
661		131	 38716.532	   390.038	   288.929	     0.760
666		132	 39927.708	  1211.175	   295.761	     6.831
671		133	 40829.759	   902.051	   300.219	     4.458
676		134	 41524.829	   695.070	   303.101	     2.882
681		135	 42408.596	   883.767	   307.309	     4.208
686		136	 43597.754	  1189.157	   313.653	     6.344
691		137	 44491.126	   893.372	   317.794	     4.141
696		138	 44995.849	   504.724	   319.119	     1.326
701		139	 46441.226	  1445.377	   327.051	     7.931
706		140	 47407.830	   966.604	   331.523	     4.472
711		141	 48256.646	   848.816	   335.116	     3.592
716		142	 48974.125	   717.479	   337.753	     2.637
721		143	 50522.834	  1548.709	   346.047	     8.294
726		144	 51437.222	   914.388	   349.913	     3.866
731		145	 52472.237	  1035.014	   354.542	     4.629
736		146	 53530.196	  1057.959	   359.263	     4.721
741		147	 54305.053	   774.857	   362.034	     2.771
746		148	 56030.306	  1725.253	   371.062	     9.028
751		149	 56971.066	   940.760	   374.810	     3.748
756		150	 58139.077	  1168.011	   379.994	     5.184
761		151	 59539.259	  1400.182	   386.619	     6.625
766		152	 60277.390	   738.131	   388.886	     2.268
771		153	 61231.019	   953.629	   392.507	     3.620
776		154	 63557.672	  2326.653	   404.826	    12.319
781		155	 64322.153	   764.481	   407.102	     2.276
786		156	 66026.296	  1704.142	   415.260	     8.157
791		157	 67074.886	  1048.590	   419.218	     3.958
796		158	 68448.477	  1373.591	   425.146	     5.928
801		159	 69558.698	  1110.221	   429.375	     4.229
806		160	 70244.127	   685.428	   430.946	     1.571
811		161	 72217.801	  1973.674	   440.352	     9.407
816		162	 73186.326	   968.526	   443.553	     3.201
821		163	 74944.458	  1758.132	   451.473	     7.919
826		164	 76169.617	  1225.159	   456.105	     4.633
831		165	 77027.589	   857.972	   458.498	     2.392
836		166	 78687.585	  1659.996	   465.607	     7.109
841		167	 80020.099	  1332.515	   470.706	     5.099
846		168	 81146.010	  1125.911	   474.538	     3.832
851		169	 82225.295	  1079.284	   478.054	     3.516
856		170	 83852.804	  1627.509	   484.698	     6.644
861		171	 85334.940	  1482.136	   490.431	     5.732
866		172	 87477.999	  2143.059	   499.874	     9.444
871		173	 88571.645	  1093.646	   503.248	     3.374
876		174	 89797.282	  1225.637	   507.329	     4.081
881		175	 91576.111	  1778.830	   514.473	     7.143
886		176	 92856.038	  1279.926	   518.749	     4.276
891		177	 93686.567	   830.529	   520.481	     1.732
896		178	 96444.498	  2757.931	   532.843	    12.362
901		179	 97488.437	  1043.939	   535.651	     2.808
906		180	 99199.497	  1711.060	   542.074	     6.423
911		181	102423.410	  3223.912	   556.649	    14.575
916		182	102098.307	  -325.103	   551.883	    -4.766
921		183	103194.366	  1096.059	   554.808	     2.926
926		184	105801.471	  2607.105	   565.783	    10.975
931		185	107460.735	  1659.264	   571.600	     5.816
936		186	110099.280	  2638.545	   582.536	    10.936
941		187	111725.909	  1626.629	   588.031	     5.495
946		188	113097.413	  1371.505	   592.133	     4.102
951		189	114904.488	  1807.074	   598.461	     6.328
956		190	117816.913	  2912.426	   610.450	    11.989
961		191	119062.688	  1245.775	   613.725	     3.275
966		192	120987.661	  1924.973	   620.450	     6.724
971		193	122272.568	  1284.907	   623.840	     3.390
976		194	123880.289	  1607.721	   628.834	     4.994
981		195	125873.138	  1992.849	   635.723	     6.889
986		196	127312.762	  1439.624	   639.763	     4.040
991		197	129948.432	  2635.670	   649.742	     9.980
996		198	131379.227	  1430.795	   653.628	     3.886
1001		199	133805.057	  2425.830	   662.401	     8.773
