#Size	#Para	 Time		 Diff		 Proc		 Diff
9		1	     0.406	     0.406	     0.102	     0.102
15		2	     1.195	     0.788	     0.199	     0.098
21		3	     2.338	     1.144	     0.292	     0.093
27		4	     3.710	     1.372	     0.371	     0.079
33		5	     5.693	     1.983	     0.474	     0.103
39		6	     8.168	     2.475	     0.583	     0.109
45		7	    10.926	     2.757	     0.683	     0.099
51		8	    14.122	     3.196	     0.785	     0.102
57		9	    18.007	     3.885	     0.900	     0.116
63		10	    22.054	     4.048	     1.002	     0.102
69		11	    26.522	     4.467	     1.105	     0.103
75		12	    31.139	     4.617	     1.198	     0.093
81		13	    36.582	     5.444	     1.307	     0.109
87		14	    42.964	     6.381	     1.432	     0.126
93		15	    50.302	     7.338	     1.572	     0.140
99		16	    56.206	     5.904	     1.653	     0.081
105		17	    64.218	     8.012	     1.784	     0.131
111		18	    71.210	     6.992	     1.874	     0.090
117		19	    79.401	     8.191	     1.985	     0.111
123		20	    88.391	     8.990	     2.105	     0.120
129		21	    98.238	     9.847	     2.233	     0.128
135		22	   118.110	    19.872	     2.568	     0.335
141		23	   117.319	    -0.791	     2.444	    -0.123
147		24	   127.594	    10.274	     2.552	     0.108
153		25	   147.187	    19.593	     2.831	     0.279
159		26	   148.646	     1.459	     2.753	    -0.078
165		27	   167.898	    19.252	     2.998	     0.245
171		28	   174.181	     6.283	     3.003	     0.005
177		29	   192.639	    18.458	     3.211	     0.208
183		30	   202.057	     9.419	     3.259	     0.048
189		31	   217.665	    15.608	     3.401	     0.142
195		32	   238.039	    20.373	     3.607	     0.206
201		33	   254.712	    16.674	     3.746	     0.139
207		34	   261.965	     7.253	     3.742	    -0.003
213		35	   285.098	    23.132	     3.960	     0.217
219		36	   309.749	    24.652	     4.186	     0.226
225		37	   320.666	    10.917	     4.219	     0.033
231		38	   338.318	    17.651	     4.337	     0.118
237		39	   355.484	    17.167	     4.444	     0.106
243		40	   380.093	    24.608	     4.635	     0.192
249		41	   397.660	    17.567	     4.734	     0.099
255		42	   415.069	    17.409	     4.826	     0.092
261		43	   442.959	    27.890	     5.034	     0.207
267		44	   458.971	    16.012	     5.100	     0.066
273		45	   479.721	    20.751	     5.214	     0.115
279		46	   500.711	    20.989	     5.327	     0.112
285		47	   529.961	    29.250	     5.520	     0.194
291		48	   545.677	    15.716	     5.568	     0.048
297		49	   569.631	    23.954	     5.696	     0.128
303		50	   601.231	    31.600	     5.894	     0.198
309		51	   618.472	    17.241	     5.947	     0.052
315		52	   655.353	    36.880	     6.183	     0.236
321		53	   675.644	    20.291	     6.256	     0.073
327		54	   705.047	    29.403	     6.410	     0.154
333		55	   726.814	    21.767	     6.489	     0.080
339		56	   766.435	    39.622	     6.723	     0.234
345		57	   788.949	    22.514	     6.801	     0.078
351		58	   824.611	    35.662	     6.988	     0.187
357		59	   847.308	    22.697	     7.061	     0.073
363		60	   879.423	    32.115	     7.208	     0.147
369		61	   915.143	    35.721	     7.380	     0.172
375		62	   959.854	    44.711	     7.618	     0.238
381		63	  1000.654	    40.801	     7.818	     0.200
387		64	  1037.619	    36.964	     7.982	     0.164
393		65	  1064.716	    27.097	     8.066	     0.084
399		66	  1099.237	    34.521	     8.203	     0.137
405		67	  1140.622	    41.385	     8.387	     0.184
411		68	  1172.071	    31.448	     8.493	     0.106
417		69	  1209.282	    37.211	     8.638	     0.144
423		70	  1243.392	    34.111	     8.756	     0.119
429		71	  1292.958	    49.566	     8.979	     0.223
435		72	  1320.413	    27.455	     9.044	     0.065
441		73	  1379.373	    58.960	     9.320	     0.276
447		74	  1416.620	    37.248	     9.444	     0.124
453		75	  1447.878	    31.257	     9.526	     0.081
459		76	  1498.344	    50.466	     9.730	     0.204
465		77	  1532.732	    34.388	     9.825	     0.096
471		78	  1578.541	    45.809	     9.991	     0.166
477		79	  1614.918	    36.377	    10.093	     0.102
483		80	  1659.608	    44.690	    10.244	     0.151
489		81	  1699.832	    40.224	    10.365	     0.120
495		82	  1759.455	    59.623	    10.599	     0.234
501		83	  1841.809	    82.354	    10.963	     0.364
507		84	  1849.943	     8.134	    10.882	    -0.081
513		85	  1902.542	    52.598	    11.061	     0.179
519		86	  1938.775	    36.233	    11.142	     0.081
525		87	  1976.554	    37.779	    11.230	     0.088
531		88	  2044.965	    68.411	    11.489	     0.258
537		89	  2180.620	   135.655	    12.115	     0.626
543		90	  2151.381	   -29.239	    11.821	    -0.294
549		91	  2197.162	    45.781	    11.941	     0.120
555		92	  2252.683	    55.521	    12.111	     0.170
561		93	  2297.575	    44.892	    12.221	     0.110
567		94	  2389.188	    91.613	    12.575	     0.354
573		95	  2628.907	   239.719	    13.692	     1.118
579		96	  2469.743	  -159.163	    12.731	    -0.962
585		97	  2571.131	   101.388	    13.118	     0.387
591		98	  2690.542	   119.411	    13.589	     0.471
597		99	  2853.844	   163.302	    14.269	     0.681
603		100	  2962.559	   108.716	    14.666	     0.397
609		101	  3194.961	   232.402	    15.662	     0.995
615		102	  3194.226	    -0.736	    15.506	    -0.156
621		103	  3258.797	    64.571	    15.667	     0.161
627		104	  3374.453	   115.656	    16.069	     0.402
633		105	  3387.077	    12.624	    15.977	    -0.092
639		106	  3491.984	   104.908	    16.318	     0.341
645		107	  3563.369	    71.384	    16.497	     0.179
651		108	  3615.557	    52.189	    16.585	     0.088
657		109	  3688.485	    72.928	    16.766	     0.181
663		110	  3788.091	    99.606	    17.063	     0.298
669		111	  3872.783	    84.692	    17.289	     0.226
675		112	  3924.806	    52.023	    17.366	     0.077
681		113	  3983.847	    59.041	    17.473	     0.107
687		114	  4084.332	   100.485	    17.758	     0.285
693		115	  4152.972	    68.640	    17.901	     0.143
699		116	  4233.640	    80.669	    18.092	     0.192
705		117	  4303.753	    70.113	    18.236	     0.144
711		118	  4383.960	    80.207	    18.420	     0.184
717		119	  4499.460	   115.500	    18.748	     0.328
723		120	  4573.343	    73.883	    18.898	     0.150
729		121	  4624.723	    51.380	    18.954	     0.056
735		122	  4780.501	   155.777	    19.433	     0.479
741		123	  4867.131	    86.630	    19.626	     0.193
747		124	  4938.810	    71.679	    19.755	     0.130
753		125	  5017.021	    78.212	    19.909	     0.154
759		126	  5243.944	   226.923	    20.645	     0.737
765		127	  5463.805	   219.861	    21.343	     0.698
771		128	  5572.346	   108.541	    21.598	     0.255
777		129	  5686.315	   113.969	    21.870	     0.272
783		130	  5761.902	    75.587	    21.992	     0.122
789		131	  5914.522	   152.620	    22.403	     0.412
795		132	  5989.219	    74.697	    22.516	     0.112
801		133	  6076.099	    86.880	    22.672	     0.156
807		134	  6186.783	   110.684	    22.914	     0.242
813		135	  6331.586	   144.803	    23.278	     0.364
819		136	  6421.722	    90.136	    23.437	     0.159
825		137	  6514.057	    92.335	    23.602	     0.165
831		138	  6591.227	    77.169	    23.709	     0.108
837		139	  6721.628	   130.401	    24.006	     0.296
843		140	  6867.666	   146.038	    24.353	     0.348
849		141	  6962.289	    94.623	    24.515	     0.162
855		142	  7117.243	   154.954	    24.885	     0.370
861		143	  7217.836	   100.594	    25.062	     0.176
867		144	  7342.943	   125.106	    25.320	     0.259
873		145	  7472.616	   129.673	    25.591	     0.271
879		146	  7631.413	   158.797	    25.957	     0.366
885		147	  7636.480	     5.067	    25.799	    -0.158
891		148	  7849.793	   213.313	    26.342	     0.543
897		149	  7889.794	    40.002	    26.299	    -0.042
903		150	  8136.975	   247.180	    26.944	     0.644
909		151	  8112.929	   -24.045	    26.687	    -0.256
915		152	  8278.949	   166.019	    27.055	     0.368
921		153	  8466.242	   187.293	    27.488	     0.432
927		154	  8656.659	   190.417	    27.925	     0.437
933		155	  8696.240	    39.581	    27.873	    -0.052
939		156	  8760.221	    63.981	    27.899	     0.026
945		157	  8880.774	   120.553	    28.104	     0.205
951		158	  9157.792	   277.018	    28.798	     0.694
957		159	  9294.561	   136.769	    29.046	     0.247
963		160	  9392.780	    98.219	    29.170	     0.125
969		161	  9497.735	   104.954	    29.314	     0.144
975		162	  9586.020	    88.285	    29.405	     0.091
981		163	  9775.697	   189.677	    29.804	     0.399
987		164	  9905.384	   129.687	    30.016	     0.212
993		165	 10127.835	   222.451	    30.506	     0.489
999		166	 10236.418	   108.583	    30.648	     0.142
1005		167	 10333.261	    96.842	    30.754	     0.106
