#Size	#Para	 Time		 Diff		 Proc		 Diff
5		1	     0.274	     0.274	     0.091	     0.091
8		2	     0.535	     0.260	     0.134	     0.042
11		3	     1.016	     0.482	     0.203	     0.070
14		4	     1.667	     0.651	     0.278	     0.075
17		5	     2.240	     0.573	     0.320	     0.042
20		6	     3.296	     1.056	     0.412	     0.092
23		7	     4.700	     1.404	     0.522	     0.110
26		8	     6.265	     1.565	     0.627	     0.104
29		9	     8.171	     1.905	     0.743	     0.116
32		10	    10.421	     2.250	     0.868	     0.126
35		11	    13.030	     2.609	     1.002	     0.134
38		12	    16.250	     3.220	     1.161	     0.158
41		13	    19.728	     3.478	     1.315	     0.154
44		14	    24.206	     4.479	     1.513	     0.198
47		15	    28.711	     4.505	     1.689	     0.176
50		16	    33.870	     5.158	     1.882	     0.193
53		17	    40.003	     6.134	     2.105	     0.224
56		18	    46.545	     6.541	     2.327	     0.222
59		19	    53.458	     6.913	     2.546	     0.218
62		20	    61.527	     8.069	     2.797	     0.251
65		21	    70.357	     8.830	     3.059	     0.262
68		22	    79.768	     9.411	     3.324	     0.265
71		23	    89.994	    10.226	     3.600	     0.276
74		24	   101.809	    11.815	     3.916	     0.316
77		25	   113.812	    12.003	     4.215	     0.300
80		26	   133.266	    19.454	     4.759	     0.544
83		27	   141.677	     8.411	     4.885	     0.126
86		28	   156.134	    14.457	     5.204	     0.319
89		29	   171.314	    15.180	     5.526	     0.322
92		30	   188.279	    16.965	     5.884	     0.357
95		31	   208.499	    20.220	     6.318	     0.434
98		32	   226.311	    17.812	     6.656	     0.338
101		33	   252.255	    25.944	     7.207	     0.551
104		34	   269.643	    17.388	     7.490	     0.283
107		35	   292.297	    22.654	     7.900	     0.410
110		36	   315.044	    22.747	     8.291	     0.391
113		37	   341.935	    26.891	     8.768	     0.477
116		38	   366.601	    24.666	     9.165	     0.397
119		39	   396.337	    29.736	     9.667	     0.502
122		40	   423.520	    27.183	    10.084	     0.417
125		41	   464.410	    40.890	    10.800	     0.716
128		42	   513.404	    48.994	    11.668	     0.868
131		43	   549.507	    36.103	    12.211	     0.543
134		44	   584.764	    35.257	    12.712	     0.501
137		45	   650.303	    65.540	    13.836	     1.124
140		46	   694.426	    44.123	    14.467	     0.631
143		47	   713.395	    18.969	    14.559	     0.092
146		48	   759.128	    45.733	    15.183	     0.623
149		49	   790.960	    31.832	    15.509	     0.326
152		50	   838.695	    47.735	    16.129	     0.620
155		51	   960.495	   121.800	    18.123	     1.994
158		52	   941.433	   -19.062	    17.434	    -0.689
161		53	   968.913	    27.480	    17.617	     0.183
164		54	  1010.726	    41.813	    18.049	     0.432
167		55	  1063.267	    52.541	    18.654	     0.605
170		56	  1120.756	    57.489	    19.323	     0.670
173		57	  1195.393	    74.637	    20.261	     0.938
176		58	  1239.509	    44.116	    20.658	     0.398
179		59	  1302.733	    63.223	    21.356	     0.698
182		60	  1363.921	    61.189	    21.999	     0.642
185		61	  1437.859	    73.937	    22.823	     0.824
188		62	  1566.632	   128.773	    24.479	     1.655
191		63	  1686.941	   120.309	    25.953	     1.474
194		64	  1758.078	    71.137	    26.638	     0.685
197		65	  1814.935	    56.858	    27.089	     0.451
200		66	  1894.175	    79.240	    27.856	     0.767
203		67	  1932.706	    38.530	    28.010	     0.155
206		68	  1976.996	    44.290	    28.243	     0.233
209		69	  2078.182	   101.186	    29.270	     1.027
212		70	  2193.089	   114.907	    30.460	     1.189
215		71	  2374.457	   181.369	    32.527	     2.067
218		72	  2457.648	    83.190	    33.211	     0.685
221		73	  2546.522	    88.875	    33.954	     0.742
224		74	  2535.374	   -11.148	    33.360	    -0.593
227		75	  2747.746	   212.372	    35.685	     2.325
230		76	  2716.947	   -30.799	    34.833	    -0.852
233		77	  2824.747	   107.800	    35.756	     0.924
236		78	  2960.881	   136.134	    37.011	     1.255
239		79	  3058.831	    97.950	    37.763	     0.752
242		80	  3156.017	    97.187	    38.488	     0.725
245		81	  3299.917	   143.900	    39.758	     1.270
248		82	  3406.282	   106.365	    40.551	     0.793
251		83	  3523.910	   117.628	    41.458	     0.907
254		84	  3650.190	   126.280	    42.444	     0.986
257		85	  3800.646	   150.456	    43.686	     1.242
260		86	  3928.343	   127.697	    44.640	     0.955
263		87	  4046.894	   118.551	    45.471	     0.830
266		88	  4207.749	   160.855	    46.753	     1.282
269		89	  4924.710	   716.961	    54.118	     7.365
272		90	  4488.709	  -436.001	    48.790	    -5.327
275		91	  4662.736	   174.027	    50.137	     1.347
278		92	  4770.115	   107.379	    50.746	     0.609
281		93	  4962.773	   192.658	    52.240	     1.494
284		94	  5085.248	   122.475	    52.971	     0.732
287		95	  5247.350	   162.102	    54.096	     1.125
290		96	  5426.500	   179.151	    55.372	     1.276
293		97	  5586.397	   159.897	    56.428	     1.056
296		98	  5767.514	   181.117	    57.675	     1.247
299		99	  5922.157	   154.643	    58.635	     0.960
302		100	  6106.182	   184.025	    59.865	     1.229
305		101	  6300.519	   194.337	    61.170	     1.306
308		102	  4086.756	 -2213.763	    39.296	   -21.874
311		103	  3250.877	  -835.879	    30.961	    -8.335
314		104	  3333.089	    82.212	    31.444	     0.484
317		105	  3449.662	   116.573	    32.240	     0.796
320		106	  3531.335	    81.673	    32.698	     0.458
323		107	  3618.753	    87.418	    33.200	     0.502
326		108	  3747.373	   128.620	    34.067	     0.867
329		109	  3847.179	    99.807	    34.659	     0.592
332		110	  3938.327	    91.147	    35.164	     0.504
335		111	  4024.997	    86.670	    35.619	     0.456
338		112	  4158.675	   133.678	    36.480	     0.860
341		113	  4280.777	   122.102	    37.224	     0.745
344		114	  4344.248	    63.471	    37.450	     0.226
347		115	  4471.246	   126.998	    38.216	     0.765
350		116	  4662.851	   191.604	    39.516	     1.300
353		117	  4748.563	    85.713	    39.904	     0.388
356		118	  4821.064	    72.500	    40.176	     0.272
359		119	  4982.396	   161.332	    41.177	     1.001
362		120	  5100.237	   117.841	    41.805	     0.628
365		121	  5242.745	   142.508	    42.624	     0.819
368		122	  5337.183	    94.438	    43.042	     0.418
371		123	  5488.432	   151.249	    43.907	     0.866
374		124	  5640.982	   152.550	    44.770	     0.862
377		125	  5746.758	   105.776	    45.250	     0.480
380		126	  5885.495	   138.738	    45.980	     0.730
383		127	  6022.605	   137.109	    46.687	     0.706
386		128	  6204.325	   181.720	    47.726	     1.039
389		129	  6291.037	    86.712	    48.023	     0.298
392		130	  6447.129	   156.092	    48.842	     0.819
395		131	  6638.860	   191.731	    49.916	     1.074
398		132	  6685.453	    46.593	    49.891	    -0.025
401		133	  6868.426	   182.973	    50.877	     0.986
404		134	  7064.936	   196.510	    51.948	     1.071
407		135	  7204.075	   139.139	    52.584	     0.636
410		136	  7521.970	   317.894	    54.507	     1.923
413		137	 15476.690	  7954.721	   111.343	    56.836
416		138	 15762.757	   286.067	   112.591	     1.248
419		139	 16095.015	   332.258	   114.149	     1.558
422		140	 14442.215	 -1652.799	   101.706	   -12.443
425		141	  8212.578	 -6229.637	    57.431	   -44.275
428		142	  8373.047	   160.469	    58.146	     0.716
431		143	  8529.052	   156.005	    58.821	     0.675
434		144	  8756.932	   227.880	    59.979	     1.158
437		145	  8905.579	   148.647	    60.582	     0.603
440		146	  9093.259	   187.680	    61.441	     0.859
443		147	 12758.999	  3665.740	    85.631	    24.190
446		148	 19357.656	  6598.657	   129.051	    43.420
449		149	 19779.514	   421.858	   130.990	     1.939
452		150	 16134.942	 -3644.572	   106.151	   -24.839
455		151	  9965.023	 -6169.919	    65.131	   -41.020
458		152	 10260.234	   295.211	    66.625	     1.494
461		153	 10449.889	   189.656	    67.419	     0.794
464		154	 10557.902	   108.012	    67.679	     0.260
467		155	 10895.988	   338.087	    69.401	     1.722
470		156	 11090.511	   194.523	    70.193	     0.792
473		157	 11281.842	   191.331	    70.955	     0.762
476		158	 11459.301	   177.459	    71.621	     0.666
479		159	 11700.180	   240.879	    72.672	     1.051
482		160	 11950.435	   250.255	    73.768	     1.096
485		161	 12123.405	   172.970	    74.377	     0.609
488		162	 12376.561	   253.156	    75.467	     1.090
491		163	 12590.888	   214.327	    76.308	     0.842
494		164	 12841.565	   250.677	    77.359	     1.050
497		165	 13001.661	   160.095	    77.854	     0.495
500		166	 25182.613	 12180.952	   149.897	    72.042
503		167	 27546.094	  2363.482	   162.995	    13.098
506		168	 28066.639	   520.545	   165.098	     2.103
509		169	 28420.842	   354.203	   166.204	     1.106
512		170	 29225.205	   804.363	   169.914	     3.710
515		171	 29725.666	   500.461	   171.825	     1.911
518		172	 30198.736	   473.070	   173.556	     1.731
521		173	 30713.161	   514.425	   175.504	     1.948
524		174	 31248.936	   535.775	   177.551	     2.047
527		175	 31844.084	   595.148	   179.910	     2.359
530		176	 32536.260	   692.176	   182.788	     2.878
533		177	 32824.819	   288.559	   183.379	     0.591
536		178	 33328.100	   503.281	   185.156	     1.777
539		179	 34000.506	   672.406	   187.848	     2.692
542		180	 34493.939	   493.433	   189.527	     1.679
545		181	 35016.782	   522.843	   191.349	     1.821
548		182	 35575.867	   559.085	   193.347	     1.999
551		183	 22549.774	-13026.093	   121.891	   -71.456
554		184	 18040.314	 -4509.460	    96.991	   -24.900
557		185	 18335.191	   294.877	    98.049	     1.058
560		186	 18556.078	   220.887	    98.703	     0.653
563		187	 18803.177	   247.098	    99.488	     0.785
566		188	 19233.009	   429.832	   101.226	     1.739
569		189	 19546.548	   313.540	   102.338	     1.112
572		190	 19943.026	   396.477	   103.870	     1.532
575		191	 20154.847	   211.821	   104.429	     0.559
578		192	 20496.337	   341.490	   105.651	     1.222
581		193	 20770.412	   274.075	   106.515	     0.864
584		194	 21133.582	   363.171	   107.824	     1.309
587		195	 21569.577	   435.995	   109.490	     1.666
590		196	 21776.069	   206.492	   109.980	     0.490
593		197	 22060.834	   284.765	   110.858	     0.878
596		198	 41218.683	 19157.849	   206.093	    95.235
599		199	 47046.767	  5828.084	   234.064	    27.970
602		200	 41346.786	 -5699.981	   204.687	   -29.376
605		201	 23270.707	-18076.079	   114.634	   -90.053
608		202	 23827.801	   557.094	   116.803	     2.169
611		203	 26482.795	  2654.995	   129.184	    12.381
614		204	 24238.354	 -2244.442	   117.662	   -11.522
617		205	 24700.748	   462.394	   119.327	     1.665
620		206	 25285.844	   585.096	   121.567	     2.239
623		207	 25671.870	   386.026	   122.832	     1.265
626		208	 25801.651	   129.781	   122.865	     0.033
629		209	 26395.710	   594.059	   125.098	     2.233
632		210	 48013.448	 21617.738	   226.479	   101.380
635		211	 56140.073	  8126.625	   263.568	    37.090
638		212	 56908.420	   768.347	   265.927	     2.359
641		213	 57540.385	   631.965	   267.630	     1.703
644		214	 57984.752	   444.367	   268.448	     0.818
647		215	 43835.221	-14149.531	   202.006	   -66.442
650		216	 29095.309	-14739.911	   133.465	   -68.541
653		217	 29406.208	   310.898	   134.275	     0.810
656		218	 29918.280	   512.073	   135.992	     1.717
659		219	 30085.393	   167.113	   136.133	     0.141
662		220	 30801.084	   715.691	   138.744	     2.611
665		221	 31124.782	   323.698	   139.573	     0.829
668		222	 31302.673	   177.890	   139.744	     0.171
671		223	 34313.694	  3011.022	   152.505	    12.761
674		224	 32486.568	 -1827.126	   143.746	    -8.759
677		225	 32771.061	   284.492	   144.366	     0.620
680		226	 32907.266	   136.205	   144.330	    -0.036
683		227	 33838.357	   931.091	   147.766	     3.436
686		228	 34189.149	   350.792	   148.648	     0.883
689		229	 34619.092	   429.944	   149.866	     1.218
692		230	 34851.420	   232.328	   150.222	     0.355
695		231	 35615.200	   763.780	   152.855	     2.633
698		232	 35999.949	   384.749	   153.846	     0.991
701		233	 36351.051	   351.102	   154.685	     0.839
704		234	 36952.425	   601.375	   156.578	     1.893
707		235	 37395.906	   443.480	   157.789	     1.211
710		236	 37837.632	   441.726	   158.982	     1.193
713		237	 37971.441	   133.809	   158.876	    -0.105
716		238	 38811.050	   839.610	   161.713	     2.836
719		239	 39284.056	   473.006	   163.004	     1.292
722		240	 39446.717	   162.661	   163.003	    -0.001
725		241	 39934.281	   487.564	   164.339	     1.336
728		242	 40749.606	   815.325	   167.007	     2.668
731		243	 41318.271	   568.664	   168.646	     1.639
734		244	 41394.188	    75.917	   168.269	    -0.377
737		245	 42378.045	   983.857	   171.571	     3.302
740		246	 42763.812	   385.767	   172.435	     0.864
743		247	 43375.949	   612.137	   174.201	     1.766
746		248	 43681.529	   305.580	   174.726	     0.526
749		249	 44360.311	   678.782	   176.734	     2.008
752		250	 44882.733	   522.422	   178.106	     1.372
755		251	 45284.552	   401.819	   178.990	     0.884
758		252	 45980.175	   695.623	   181.024	     2.034
761		253	 47001.330	  1021.154	   184.319	     3.295
764		254	 47038.206	    36.876	   183.743	    -0.576
767		255	 47459.072	   420.866	   184.666	     0.923
770		256	 48235.187	   776.115	   186.958	     2.292
773		257	 49072.519	   837.332	   189.469	     2.511
776		258	 48969.079	  -103.440	   188.343	    -1.127
779		259	 49612.448	   643.369	   190.086	     1.743
782		260	 50442.171	   829.722	   192.527	     2.441
785		261	 63624.559	 13182.389	   241.918	    49.391
788		262	105573.429	 41948.870	   399.899	   157.981
791		263	106858.098	  1284.669	   403.238	     3.339
794		264	108131.344	  1273.246	   406.509	     3.271
797		265	109169.533	  1038.188	   408.875	     2.366
800		266	110863.108	  1693.575	   413.668	     4.794
803		267	111809.925	   946.817	   415.650	     1.982
806		268	113073.197	  1263.272	   418.790	     3.139
809		269	114649.023	  1575.826	   423.059	     4.270
812		270	115844.018	  1194.995	   425.897	     2.838
815		271	116508.337	   664.319	   426.770	     0.873
818		272	118227.515	  1719.178	   431.487	     4.717
821		273	120755.157	  2527.642	   439.110	     7.622
824		274	121538.197	   783.040	   440.356	     1.246
827		275	123096.122	  1557.925	   444.390	     4.035
830		276	 82660.264	-40435.857	   297.339	  -147.051
833		277	 60466.861	-22193.403	   216.727	   -80.612
836		278	 61522.311	  1055.449	   219.723	     2.995
839		279	 62299.760	   777.449	   221.707	     1.985
842		280	 62332.026	    32.267	   221.036	    -0.672
845		281	 63897.897	  1565.871	   225.788	     4.752
848		282	 64344.344	   446.447	   226.565	     0.777
851		283	 64876.625	   532.281	   227.637	     1.073
854		284	 65341.841	   465.216	   228.468	     0.831
857		285	 66408.559	  1066.719	   231.389	     2.921
860		286	 66926.959	   518.399	   232.385	     0.997
863		287	 67430.047	   503.088	   233.322	     0.937
866		288	 68356.025	   925.978	   235.710	     2.388
869		289	 69250.867	   894.841	   237.975	     2.265
872		290	 69915.218	   664.351	   239.436	     1.460
875		291	 70072.912	   157.694	   239.157	    -0.279
878		292	 71391.033	  1318.121	   242.827	     3.670
881		293	 72084.569	   693.536	   244.354	     1.528
884		294	 72160.160	    75.591	   243.784	    -0.570
887		295	 72995.985	   835.824	   245.778	     1.993
890		296	 74297.763	  1301.778	   249.321	     3.544
893		297	 74931.578	   633.816	   250.607	     1.286
896		298	 75064.017	   132.439	   250.213	    -0.394
899		299	 76565.722	  1501.705	   254.371	     4.158
902		300	 77360.633	   794.911	   256.161	     1.790
905		301	 77927.553	   566.921	   257.187	     1.026
908		302	 78505.144	   577.590	   258.241	     1.054
911		303	 79656.932	  1151.788	   261.170	     2.930
914		304	 80529.710	   872.778	   263.169	     1.999
917		305	 80871.919	   342.210	   263.426	     0.257
920		306	 82033.686	  1161.767	   266.343	     2.917
923		307	 82819.401	   785.715	   268.024	     1.681
926		308	 83470.701	   651.300	   269.260	     1.236
929		309	 84035.478	   564.777	   270.211	     0.950
932		310	 85230.705	  1195.228	   273.175	     2.965
935		311	 86149.945	   919.240	   275.239	     2.064
938		312	 86036.824	  -113.121	   274.003	    -1.237
941		313	 87253.645	  1216.821	   276.996	     2.993
944		314	 88606.302	  1352.656	   280.400	     3.404
947		315	 89192.383	   586.082	   281.364	     0.964
950		316	 89289.037	    96.654	   280.783	    -0.581
953		317	 91098.842	  1809.805	   285.576	     4.793
956		318	 91986.057	   887.215	   287.456	     1.880
959		319	 92913.223	   927.166	   289.449	     1.993
962		320	 93275.932	   362.709	   289.677	     0.228
965		321	 94881.857	  1605.925	   293.752	     4.075
968		322	 95435.102	   553.244	   294.553	     0.801
971		323	 96073.645	   638.543	   295.611	     1.058
974		324	 97092.524	  1018.880	   297.830	     2.219
977		325	 98217.193	  1124.669	   300.358	     2.529
980		326	 99193.310	   976.117	   302.419	     2.060
983		327	 99178.101	   -15.209	   301.453	    -0.965
986		328	100971.694	  1793.594	   305.975	     4.522
989		329	101635.394	   663.699	   307.056	     1.081
992		330	101650.572	    15.178	   306.176	    -0.879
995		331	 97867.773	 -3782.799	   293.897	   -12.279
998		332	 99124.814	  1257.041	   296.781	     2.884
1001		333	100235.179	  1110.365	   299.209	     2.429
