#Size	#Para	 Time		 Diff		 Proc		 Diff
3		2	     0.101	     0.101	     0.051	     0.051
4		3	     0.224	     0.123	     0.075	     0.024
5		4	     0.401	     0.177	     0.100	     0.026
6		5	     0.645	     0.244	     0.129	     0.029
7		6	     0.933	     0.288	     0.156	     0.027
8		7	     1.285	     0.352	     0.184	     0.028
9		8	     1.692	     0.406	     0.211	     0.028
10		9	     2.180	     0.488	     0.242	     0.031
11		10	     2.748	     0.569	     0.275	     0.033
12		11	     3.462	     0.713	     0.315	     0.040
13		12	     4.032	     0.570	     0.336	     0.021
14		13	     4.734	     0.702	     0.364	     0.028
15		14	     5.477	     0.743	     0.391	     0.027
16		15	     6.372	     0.895	     0.425	     0.034
17		16	     7.318	     0.946	     0.457	     0.033
18		17	     8.166	     0.848	     0.480	     0.023
19		18	     9.303	     1.137	     0.517	     0.036
20		19	    10.414	     1.111	     0.548	     0.031
21		20	    11.540	     1.127	     0.577	     0.029
22		21	    12.760	     1.220	     0.608	     0.031
23		22	    14.209	     1.449	     0.646	     0.038
24		23	    15.325	     1.117	     0.666	     0.020
25		24	    16.788	     1.462	     0.699	     0.033
26		25	    18.282	     1.494	     0.731	     0.032
27		26	    19.743	     1.461	     0.759	     0.028
28		27	    21.464	     1.722	     0.795	     0.036
29		28	    23.168	     1.704	     0.827	     0.032
30		29	    24.927	     1.759	     0.860	     0.032
31		30	    27.195	     2.268	     0.906	     0.047
32		31	    28.757	     1.562	     0.928	     0.021
33		32	    31.594	     2.836	     0.987	     0.060
34		33	    32.534	     0.941	     0.986	    -0.001
35		34	    34.873	     2.339	     1.026	     0.040
36		35	    36.766	     1.893	     1.050	     0.025
37		36	    39.057	     2.290	     1.085	     0.034
38		37	    41.140	     2.083	     1.112	     0.027
39		38	    43.652	     2.512	     1.149	     0.037
40		39	    45.823	     2.172	     1.175	     0.026
41		40	    48.308	     2.485	     1.208	     0.033
42		41	    50.828	     2.519	     1.240	     0.032
43		42	    53.319	     2.491	     1.269	     0.030
44		43	    56.795	     3.476	     1.321	     0.051
45		44	    59.405	     2.610	     1.350	     0.029
46		45	    61.515	     2.110	     1.367	     0.017
47		46	    64.680	     3.165	     1.406	     0.039
48		47	    67.278	     2.598	     1.431	     0.025
49		48	    70.270	     2.992	     1.464	     0.033
50		49	    73.612	     3.342	     1.502	     0.038
51		50	    76.177	     2.565	     1.524	     0.021
52		51	    79.522	     3.345	     1.559	     0.036
53		52	    82.413	     2.891	     1.585	     0.026
54		53	    86.080	     3.667	     1.624	     0.039
55		54	    89.949	     3.869	     1.666	     0.042
56		55	    92.789	     2.840	     1.687	     0.021
57		56	    96.608	     3.819	     1.725	     0.038
58		57	   100.094	     3.486	     1.756	     0.031
59		58	   104.568	     4.474	     1.803	     0.047
60		59	   107.109	     2.542	     1.815	     0.013
61		60	   110.703	     3.594	     1.845	     0.030
62		61	   115.213	     4.510	     1.889	     0.044
63		62	   119.175	     3.962	     1.922	     0.033
64		63	   122.291	     3.115	     1.941	     0.019
65		64	   126.797	     4.507	     1.981	     0.040
66		65	   131.694	     4.897	     2.026	     0.045
67		66	   134.469	     2.775	     2.037	     0.011
68		67	   139.284	     4.815	     2.079	     0.041
69		68	   143.415	     4.131	     2.109	     0.030
70		69	   147.641	     4.226	     2.140	     0.031
71		70	   151.935	     4.294	     2.170	     0.031
72		71	   156.660	     4.725	     2.206	     0.036
73		72	   161.469	     4.810	     2.243	     0.036
74		73	   165.870	     4.401	     2.272	     0.030
75		74	   170.178	     4.308	     2.300	     0.028
76		75	   175.977	     5.800	     2.346	     0.047
77		76	   179.703	     3.726	     2.365	     0.018
78		77	   184.196	     4.492	     2.392	     0.028
79		78	   190.394	     6.199	     2.441	     0.049
80		79	   195.652	     5.258	     2.477	     0.036
81		80	   200.566	     4.914	     2.507	     0.030
82		81	   211.870	    11.304	     2.616	     0.109
83		82	   210.116	    -1.755	     2.562	    -0.053
84		83	   216.130	     6.014	     2.604	     0.042
85		84	   225.243	     9.113	     2.681	     0.077
86		85	   226.607	     1.364	     2.666	    -0.015
87		86	   236.400	     9.793	     2.749	     0.083
88		87	   240.978	     4.578	     2.770	     0.021
89		88	   243.757	     2.778	     2.770	     0.000
90		89	   255.869	    12.113	     2.875	     0.105
91		90	   259.192	     3.323	     2.880	     0.005
92		91	   260.437	     1.245	     2.862	    -0.018
93		92	   271.374	    10.937	     2.950	     0.088
94		93	   275.580	     4.206	     2.963	     0.014
95		94	   281.928	     6.348	     2.999	     0.036
96		95	   284.084	     2.156	     2.990	    -0.009
97		96	   295.612	    11.528	     3.079	     0.089
98		97	   301.344	     5.733	     3.107	     0.027
99		98	   307.586	     6.242	     3.139	     0.032
100		99	   315.107	     7.521	     3.183	     0.044
101		100	   316.923	     1.816	     3.169	    -0.014
102		101	   328.616	    11.693	     3.254	     0.084
103		102	   333.583	     4.967	     3.270	     0.017
104		103	   340.254	     6.671	     3.303	     0.033
105		104	   346.550	     6.295	     3.332	     0.029
106		105	   352.657	     6.107	     3.359	     0.026
107		106	   360.530	     7.873	     3.401	     0.043
108		107	   363.387	     2.857	     3.396	    -0.005
109		108	   369.398	     6.010	     3.420	     0.024
110		109	   381.622	    12.224	     3.501	     0.081
111		110	   388.275	     6.653	     3.530	     0.029
112		111	   395.889	     7.614	     3.567	     0.037
113		112	   402.828	     6.939	     3.597	     0.030
114		113	   410.147	     7.319	     3.630	     0.033
115		114	   418.093	     7.946	     3.667	     0.038
116		115	   424.300	     6.207	     3.690	     0.022
117		116	   436.270	    11.970	     3.761	     0.071
118		117	   440.974	     4.704	     3.769	     0.008
119		118	   446.326	     5.352	     3.782	     0.013
120		119	   455.163	     8.837	     3.825	     0.042
121		120	   463.465	     8.301	     3.862	     0.037
122		121	   475.375	    11.910	     3.929	     0.067
123		122	   479.465	     4.090	     3.930	     0.001
124		123	   487.283	     7.819	     3.962	     0.032
125		124	   500.136	    12.852	     4.033	     0.072
126		125	   505.379	     5.244	     4.043	     0.010
127		126	   520.779	    15.400	     4.133	     0.090
128		127	   526.147	     5.368	     4.143	     0.010
129		128	   535.457	     9.310	     4.183	     0.040
130		129	   543.017	     7.560	     4.209	     0.026
131		130	   555.340	    12.323	     4.272	     0.062
132		131	   561.363	     6.023	     4.285	     0.013
133		132	   573.836	    12.473	     4.347	     0.062
134		133	   581.337	     7.501	     4.371	     0.024
135		134	   587.548	     6.211	     4.385	     0.014
136		135	   596.503	     8.955	     4.419	     0.034
137		136	   612.319	    15.816	     4.502	     0.084
138		137	   621.775	     9.455	     4.539	     0.036
139		138	   634.094	    12.319	     4.595	     0.056
140		139	   637.152	     3.058	     4.584	    -0.011
141		140	   646.738	     9.586	     4.620	     0.036
142		141	   655.590	     8.852	     4.650	     0.030
143		142	   665.331	     9.741	     4.685	     0.036
144		143	   675.291	     9.959	     4.722	     0.037
145		144	   683.777	     8.487	     4.748	     0.026
146		145	   695.357	    11.580	     4.796	     0.047
147		146	   707.530	    12.173	     4.846	     0.051
148		147	   714.800	     7.270	     4.863	     0.016
149		148	   725.126	    10.326	     4.900	     0.037
150		149	   735.308	    10.182	     4.935	     0.035
151		150	   748.220	    12.912	     4.988	     0.053
152		151	   756.088	     7.868	     5.007	     0.019
153		152	   768.709	    12.621	     5.057	     0.050
154		153	   782.492	    13.783	     5.114	     0.057
155		154	   789.471	     6.979	     5.126	     0.012
156		155	   802.590	    13.120	     5.178	     0.052
157		156	   813.936	    11.346	     5.218	     0.040
158		157	   823.617	     9.680	     5.246	     0.028
159		158	   831.140	     7.523	     5.260	     0.014
160		159	   848.856	    17.716	     5.339	     0.078
161		160	   860.405	    11.549	     5.378	     0.039
162		161	   874.203	    13.798	     5.430	     0.052
163		162	   882.390	     8.187	     5.447	     0.017
164		163	   888.211	     5.821	     5.449	     0.002
165		164	   898.834	    10.622	     5.481	     0.032
166		165	   909.885	    11.052	     5.514	     0.034
167		166	   922.891	    13.006	     5.560	     0.045
168		167	   932.549	     9.658	     5.584	     0.025
169		168	   946.080	    13.531	     5.631	     0.047
170		169	   959.865	    13.785	     5.680	     0.048
171		170	   992.985	    33.120	     5.841	     0.161
172		171	   987.846	    -5.138	     5.777	    -0.064
173		172	   990.747	     2.901	     5.760	    -0.017
174		173	  1002.291	    11.544	     5.794	     0.033
175		174	  1019.216	    16.925	     5.858	     0.064
176		175	  1026.395	     7.179	     5.865	     0.008
177		176	  1035.846	     9.450	     5.885	     0.020
178		177	  1051.908	    16.062	     5.943	     0.057
179		178	  1067.685	    15.778	     5.998	     0.055
180		179	  1082.824	    15.138	     6.049	     0.051
181		180	  1100.501	    17.677	     6.114	     0.065
182		181	  1099.004	    -1.497	     6.072	    -0.042
183		182	  1111.735	    12.731	     6.108	     0.037
184		183	  1125.488	    13.753	     6.150	     0.042
185		184	  1137.711	    12.223	     6.183	     0.033
186		185	  1150.500	    12.789	     6.219	     0.036
187		186	  1167.090	    16.590	     6.275	     0.056
188		187	  1175.503	     8.413	     6.286	     0.011
189		188	  1187.320	    11.818	     6.316	     0.029
190		189	  1203.189	    15.868	     6.366	     0.051
191		190	  1215.775	    12.586	     6.399	     0.033
192		191	  1226.953	    11.178	     6.424	     0.025
193		192	  1242.698	    15.745	     6.472	     0.049
194		193	  1254.892	    12.194	     6.502	     0.030
195		194	  1277.089	    22.197	     6.583	     0.081
196		195	  1289.875	    12.786	     6.615	     0.032
197		196	  1301.216	    11.341	     6.639	     0.024
198		197	  1307.983	     6.768	     6.640	     0.001
199		198	  1319.920	    11.937	     6.666	     0.027
200		199	  1334.973	    15.053	     6.708	     0.042
201		200	  1350.725	    15.753	     6.754	     0.045
