#Size	#Para	 Time		 Diff		 Proc		 Diff
3		2	     0.132	     0.132	     0.066	     0.066
4		3	     0.261	     0.129	     0.087	     0.021
5		4	     0.556	     0.294	     0.139	     0.052
6		5	     0.714	     0.158	     0.143	     0.004
7		6	     1.000	     0.286	     0.167	     0.024
8		7	     1.356	     0.356	     0.194	     0.027
9		8	     1.818	     0.463	     0.227	     0.034
10		9	     2.362	     0.544	     0.262	     0.035
11		10	     3.052	     0.690	     0.305	     0.043
12		11	     3.505	     0.453	     0.319	     0.013
13		12	     4.145	     0.640	     0.345	     0.027
14		13	     4.877	     0.733	     0.375	     0.030
15		14	     5.812	     0.935	     0.415	     0.040
16		15	     6.579	     0.767	     0.439	     0.023
17		16	     7.612	     1.033	     0.476	     0.037
18		17	     8.563	     0.951	     0.504	     0.028
19		18	     9.722	     1.158	     0.540	     0.036
20		19	    10.821	     1.100	     0.570	     0.029
21		20	    12.177	     1.355	     0.609	     0.039
22		21	    13.628	     1.451	     0.649	     0.040
23		22	    14.667	     1.039	     0.667	     0.018
24		23	    15.984	     1.317	     0.695	     0.028
25		24	    17.471	     1.487	     0.728	     0.033
26		25	    18.760	     1.289	     0.750	     0.022
27		26	    20.246	     1.486	     0.779	     0.028
28		27	    21.674	     1.428	     0.803	     0.024
29		28	    23.514	     1.840	     0.840	     0.037
30		29	    25.335	     1.821	     0.874	     0.034
31		30	    27.995	     2.660	     0.933	     0.060
32		31	    30.288	     2.293	     0.977	     0.044
33		32	    31.493	     1.205	     0.984	     0.007
34		33	    33.444	     1.950	     1.013	     0.029
35		34	    35.238	     1.794	     1.036	     0.023
36		35	    37.545	     2.307	     1.073	     0.036
37		36	    39.682	     2.137	     1.102	     0.030
38		37	    41.856	     2.174	     1.131	     0.029
39		38	    44.318	     2.462	     1.166	     0.035
40		39	    47.042	     2.724	     1.206	     0.040
41		40	    49.907	     2.865	     1.248	     0.041
42		41	    51.924	     2.017	     1.266	     0.019
43		42	    55.219	     3.294	     1.315	     0.048
44		43	    57.014	     1.795	     1.326	     0.011
45		44	    60.040	     3.026	     1.365	     0.039
46		45	    62.841	     2.801	     1.396	     0.032
47		46	    66.189	     3.348	     1.439	     0.042
48		47	    68.948	     2.760	     1.467	     0.028
49		48	    72.467	     3.519	     1.510	     0.043
50		49	    74.655	     2.188	     1.524	     0.014
51		50	    78.002	     3.347	     1.560	     0.036
52		51	    81.256	     3.254	     1.593	     0.033
53		52	    84.539	     3.283	     1.626	     0.032
54		53	    88.297	     3.758	     1.666	     0.040
55		54	    91.012	     2.716	     1.685	     0.019
56		55	    93.793	     2.781	     1.705	     0.020
57		56	    98.613	     4.820	     1.761	     0.056
58		57	   103.252	     4.638	     1.811	     0.050
59		58	   105.685	     2.434	     1.822	     0.011
60		59	   109.627	     3.942	     1.858	     0.036
61		60	   114.239	     4.612	     1.904	     0.046
62		61	   117.336	     3.097	     1.924	     0.020
63		62	   121.058	     3.722	     1.953	     0.029
64		63	   124.420	     3.363	     1.975	     0.022
65		64	   129.737	     5.316	     2.027	     0.052
66		65	   132.349	     2.612	     2.036	     0.009
67		66	   135.838	     3.489	     2.058	     0.022
68		67	   141.077	     5.239	     2.106	     0.047
69		68	   145.200	     4.123	     2.135	     0.030
70		69	   149.998	     4.798	     2.174	     0.039
71		70	   152.622	     2.624	     2.180	     0.006
72		71	   159.145	     6.523	     2.241	     0.061
73		72	   165.154	     6.009	     2.294	     0.052
74		73	   167.406	     2.253	     2.293	    -0.001
75		74	   171.942	     4.535	     2.324	     0.030
76		75	   179.058	     7.116	     2.387	     0.064
77		76	   183.135	     4.077	     2.410	     0.022
78		77	   188.702	     5.567	     2.451	     0.041
79		78	   213.035	    24.333	     2.731	     0.281
80		79	   196.947	   -16.088	     2.493	    -0.238
81		80	   202.450	     5.503	     2.531	     0.038
82		81	   208.209	     5.759	     2.570	     0.040
83		82	   215.578	     7.368	     2.629	     0.059
84		83	   220.038	     4.461	     2.651	     0.022
85		84	   240.855	    20.817	     2.867	     0.216
86		85	   229.076	   -11.779	     2.695	    -0.172
87		86	   236.861	     7.784	     2.754	     0.059
88		87	   250.384	    13.524	     2.878	     0.124
89		88	   247.863	    -2.521	     2.817	    -0.061
90		89	   261.092	    13.228	     2.934	     0.117
91		90	   260.206	    -0.886	     2.891	    -0.042
92		91	   274.231	    14.026	     3.014	     0.122
93		92	   272.596	    -1.635	     2.963	    -0.051
94		93	   277.856	     5.259	     2.988	     0.025
95		94	   284.118	     6.263	     3.023	     0.035
96		95	   299.123	    15.005	     3.149	     0.126
97		96	   306.840	     7.717	     3.196	     0.048
98		97	   302.006	    -4.834	     3.113	    -0.083
99		98	   317.189	    15.182	     3.237	     0.123
100		99	   316.578	    -0.611	     3.198	    -0.039
101		100	   331.746	    15.168	     3.317	     0.120
102		101	   325.977	    -5.769	     3.227	    -0.090
103		102	   342.975	    16.998	     3.362	     0.135
104		103	   343.843	     0.868	     3.338	    -0.024
105		104	   364.519	    20.676	     3.505	     0.167
106		105	   355.167	    -9.351	     3.383	    -0.122
107		106	   371.927	    16.759	     3.509	     0.126
108		107	   380.695	     8.769	     3.558	     0.049
109		108	   377.667	    -3.028	     3.497	    -0.061
110		109	   392.176	    14.509	     3.598	     0.101
111		110	   390.458	    -1.718	     3.550	    -0.048
112		111	   410.810	    20.352	     3.701	     0.151
113		112	   414.144	     3.334	     3.698	    -0.003
114		113	   422.816	     8.672	     3.742	     0.044
115		114	   420.008	    -2.808	     3.684	    -0.057
116		115	   437.373	    17.365	     3.803	     0.119
117		116	   451.555	    14.182	     3.893	     0.089
118		117	   452.070	     0.515	     3.864	    -0.029
119		118	   452.441	     0.371	     3.834	    -0.030
120		119	   457.598	     5.157	     3.845	     0.011
121		120	   477.670	    20.072	     3.981	     0.135
122		121	   485.220	     7.550	     4.010	     0.029
123		122	   492.735	     7.515	     4.039	     0.029
124		123	   498.382	     5.647	     4.052	     0.013
125		124	   509.047	    10.665	     4.105	     0.053
126		125	   519.347	    10.300	     4.155	     0.050
127		126	   529.676	    10.329	     4.204	     0.049
128		127	   528.575	    -1.101	     4.162	    -0.042
129		128	   555.261	    26.685	     4.338	     0.176
130		129	   557.305	     2.045	     4.320	    -0.018
131		130	   566.573	     9.268	     4.358	     0.038
132		131	   574.387	     7.814	     4.385	     0.026
133		132	   582.560	     8.173	     4.413	     0.029
134		133	   594.327	    11.768	     4.469	     0.055
135		134	   591.204	    -3.123	     4.412	    -0.057
136		135	   610.245	    19.041	     4.520	     0.108
137		136	   621.022	    10.776	     4.566	     0.046
138		137	   639.105	    18.083	     4.665	     0.099
139		138	   636.444	    -2.661	     4.612	    -0.053
140		139	   649.740	    13.297	     4.674	     0.062
141		140	   658.758	     9.018	     4.705	     0.031
142		141	   667.821	     9.063	     4.736	     0.031
143		142	   687.477	    19.656	     4.841	     0.105
144		143	   721.173	    33.696	     5.043	     0.202
145		144	   696.663	   -24.510	     4.838	    -0.205
146		145	   714.054	    17.390	     4.925	     0.087
147		146	   720.047	     5.994	     4.932	     0.007
148		147	   734.513	    14.466	     4.997	     0.065
149		148	   746.754	    12.241	     5.046	     0.049
150		149	   757.058	    10.304	     5.081	     0.035
151		150	   767.782	    10.724	     5.119	     0.038
152		151	   774.048	     6.265	     5.126	     0.008
153		152	   792.421	    18.373	     5.213	     0.087
154		153	   807.058	    14.637	     5.275	     0.062
155		154	   826.976	    19.918	     5.370	     0.095
156		155	   829.185	     2.209	     5.350	    -0.020
157		156	   854.221	    25.036	     5.476	     0.126
158		157	   852.226	    -1.996	     5.428	    -0.048
159		158	   859.765	     7.539	     5.442	     0.013
160		159	   873.128	    13.364	     5.491	     0.050
161		160	   883.099	     9.970	     5.519	     0.028
162		161	   889.592	     6.494	     5.525	     0.006
163		162	   905.430	    15.838	     5.589	     0.064
164		163	   916.658	    11.228	     5.624	     0.035
165		164	   925.825	     9.167	     5.645	     0.022
166		165	   937.293	    11.468	     5.681	     0.035
167		166	   949.482	    12.189	     5.720	     0.039
168		167	   970.791	    21.309	     5.813	     0.093
169		168	   973.396	     2.605	     5.794	    -0.019
170		169	   986.468	    13.072	     5.837	     0.043
171		170	  1002.225	    15.757	     5.895	     0.058
172		171	  1006.455	     4.230	     5.886	    -0.010
173		172	  1025.716	    19.262	     5.963	     0.078
174		173	  1034.377	     8.661	     5.979	     0.016
175		174	  1040.855	     6.478	     5.982	     0.003
176		175	  1061.851	    20.996	     6.068	     0.086
177		176	  1076.485	    14.634	     6.116	     0.049
178		177	  1085.735	     9.250	     6.134	     0.018
179		178	  1100.507	    14.772	     6.183	     0.049
180		179	  1111.238	    10.731	     6.208	     0.025
181		180	  1118.089	     6.851	     6.212	     0.004
182		181	  1138.307	    20.218	     6.289	     0.077
183		182	  1153.685	    15.378	     6.339	     0.050
184		183	  1163.943	    10.257	     6.360	     0.021
185		184	  1169.263	     5.321	     6.355	    -0.006
186		185	  1188.656	    19.393	     6.425	     0.070
187		186	  1199.750	    11.094	     6.450	     0.025
188		187	  1212.790	    13.040	     6.486	     0.035
189		188	  1223.719	    10.929	     6.509	     0.024
190		189	  1238.422	    14.703	     6.552	     0.043
191		190	  1253.518	    15.096	     6.597	     0.045
192		191	  1262.903	     9.385	     6.612	     0.015
193		192	  1279.342	    16.439	     6.663	     0.051
194		193	  1300.662	    21.320	     6.739	     0.076
195		194	  1303.971	     3.309	     6.721	    -0.018
196		195	  1329.672	    25.701	     6.819	     0.097
197		196	  1337.001	     7.329	     6.821	     0.003
198		197	  1345.088	     8.088	     6.828	     0.006
199		198	  1367.496	    22.408	     6.907	     0.079
200		199	  1404.043	    36.547	     7.055	     0.149
201		200	  1417.576	    13.532	     7.088	     0.032
202		201	  1431.315	    13.740	     7.121	     0.033
203		202	  1429.308	    -2.007	     7.076	    -0.045
204		203	  1437.626	     8.318	     7.082	     0.006
205		204	  1455.061	    17.435	     7.133	     0.051
206		205	  1467.735	    12.674	     7.160	     0.027
207		206	  1490.413	    22.678	     7.235	     0.075
208		207	  1499.226	     8.813	     7.243	     0.008
209		208	  1523.434	    24.208	     7.324	     0.082
210		209	  1538.196	    14.761	     7.360	     0.036
211		210	  1550.188	    11.992	     7.382	     0.022
212		211	  1569.583	    19.396	     7.439	     0.057
213		212	  1582.879	    13.296	     7.466	     0.028
214		213	  1594.025	    11.146	     7.484	     0.017
215		214	  1609.845	    15.820	     7.523	     0.039
216		215	  1631.140	    21.295	     7.587	     0.064
217		216	  1661.355	    30.216	     7.691	     0.105
218		217	  1675.838	    14.483	     7.723	     0.031
219		218	  1689.462	    13.624	     7.750	     0.027
220		219	  1706.263	    16.801	     7.791	     0.041
221		220	  1719.956	    13.693	     7.818	     0.027
222		221	  1748.758	    28.803	     7.913	     0.095
223		222	  1763.428	    14.670	     7.943	     0.030
224		223	  1768.651	     5.223	     7.931	    -0.012
225		224	  1818.047	    49.397	     8.116	     0.185
226		225	  1821.408	     3.361	     8.095	    -0.021
227		226	  1830.997	     9.589	     8.102	     0.007
228		227	  1841.742	    10.745	     8.113	     0.012
229		228	  1875.071	    33.329	     8.224	     0.111
230		229	  1888.826	    13.756	     8.248	     0.024
231		230	  1897.960	     9.134	     8.252	     0.004
232		231	  1922.885	    24.925	     8.324	     0.072
233		232	  1925.218	     2.333	     8.298	    -0.026
234		233	  1938.681	    13.462	     8.321	     0.022
235		234	  1962.086	    23.406	     8.385	     0.064
236		235	  1905.293	   -56.793	     8.108	    -0.277
237		236	  1941.136	    35.843	     8.225	     0.118
238		237	  2017.877	    76.740	     8.514	     0.289
239		238	  2040.292	    22.415	     8.573	     0.058
240		239	  2059.483	    19.192	     8.617	     0.044
241		240	  2080.867	    21.384	     8.670	     0.053
242		241	  2087.393	     6.525	     8.661	    -0.009
243		242	  2104.649	    17.256	     8.697	     0.036
244		243	  2132.928	    28.279	     8.777	     0.081
245		244	  2152.958	    20.031	     8.824	     0.046
246		245	  2162.882	     9.923	     8.828	     0.004
247		246	  2186.498	    23.617	     8.888	     0.060
248		247	  2195.749	     9.251	     8.890	     0.001
249		248	  2216.938	    21.189	     8.939	     0.050
250		249	  2223.799	     6.861	     8.931	    -0.008
251		250	  2258.955	    35.156	     9.036	     0.105
252		251	  2280.272	    21.317	     9.085	     0.049
253		252	  2291.769	    11.497	     9.094	     0.010
254		253	  2321.107	    29.339	     9.174	     0.080
255		254	  2363.972	    42.865	     9.307	     0.133
256		255	  2387.691	    23.719	     9.363	     0.057
257		256	  2400.447	    12.757	     9.377	     0.013
258		257	  2441.531	    41.084	     9.500	     0.123
259		258	  2452.186	    10.655	     9.505	     0.004
260		259	  2473.532	    21.347	     9.550	     0.046
261		260	  2513.674	    40.142	     9.668	     0.118
262		261	  2457.722	   -55.952	     9.417	    -0.251
263		262	  2537.291	    79.569	     9.684	     0.268
264		263	  2545.946	     8.655	     9.680	    -0.004
265		264	  2569.908	    23.962	     9.734	     0.054
266		265	  2580.453	    10.545	     9.738	     0.003
267		266	  2591.632	    11.179	     9.743	     0.005
268		267	  2621.229	    29.597	     9.817	     0.074
269		268	  2652.038	    30.809	     9.896	     0.078
270		269	  2665.223	    13.184	     9.908	     0.012
271		270	  2691.951	    26.728	     9.970	     0.062
272		271	  2694.003	     2.052	     9.941	    -0.029
273		272	  2719.010	    25.007	     9.996	     0.055
274		273	  2745.231	    26.222	    10.056	     0.059
275		274	  2773.576	    28.345	    10.123	     0.067
276		275	  2776.544	     2.967	    10.097	    -0.026
277		276	  2819.635	    43.091	    10.216	     0.120
278		277	  2820.594	     0.959	    10.183	    -0.033
279		278	  2851.062	    30.468	    10.256	     0.073
280		279	  2868.759	    17.698	    10.282	     0.027
281		280	  2919.241	    50.482	    10.426	     0.144
282		281	  2947.936	    28.695	    10.491	     0.065
283		282	  3045.619	    97.682	    10.800	     0.309
284		283	  2975.451	   -70.167	    10.514	    -0.286
285		284	  2992.094	    16.643	    10.536	     0.022
286		285	  3031.941	    39.847	    10.638	     0.103
287		286	  3038.090	     6.149	    10.623	    -0.016
288		287	  3065.685	    27.595	    10.682	     0.059
289		288	  3098.438	    32.753	    10.758	     0.077
290		289	  3103.032	     4.594	    10.737	    -0.021
291		290	  3128.753	    25.721	    10.789	     0.052
292		291	  3153.776	    25.023	    10.838	     0.049
293		292	  3172.445	    18.668	    10.865	     0.027
294		293	  3188.920	    16.475	    10.884	     0.019
295		294	  3218.621	    29.701	    10.948	     0.064
296		295	  3245.767	    27.146	    11.003	     0.055
297		296	  3265.294	    19.526	    11.031	     0.029
298		297	  3291.907	    26.613	    11.084	     0.052
299		298	  3303.441	    11.533	    11.085	     0.002
300		299	  3321.469	    18.028	    11.109	     0.023
301		300	  3377.098	    55.629	    11.257	     0.148
302		301	  3311.374	   -65.723	    11.001	    -0.256
303		302	  3359.824	    48.449	    11.125	     0.124
304		303	  3464.693	   104.870	    11.435	     0.309
305		304	  3469.175	     4.482	    11.412	    -0.023
306		305	  3517.380	    48.205	    11.532	     0.121
307		306	  3520.013	     2.633	    11.503	    -0.029
308		307	  3538.764	    18.751	    11.527	     0.024
309		308	  3566.165	    27.400	    11.578	     0.052
310		309	  3580.604	    14.439	    11.588	     0.009
311		310	  3634.357	    53.753	    11.724	     0.136
312		311	  3648.580	    14.223	    11.732	     0.008
313		312	  3665.154	    16.574	    11.747	     0.016
314		313	  3695.513	    30.359	    11.807	     0.059
315		314	  3733.775	    38.262	    11.891	     0.084
316		315	  3736.151	     2.377	    11.861	    -0.030
317		316	  3784.563	    48.412	    11.976	     0.116
318		317	  3752.472	   -32.091	    11.837	    -0.139
319		318	  3812.490	    60.017	    11.989	     0.152
320		319	  3831.250	    18.760	    12.010	     0.021
321		320	  3860.069	    28.819	    12.063	     0.053
322		321	  3889.403	    29.334	    12.117	     0.054
323		322	  3921.536	    32.133	    12.179	     0.062
324		323	  3946.881	    25.345	    12.219	     0.041
325		324	  3951.526	     4.645	    12.196	    -0.023
326		325	  3974.945	    23.419	    12.231	     0.035
327		326	  4012.269	    37.323	    12.308	     0.077
328		327	  4046.945	    34.677	    12.376	     0.068
329		328	  4049.880	     2.934	    12.347	    -0.029
330		329	  4081.833	    31.954	    12.407	     0.060
331		330	  4133.216	    51.383	    12.525	     0.118
332		331	  4149.210	    15.994	    12.535	     0.010
333		332	  4099.607	   -49.603	    12.348	    -0.187
334		333	  4137.616	    38.009	    12.425	     0.077
335		334	  4208.993	    71.377	    12.602	     0.177
336		335	  4233.043	    24.050	    12.636	     0.034
337		336	  4256.315	    23.272	    12.668	     0.032
338		337	  4312.656	    56.341	    12.797	     0.130
339		338	  4333.356	    20.700	    12.821	     0.023
340		339	  4358.180	    24.824	    12.856	     0.035
341		340	  4387.639	    29.459	    12.905	     0.049
342		341	  4395.381	     7.743	    12.890	    -0.015
343		342	  4418.155	    22.773	    12.919	     0.029
344		343	  4473.209	    55.054	    13.041	     0.123
345		344	  4521.641	    48.432	    13.144	     0.103
346		345	  4530.813	     9.171	    13.133	    -0.012
347		346	  4512.504	   -18.309	    13.042	    -0.091
348		347	  4619.684	   107.180	    13.313	     0.271
349		348	  4615.399	    -4.284	    13.263	    -0.051
350		349	  4646.612	    31.213	    13.314	     0.051
351		350	  4682.929	    36.317	    13.380	     0.066
352		351	  4688.704	     5.775	    13.358	    -0.022
353		352	  4723.761	    35.057	    13.420	     0.062
354		353	  4752.382	    28.621	    13.463	     0.043
355		354	  4781.513	    29.131	    13.507	     0.044
356		355	  4815.468	    33.955	    13.565	     0.058
357		356	  4848.167	    32.699	    13.618	     0.054
358		357	  4884.919	    36.752	    13.683	     0.065
359		358	  4881.903	    -3.016	    13.637	    -0.047
360		359	  4910.708	    28.805	    13.679	     0.042
361		360	  4938.802	    28.095	    13.719	     0.040
362		361	  4967.831	    29.029	    13.761	     0.042
363		362	  5016.923	    49.092	    13.859	     0.098
364		363	  5024.717	     7.794	    13.842	    -0.017
365		364	  5070.548	    45.830	    13.930	     0.088
366		365	  5082.943	    12.395	    13.926	    -0.004
367		366	  5139.559	    56.616	    14.043	     0.117
368		367	  5153.774	    14.215	    14.043	     0.000
369		368	  5180.490	    26.716	    14.077	     0.034
370		369	  5236.531	    56.041	    14.191	     0.114
371		370	  5095.234	  -141.297	    13.771	    -0.420
372		371	  5294.090	   198.856	    14.270	     0.499
373		372	  5301.172	     7.082	    14.250	    -0.019
374		373	  5313.616	    12.444	    14.246	    -0.005
375		374	  5351.842	    38.226	    14.310	     0.064
376		375	  5368.393	    16.551	    14.316	     0.006
377		376	  5404.745	    36.352	    14.374	     0.059
378		377	  5444.673	    39.927	    14.442	     0.068
379		378	  5471.524	    26.851	    14.475	     0.033
380		379	  5494.907	    23.383	    14.498	     0.024
381		380	  5556.677	    61.770	    14.623	     0.124
382		381	  5559.049	     2.372	    14.591	    -0.032
383		382	  5574.638	    15.589	    14.593	     0.003
384		383	  5638.000	    63.362	    14.721	     0.127
385		384	  5663.364	    25.363	    14.748	     0.028
386		385	  5663.648	     0.284	    14.711	    -0.038
387		386	  5722.685	    59.037	    14.826	     0.115
388		387	  5726.111	     3.426	    14.796	    -0.029
389		388	  5773.625	    47.514	    14.880	     0.084
390		389	  5794.736	    21.112	    14.896	     0.016
391		390	  5879.228	    84.492	    15.075	     0.178
392		391	  5868.621	   -10.607	    15.009	    -0.066
393		392	  5875.556	     6.935	    14.989	    -0.021
394		393	  5921.804	    46.248	    15.068	     0.080
395		394	  5948.351	    26.547	    15.097	     0.029
396		395	  5989.483	    41.132	    15.163	     0.066
397		396	  6018.327	    28.844	    15.198	     0.035
398		397	  6049.767	    31.440	    15.239	     0.041
399		398	  6090.431	    40.664	    15.303	     0.064
400		399	  6116.442	    26.011	    15.329	     0.027
401		400	  6186.460	    70.018	    15.466	     0.137
402		401	  6203.953	    17.493	    15.471	     0.005
403		402	  6224.932	    20.979	    15.485	     0.014
404		403	  6270.596	    45.664	    15.560	     0.075
405		404	  6284.509	    13.913	    15.556	    -0.004
406		405	  6333.943	    49.434	    15.639	     0.084
407		406	  6352.466	    18.523	    15.646	     0.007
408		407	  6440.106	    87.640	    15.823	     0.177
409		408	  6463.595	    23.489	    15.842	     0.019
410		409	  6465.770	     2.174	    15.809	    -0.033
411		410	  6559.333	    93.563	    15.998	     0.190
412		411	  6527.714	   -31.618	    15.883	    -0.116
413		412	  6596.300	    68.586	    16.010	     0.128
414		413	  6512.159	   -84.141	    15.768	    -0.242
415		414	  6312.106	  -200.053	    15.247	    -0.521
416		415	  6347.346	    35.239	    15.295	     0.048
417		416	  6378.087	    30.741	    15.332	     0.037
418		417	  6407.588	    29.501	    15.366	     0.034
419		418	  6435.880	    28.292	    15.397	     0.031
420		419	  6538.048	   102.168	    15.604	     0.207
421		420	  6516.885	   -21.163	    15.516	    -0.088
422		421	  6529.995	    13.111	    15.511	    -0.006
423		422	  6565.516	    35.521	    15.558	     0.047
424		423	  6614.989	    49.473	    15.638	     0.080
425		424	  6640.430	    25.441	    15.661	     0.023
426		425	  6662.624	    22.194	    15.677	     0.015
427		426	  6689.762	    27.138	    15.704	     0.027
428		427	  6725.866	    36.103	    15.751	     0.048
429		428	  6873.236	   147.371	    16.059	     0.308
430		429	  6796.013	   -77.224	    15.842	    -0.217
431		430	  6833.163	    37.150	    15.891	     0.050
432		431	  6875.049	    41.885	    15.951	     0.060
433		432	  6909.734	    34.686	    15.995	     0.043
434		433	  6944.027	    34.293	    16.037	     0.042
435		434	  6957.281	    13.254	    16.031	    -0.006
436		435	  6996.976	    39.695	    16.085	     0.054
437		436	  7134.652	   137.676	    16.364	     0.279
438		437	  7067.251	   -67.401	    16.172	    -0.192
439		438	  7101.960	    34.709	    16.215	     0.042
440		439	  7117.915	    15.955	    16.214	    -0.001
441		440	  7170.610	    52.695	    16.297	     0.083
442		441	  7186.488	    15.878	    16.296	    -0.001
443		442	  7233.485	    46.998	    16.365	     0.069
444		443	  7280.592	    47.107	    16.435	     0.069
445		444	  7328.536	    47.944	    16.506	     0.071
446		445	  7343.997	    15.462	    16.503	    -0.002
447		446	  7396.935	    52.937	    16.585	     0.082
448		447	  7400.313	     3.379	    16.556	    -0.030
449		448	  7427.844	    27.530	    16.580	     0.024
450		449	  7464.144	    36.301	    16.624	     0.044
451		450	  7501.219	    37.075	    16.669	     0.045
452		451	  7532.747	    31.527	    16.702	     0.033
453		452	  7646.814	   114.068	    16.918	     0.215
454		453	  7620.844	   -25.970	    16.823	    -0.095
455		454	  7664.547	    43.702	    16.882	     0.059
456		455	  7683.252	    18.705	    16.886	     0.004
457		456	  7713.164	    29.912	    16.915	     0.029
458		457	  7741.892	    28.728	    16.941	     0.026
459		458	  7786.111	    44.219	    17.000	     0.060
460		459	  7831.987	    45.876	    17.063	     0.063
461		460	  7898.172	    66.186	    17.170	     0.107
462		461	  7885.065	   -13.108	    17.104	    -0.066
463		462	  7921.089	    36.024	    17.145	     0.041
464		463	  7957.600	    36.511	    17.187	     0.042
465		464	  7980.606	    23.006	    17.200	     0.013
466		465	  8028.668	    48.062	    17.266	     0.066
467		466	  8072.931	    44.264	    17.324	     0.058
468		467	  8154.023	    81.092	    17.460	     0.137
469		468	  8158.505	     4.482	    17.433	    -0.028
470		469	  8203.883	    45.378	    17.492	     0.060
471		470	  8224.324	    20.442	    17.499	     0.006
472		471	  8286.805	    62.481	    17.594	     0.096
473		472	  8318.487	    31.682	    17.624	     0.030
474		473	  8343.053	    24.565	    17.639	     0.015
475		474	  8391.548	    48.496	    17.704	     0.065
476		475	  8494.116	   102.567	    17.882	     0.179
477		476	  8482.249	   -11.867	    17.820	    -0.062
478		477	  8490.615	     8.367	    17.800	    -0.020
479		478	  8511.611	    20.996	    17.807	     0.007
480		479	  8563.809	    52.197	    17.879	     0.072
481		480	  8586.195	    22.387	    17.888	     0.009
482		481	  8709.064	   122.868	    18.106	     0.218
483		482	  8653.004	   -56.059	    17.952	    -0.154
484		483	  8741.273	    88.268	    18.098	     0.146
485		484	  8771.417	    30.144	    18.123	     0.025
486		485	  8773.289	     1.873	    18.089	    -0.034
487		486	  8817.334	    44.045	    18.143	     0.053
488		487	  8853.736	    36.402	    18.180	     0.037
489		488	  8975.389	   121.653	    18.392	     0.212
490		489	  8929.092	   -46.296	    18.260	    -0.132
491		490	  8980.296	    51.203	    18.327	     0.067
492		491	  9031.565	    51.270	    18.394	     0.067
493		492	  9050.546	    18.981	    18.395	     0.001
494		493	  9096.893	    46.347	    18.452	     0.057
495		494	  9123.387	    26.494	    18.468	     0.016
496		495	  9240.907	   117.520	    18.668	     0.200
497		496	  9228.937	   -11.970	    18.607	    -0.062
498		497	  9247.753	    18.815	    18.607	     0.000
499		498	  9275.842	    28.089	    18.626	     0.019
500		499	  9333.240	    57.398	    18.704	     0.078
501		500	  9359.748	    26.508	    18.719	     0.016
502		501	  9443.794	    84.046	    18.850	     0.130
503		502	  9456.154	    12.360	    18.837	    -0.013
504		503	  9482.382	    26.228	    18.852	     0.015
505		504	  9515.147	    32.766	    18.879	     0.028
506		505	  9574.609	    59.461	    18.960	     0.080
507		506	  9580.639	     6.031	    18.934	    -0.026
508		507	  9690.992	   110.352	    19.114	     0.180
509		508	  9697.371	     6.379	    19.089	    -0.025
510		509	  9726.595	    29.225	    19.109	     0.020
511		510	 10063.978	   337.383	    19.733	     0.624
512		511	 10151.908	    87.930	    19.867	     0.133
513		512	 10151.149	    -0.759	    19.826	    -0.040
514		513	 10304.841	   153.692	    20.087	     0.261
515		514	 10255.028	   -49.813	    19.951	    -0.136
516		515	 10312.681	    57.654	    20.025	     0.073
517		516	 10305.667	    -7.014	    19.972	    -0.052
518		517	 10408.921	   103.253	    20.133	     0.161
519		518	 10411.032	     2.112	    20.099	    -0.035
520		519	 10513.671	   102.638	    20.258	     0.159
521		520	 10504.577	    -9.093	    20.201	    -0.056
522		521	 10555.670	    51.093	    20.260	     0.059
523		522	 10563.251	     7.581	    20.236	    -0.024
524		523	 10644.793	    81.542	    20.353	     0.117
525		524	 10677.179	    32.386	    20.376	     0.023
526		525	 10733.664	    56.484	    20.445	     0.069
527		526	 10738.949	     5.285	    20.416	    -0.029
528		527	 10793.093	    54.145	    20.480	     0.064
529		528	 10835.124	    42.030	    20.521	     0.041
530		529	 10901.037	    65.913	    20.607	     0.086
531		530	 11008.858	   107.821	    20.771	     0.165
532		531	 10953.738	   -55.120	    20.629	    -0.143
533		532	 11015.751	    62.013	    20.706	     0.078
534		533	 11026.548	    10.797	    20.688	    -0.019
535		534	 11148.858	   122.310	    20.878	     0.190
536		535	 11265.962	   117.104	    21.058	     0.180
537		536	 11268.118	     2.156	    21.023	    -0.035
538		537	 11291.305	    23.187	    21.027	     0.004
539		538	 11370.827	    79.522	    21.135	     0.109
540		539	 11405.175	    34.348	    21.160	     0.025
541		540	 11396.018	    -9.158	    21.104	    -0.056
542		541	 11533.974	   137.957	    21.320	     0.216
543		542	 11529.785	    -4.189	    21.273	    -0.047
544		543	 11558.416	    28.631	    21.286	     0.014
545		544	 11586.221	    27.805	    21.298	     0.012
546		545	 11614.907	    28.686	    21.312	     0.014
547		546	 11810.059	   195.151	    21.630	     0.318
548		547	 11755.798	   -54.260	    21.491	    -0.139
549		548	 11767.673	    11.875	    21.474	    -0.018
550		549	 11863.845	    96.172	    21.610	     0.136
551		550	 11880.350	    16.505	    21.601	    -0.009
552		551	 11981.403	   101.053	    21.745	     0.144
553		552	 11976.078	    -5.325	    21.696	    -0.049
554		553	 12004.223	    28.145	    21.707	     0.012
555		554	 12024.133	    19.910	    21.704	    -0.003
556		555	 12118.695	    94.562	    21.835	     0.131
557		556	 12215.626	    96.931	    21.971	     0.135
558		557	 12172.094	   -43.532	    21.853	    -0.118
559		558	 12236.656	    64.562	    21.929	     0.077
560		559	 12291.428	    54.771	    21.988	     0.059
561		560	 12402.950	   111.522	    22.148	     0.160
562		561	 12404.780	     1.830	    22.112	    -0.036
563		562	 12446.678	    41.898	    22.147	     0.035
564		563	 12504.841	    58.163	    22.211	     0.064
565		564	 12516.480	    11.640	    22.192	    -0.019
566		565	 12685.795	   169.315	    22.453	     0.260
567		566	 12654.436	   -31.359	    22.358	    -0.095
568		567	 12640.160	   -14.276	    22.293	    -0.065
569		568	 12701.861	    61.701	    22.362	     0.069
570		569	 12726.309	    24.448	    22.366	     0.004
571		570	 12854.977	   128.669	    22.553	     0.186
572		571	 12875.338	    20.361	    22.549	    -0.004
573		572	 12878.593	     3.255	    22.515	    -0.034
574		573	 12977.277	    98.684	    22.648	     0.133
575		574	 13101.759	   124.482	    22.825	     0.177
576		575	 13085.113	   -16.646	    22.757	    -0.069
577		576	 13110.876	    25.763	    22.762	     0.005
578		577	 13142.725	    31.850	    22.778	     0.016
579		578	 13235.508	    92.783	    22.899	     0.121
580		579	 13358.984	   123.476	    23.073	     0.174
581		580	 13288.711	   -70.273	    22.912	    -0.161
582		581	 13404.536	   115.825	    23.071	     0.160
583		582	 13392.885	   -11.651	    23.012	    -0.060
584		583	 13525.813	   132.928	    23.200	     0.189
585		584	 13521.808	    -4.005	    23.154	    -0.047
586		585	 13542.879	    21.071	    23.150	    -0.004
587		586	 13587.236	    44.358	    23.186	     0.036
588		587	 13647.285	    60.048	    23.249	     0.063
589		588	 13772.930	   125.645	    23.423	     0.174
590		589	 13748.467	   -24.463	    23.342	    -0.081
591		590	 13794.002	    45.534	    23.380	     0.038
592		591	 13820.561	    26.560	    23.385	     0.005
593		592	 13942.940	   122.379	    23.552	     0.167
594		593	 13945.765	     2.824	    23.517	    -0.035
595		594	 14003.453	    57.688	    23.575	     0.058
596		595	 14029.119	    25.667	    23.578	     0.004
597		596	 14157.774	   128.655	    23.755	     0.176
598		597	 14115.224	   -42.550	    23.644	    -0.111
599		598	 14193.691	    78.467	    23.735	     0.092
600		599	 14272.653	    78.961	    23.827	     0.092
601		600	 14391.067	   118.414	    23.985	     0.158
602		601	 14408.698	    17.631	    23.975	    -0.011
603		602	 14374.329	   -34.368	    23.878	    -0.097
604		603	 14517.549	   143.219	    24.076	     0.198
605		604	 14567.653	    50.104	    24.119	     0.043
606		605	 14620.803	    53.150	    24.167	     0.048
607		606	 14601.016	   -19.787	    24.094	    -0.073
608		607	 14683.012	    81.995	    24.189	     0.095
609		608	 14685.054	     2.043	    24.153	    -0.036
610		609	 14895.274	   210.219	    24.459	     0.306
611		610	 14856.352	   -38.922	    24.355	    -0.104
612		611	 14879.613	    23.261	    24.353	    -0.002
613		612	 14920.259	    40.647	    24.380	     0.027
614		613	 15070.160	   149.900	    24.584	     0.205
615		614	 15033.150	   -37.009	    24.484	    -0.100
616		615	 15063.784	    30.633	    24.494	     0.010
617		616	 15176.270	   112.486	    24.637	     0.143
618		617	 15240.858	    64.589	    24.702	     0.065
619		618	 15214.965	   -25.893	    24.620	    -0.082
620		619	 15319.480	   104.516	    24.749	     0.129
621		620	 15364.179	    44.698	    24.781	     0.032
622		621	 15434.858	    70.679	    24.855	     0.074
623		622	 15480.578	    45.720	    24.888	     0.034
624		623	 15496.138	    15.560	    24.873	    -0.015
625		624	 15638.015	   141.877	    25.061	     0.188
626		625	 15580.565	   -57.450	    24.929	    -0.132
627		626	 15649.040	    68.475	    24.998	     0.070
628		627	 15688.820	    39.780	    25.022	     0.024
629		628	 15787.586	    98.766	    25.139	     0.117
630		629	 15832.301	    44.715	    25.171	     0.031
631		630	 15878.154	    45.853	    25.203	     0.033
632		631	 15909.555	    31.401	    25.213	     0.010
633		632	 15998.653	    89.098	    25.314	     0.101
634		633	 16044.981	    46.327	    25.348	     0.033
635		634	 16078.256	    33.276	    25.360	     0.013
636		635	 16210.863	   132.607	    25.529	     0.169
637		636	 16185.487	   -25.376	    25.449	    -0.080
638		637	 16271.765	    86.278	    25.544	     0.095
639		638	 16293.955	    22.190	    25.539	    -0.005
640		639	 16454.435	   160.480	    25.750	     0.211
641		640	 16458.368	     3.933	    25.716	    -0.034
642		641	 16451.346	    -7.022	    25.665	    -0.051
643		642	 16506.212	    54.866	    25.711	     0.045
644		643	 16666.925	   160.713	    25.921	     0.210
645		644	 16609.969	   -56.956	    25.792	    -0.129
646		645	 16712.712	   102.743	    25.911	     0.119
647		646	 16849.079	   136.367	    26.082	     0.171
648		647	 16785.883	   -63.195	    25.944	    -0.138
649		648	 16820.930	    35.046	    25.958	     0.014
650		649	 16879.401	    58.472	    26.008	     0.050
651		650	 17020.265	   140.864	    26.185	     0.177
652		651	 17016.495	    -3.770	    26.139	    -0.046
653		652	 17113.589	    97.095	    26.248	     0.109
654		653	 17195.937	    82.348	    26.334	     0.086
655		654	 17189.487	    -6.451	    26.284	    -0.050
656		655	 17286.268	    96.781	    26.391	     0.108
657		656	 17323.494	    37.226	    26.408	     0.017
658		657	 17456.534	   133.040	    26.570	     0.162
659		658	 17390.625	   -65.909	    26.430	    -0.141
660		659	 17480.515	    89.890	    26.526	     0.096
661		660	 17611.962	   131.447	    26.685	     0.159
662		661	 17632.934	    20.972	    26.676	    -0.009
663		662	 17652.955	    20.021	    26.666	    -0.010
664		663	 17826.854	   173.898	    26.888	     0.222
665		664	 17758.678	   -68.175	    26.745	    -0.143
666		665	 17895.382	   136.704	    26.910	     0.165
667		666	 17929.903	    34.521	    26.922	     0.011
668		667	 18023.341	    93.438	    27.022	     0.100
669		668	 18031.077	     7.737	    26.993	    -0.029
670		669	 18026.597	    -4.480	    26.946	    -0.047
671		670	 18174.034	   147.437	    27.125	     0.180
672		671	 18180.393	     6.359	    27.094	    -0.031
673		672	 18285.195	   104.802	    27.210	     0.116
674		673	 18352.681	    67.486	    27.270	     0.060
675		674	 18420.561	    67.880	    27.330	     0.060
676		675	 18489.189	    68.628	    27.391	     0.061
677		676	 18474.206	   -14.983	    27.329	    -0.063
678		677	 18705.366	   231.160	    27.630	     0.301
679		678	 18641.996	   -63.370	    27.496	    -0.134
680		679	 18672.751	    30.755	    27.500	     0.005
681		680	 18793.454	   120.703	    27.637	     0.137
682		681	 18770.112	   -23.342	    27.563	    -0.075
683		682	 18826.547	    56.435	    27.605	     0.042
684		683	 18946.533	   119.987	    27.740	     0.135
685		684	 18950.651	     4.118	    27.706	    -0.035
686		685	 19062.347	   111.696	    27.828	     0.123
687		686	 19226.039	   163.692	    28.026	     0.198
688		687	 19183.445	   -42.594	    27.924	    -0.103
689		688	 19219.702	    36.257	    27.936	     0.012
690		689	 19341.050	   121.348	    28.071	     0.136
691		690	 19328.012	   -13.038	    28.012	    -0.060
692		691	 19473.208	   145.196	    28.181	     0.170
693		692	 19528.264	    55.056	    28.220	     0.039
694		693	 19538.134	     9.870	    28.194	    -0.026
695		694	 19564.297	    26.163	    28.191	    -0.003
696		695	 19681.521	   117.224	    28.319	     0.128
697		696	 19673.918	    -7.602	    28.267	    -0.052
698		697	 19809.744	   135.826	    28.421	     0.154
699		698	 19845.460	    35.715	    28.432	     0.010
700		699	 19924.462	    79.003	    28.504	     0.072
701		700	 19944.394	    19.932	    28.492	    -0.012
702		701	 20040.999	    96.605	    28.589	     0.097
703		702	 20061.374	    20.375	    28.577	    -0.012
704		703	 20110.996	    49.622	    28.607	     0.030
705		704	 20253.671	   142.674	    28.769	     0.162
706		705	 20241.585	   -12.085	    28.711	    -0.058
707		706	 20251.066	     9.481	    28.684	    -0.027
708		707	 20396.699	   145.633	    28.850	     0.165
709		708	 20368.727	   -27.972	    28.769	    -0.080
710		709	 20461.050	    92.323	    28.859	     0.090
711		710	 20592.416	   131.366	    29.003	     0.144
712		711	 20571.172	   -21.244	    28.933	    -0.071
713		712	 20634.301	    63.129	    28.981	     0.048
714		713	 20797.661	   163.360	    29.169	     0.188
715		714	 20798.389	     0.728	    29.129	    -0.040
716		715	 20866.678	    68.289	    29.184	     0.055
717		716	 21025.647	   158.970	    29.365	     0.181
718		717	 20972.429	   -53.219	    29.250	    -0.115
719		718	 21052.060	    79.631	    29.320	     0.070
720		719	 21152.442	   100.382	    29.419	     0.099
721		720	 21154.748	     2.307	    29.382	    -0.038
722		721	 21269.117	   114.368	    29.499	     0.118
723		722	 21357.693	    88.576	    29.581	     0.082
724		723	 21352.638	    -5.055	    29.533	    -0.048
725		724	 21493.372	   140.734	    29.687	     0.154
726		725	 21546.049	    52.677	    29.719	     0.032
727		726	 21617.170	    71.122	    29.776	     0.057
728		727	 21771.265	   154.094	    29.947	     0.171
729		728	 21694.304	   -76.961	    29.800	    -0.147
730		729	 21802.092	   107.789	    29.907	     0.107
731		730	 21996.044	   193.952	    30.132	     0.225
732		731	 21864.081	  -131.963	    29.910	    -0.222
733		732	 22114.099	   250.018	    30.211	     0.301
734		733	 22022.542	   -91.557	    30.044	    -0.166
735		734	 22151.854	   129.312	    30.180	     0.135
736		735	 22206.234	    54.380	    30.213	     0.033
737		736	 22265.257	    59.023	    30.252	     0.039
738		737	 22239.657	   -25.600	    30.176	    -0.076
739		738	 22441.700	   202.043	    30.409	     0.233
740		739	 22421.780	   -19.920	    30.341	    -0.068
741		740	 22535.575	   113.795	    30.453	     0.113
742		741	 22635.017	    99.441	    30.547	     0.093
743		742	 22677.327	    42.310	    30.562	     0.016
744		743	 22750.713	    73.386	    30.620	     0.058
745		744	 22733.705	   -17.008	    30.556	    -0.064
746		745	 22782.986	    49.281	    30.581	     0.025
747		746	 22997.802	   214.815	    30.828	     0.247
748		747	 22927.040	   -70.762	    30.692	    -0.136
749		748	 23108.338	   181.298	    30.894	     0.201
750		749	 23084.474	   -23.864	    30.820	    -0.073
751		750	 23201.285	   116.811	    30.935	     0.115
752		751	 23306.892	   105.607	    31.034	     0.099
753		752	 23315.827	     8.935	    31.005	    -0.029
754		753	 23495.527	   179.699	    31.203	     0.197
755		754	 23418.306	   -77.221	    31.059	    -0.144
756		755	 23608.329	   190.023	    31.269	     0.211
757		756	 23729.812	   121.483	    31.389	     0.119
758		757	 23669.963	   -59.849	    31.268	    -0.121
759		758	 23798.799	   128.836	    31.397	     0.129
760		759	 23848.314	    49.515	    31.421	     0.024
761		760	 23882.196	    33.881	    31.424	     0.003
762		761	 24093.102	   210.907	    31.660	     0.236
763		762	 24078.382	   -14.720	    31.599	    -0.061
764		763	 24141.708	    63.326	    31.641	     0.042
765		764	 24177.056	    35.348	    31.645	     0.005
766		765	 24260.522	    83.466	    31.713	     0.068
767		766	 24356.221	    95.699	    31.797	     0.084
768		767	 24393.448	    37.227	    31.804	     0.007
769		768	 24615.187	   221.738	    32.051	     0.247
770		769	 24556.172	   -59.015	    31.933	    -0.118
771		770	 24661.338	   105.167	    32.028	     0.095
772		771	 24758.343	    97.004	    32.112	     0.084
773		772	 24758.867	     0.525	    32.071	    -0.041
774		773	 24853.158	    94.291	    32.152	     0.080
775		774	 24861.742	     8.584	    32.121	    -0.030
776		775	 25075.610	   213.868	    32.356	     0.235
777		776	 25069.701	    -5.909	    32.306	    -0.049
778		777	 25098.105	    28.404	    32.301	    -0.005
779		778	 25290.319	   192.214	    32.507	     0.206
780		779	 25279.367	   -10.952	    32.451	    -0.056
781		780	 25379.962	   100.595	    32.538	     0.087
782		781	 25446.237	    66.275	    32.582	     0.043
783		782	 25600.016	   153.779	    32.737	     0.155
784		783	 25538.793	   -61.224	    32.617	    -0.120
785		784	 25575.824	    37.031	    32.622	     0.006
786		785	 25719.260	   143.436	    32.763	     0.141
787		786	 25739.532	    20.272	    32.747	    -0.016
788		787	 25895.397	   155.865	    32.904	     0.156
789		788	 25869.911	   -25.486	    32.830	    -0.074
790		789	 26118.810	   248.899	    33.104	     0.274
791		790	 26113.841	    -4.969	    33.055	    -0.048
792		791	 26128.862	    15.021	    33.033	    -0.023
793		792	 26312.834	   183.972	    33.223	     0.191
794		793	 26336.994	    24.160	    33.212	    -0.011
795		794	 26435.585	    98.591	    33.294	     0.082
796		795	 26527.013	    91.428	    33.367	     0.073
797		796	 26652.868	   125.855	    33.484	     0.116
798		797	 26683.066	    30.198	    33.479	    -0.004
799		798	 26777.796	    94.729	    33.556	     0.077
800		799	 26570.273	  -207.523	    33.254	    -0.302
801		800	 26653.350	    83.078	    33.317	     0.062
802		801	 26864.872	   211.522	    33.539	     0.222
803		802	 26790.086	   -74.786	    33.404	    -0.135
804		803	 27093.541	   303.455	    33.740	     0.336
805		804	 27138.760	    45.219	    33.755	     0.014
806		805	 27207.422	    68.662	    33.798	     0.043
807		806	 27184.169	   -23.253	    33.727	    -0.071
808		807	 27350.093	   165.924	    33.891	     0.164
809		808	 27416.039	    65.946	    33.931	     0.040
810		809	 27463.511	    47.472	    33.947	     0.017
811		810	 27415.642	   -47.868	    33.846	    -0.101
812		811	 27424.962	     9.320	    33.816	    -0.030
813		812	 27784.070	   359.108	    34.217	     0.401
814		813	 27797.896	    13.826	    34.192	    -0.025
815		814	 27293.876	  -504.019	    33.531	    -0.661
816		815	 27374.006	    80.129	    33.588	     0.057
817		816	 28160.722	   786.717	    34.511	     0.923
818		817	 28085.651	   -75.071	    34.377	    -0.134
819		818	 27771.472	  -314.179	    33.950	    -0.426
820		819	 28172.931	   401.459	    34.399	     0.449
821		820	 28155.966	   -16.965	    34.337	    -0.063
822		821	 28338.393	   182.427	    34.517	     0.180
823		822	 28439.706	   101.313	    34.598	     0.081
824		823	 28542.536	   102.830	    34.681	     0.083
825		824	 28624.127	    81.591	    34.738	     0.057
826		825	 28706.192	    82.065	    34.795	     0.057
827		826	 28618.767	   -87.425	    34.647	    -0.148
828		827	 28820.590	   201.823	    34.850	     0.202
829		828	 28971.696	   151.105	    34.990	     0.140
830		829	 28669.569	  -302.126	    34.583	    -0.407
831		830	 29048.344	   378.774	    34.998	     0.415
832		831	 29105.256	    56.912	    35.024	     0.026
833		832	 29159.490	    54.234	    35.047	     0.023
834		833	 28945.531	  -213.959	    34.749	    -0.299
835		834	 29310.960	   365.429	    35.145	     0.396
836		835	 29339.558	    28.598	    35.137	    -0.008
837		836	 29471.574	   132.016	    35.253	     0.116
838		837	 29664.451	   192.878	    35.441	     0.188
839		838	 29599.106	   -65.346	    35.321	    -0.120
840		839	 29801.862	   202.756	    35.521	     0.200
841		840	 29845.997	    44.135	    35.531	     0.010
842		841	 29600.964	  -245.033	    35.197	    -0.334
843		842	 29942.836	   341.872	    35.562	     0.364
844		843	 30093.162	   150.326	    35.698	     0.136
845		844	 30176.340	    83.178	    35.754	     0.056
846		845	 30179.122	     2.782	    35.715	    -0.039
847		846	 30288.915	   109.793	    35.803	     0.088
848		847	 30040.284	  -248.631	    35.467	    -0.336
849		848	 30504.201	   463.917	    35.972	     0.505
850		849	 29964.635	  -539.567	    35.294	    -0.678
851		850	 30560.694	   596.059	    35.954	     0.660
852		851	 30071.573	  -489.121	    35.337	    -0.617
853		852	 30901.167	   829.594	    36.269	     0.932
854		853	 30295.336	  -605.831	    35.516	    -0.753
855		854	 30899.689	   604.353	    36.182	     0.666
856		855	 31078.397	   178.708	    36.349	     0.167
857		856	 31038.064	   -40.333	    36.259	    -0.090
858		857	 30593.622	  -444.441	    35.699	    -0.561
859		858	 31286.615	   692.992	    36.465	     0.766
860		859	 31355.716	    69.101	    36.503	     0.038
861		860	 31467.793	   112.077	    36.590	     0.088
862		861	 31541.403	    73.610	    36.633	     0.043
863		862	 31582.994	    41.591	    36.639	     0.006
864		863	 31714.186	   131.192	    36.749	     0.110
865		864	 31953.561	   239.375	    36.983	     0.235
866		865	 31813.148	  -140.413	    36.778	    -0.205
867		866	 31990.885	   177.737	    36.941	     0.163
868		867	 31841.141	  -149.744	    36.726	    -0.215
869		868	 31977.652	   136.512	    36.841	     0.115
870		869	 32121.986	   144.334	    36.964	     0.124
871		870	 32091.344	   -30.643	    36.887	    -0.078
872		871	 32172.043	    80.699	    36.937	     0.050
873		872	 32281.916	   109.873	    37.021	     0.084
874		873	 32352.869	    70.953	    37.059	     0.039
875		874	 32484.290	   131.422	    37.167	     0.108
876		875	 32513.176	    28.885	    37.158	    -0.009
877		876	 32565.198	    52.022	    37.175	     0.017
878		877	 32642.657	    77.459	    37.221	     0.046
879		878	 32677.223	    34.566	    37.218	    -0.003
880		879	 33068.140	   390.917	    37.620	     0.402
881		880	 33123.688	    55.547	    37.641	     0.020
882		881	 33223.634	    99.946	    37.711	     0.071
883		882	 33326.621	   102.987	    37.785	     0.074
884		883	 33343.122	    16.502	    37.761	    -0.024
885		884	 33305.974	   -37.148	    37.676	    -0.085
886		885	 33315.612	     9.637	    37.645	    -0.032
887		886	 33662.569	   346.957	    37.994	     0.349
888		887	 33657.293	    -5.276	    37.945	    -0.049
889		888	 33287.948	  -369.345	    37.486	    -0.459
890		889	 33777.084	   489.136	    37.994	     0.508
891		890	 33886.276	   109.192	    38.074	     0.080
892		891	 33934.771	    48.495	    38.086	     0.012
893		892	 34220.047	   285.276	    38.363	     0.277
894		893	 33975.220	  -244.827	    38.046	    -0.317
895		894	 34293.221	   318.001	    38.359	     0.313
896		895	 34555.087	   261.866	    38.609	     0.250
897		896	 34475.298	   -79.789	    38.477	    -0.132
898		897	 34344.609	  -130.689	    38.288	    -0.189
899		898	 34227.483	  -117.127	    38.115	    -0.173
900		899	 34428.074	   200.591	    38.296	     0.181
901		900	 34579.372	   151.298	    38.422	     0.126
902		901	 34640.422	    61.050	    38.447	     0.025
903		902	 34988.837	   348.416	    38.790	     0.344
904		903	 34896.402	   -92.436	    38.645	    -0.145
905		904	 35066.173	   169.771	    38.790	     0.145
906		905	 35133.834	    67.661	    38.822	     0.032
907		906	 35028.841	  -104.992	    38.663	    -0.159
908		907	 34995.804	   -33.038	    38.584	    -0.079
909		908	 35306.110	   310.306	    38.883	     0.299
910		909	 35252.718	   -53.392	    38.782	    -0.102
911		910	 35544.807	   292.089	    39.060	     0.278
912		911	 35516.375	   -28.432	    38.986	    -0.074
913		912	 35692.359	   175.984	    39.136	     0.150
914		913	 35692.953	     0.594	    39.094	    -0.042
915		914	 35799.713	   106.760	    39.168	     0.074
916		915	 35848.067	    48.354	    39.178	     0.010
917		916	 35952.474	   104.407	    39.249	     0.071
918		917	 36354.390	   401.916	    39.645	     0.395
919		918	 36449.749	    95.359	    39.706	     0.061
920		919	 36346.450	  -103.299	    39.550	    -0.156
921		920	 36555.522	   209.072	    39.734	     0.184
922		921	 36421.720	  -133.802	    39.546	    -0.188
923		922	 36700.915	   279.194	    39.806	     0.260
924		923	 36688.091	   -12.824	    39.749	    -0.057
925		924	 36963.781	   275.690	    40.004	     0.255
926		925	 37164.129	   200.349	    40.177	     0.173
927		926	 37129.822	   -34.307	    40.097	    -0.080
928		927	 37322.108	   192.286	    40.261	     0.164
929		928	 37390.072	    67.964	    40.291	     0.030
930		929	 37373.073	   -16.999	    40.229	    -0.062
931		930	 37361.376	   -11.698	    40.174	    -0.056
932		931	 37370.869	     9.493	    40.141	    -0.033
933		932	 37408.351	    37.482	    40.138	    -0.003
934		933	 37646.827	   238.477	    40.350	     0.213
935		934	 37765.880	   119.053	    40.435	     0.084
936		935	 37932.010	   166.130	    40.569	     0.134
937		936	 37925.810	    -6.200	    40.519	    -0.050
938		937	 37808.113	  -117.697	    40.350	    -0.169
939		938	 37616.257	  -191.856	    40.103	    -0.248
940		939	 38077.785	   461.527	    40.551	     0.449
941		940	 38126.452	    48.667	    40.560	     0.009
942		941	 38532.770	   406.318	    40.949	     0.389
943		942	 38514.839	   -17.931	    40.886	    -0.063
944		943	 38415.732	   -99.107	    40.738	    -0.148
945		944	 38525.501	   109.770	    40.811	     0.073
946		945	 38581.692	    56.191	    40.827	     0.016
947		946	 38646.960	    65.268	    40.853	     0.026
948		947	 38807.591	   160.631	    40.980	     0.126
949		948	 38934.295	   126.704	    41.070	     0.090
950		949	 38899.925	   -34.369	    40.990	    -0.079
951		950	 38642.570	  -257.356	    40.676	    -0.314
952		951	 39037.608	   395.039	    41.049	     0.373
953		952	 39268.407	   230.799	    41.248	     0.199
954		953	 38498.500	  -769.907	    40.397	    -0.851
955		954	 38330.082	  -168.417	    40.178	    -0.219
956		955	 38535.492	   205.410	    40.351	     0.173
957		956	 38632.200	    96.708	    40.410	     0.059
958		957	 38631.294	    -0.906	    40.367	    -0.043
959		958	 38765.405	   134.112	    40.465	     0.098
960		959	 38917.005	   151.599	    40.581	     0.116
961		960	 38850.099	   -66.906	    40.469	    -0.112
962		961	 39095.148	   245.049	    40.682	     0.213
963		962	 39190.453	    95.305	    40.739	     0.057
964		963	 39181.247	    -9.205	    40.687	    -0.052
965		964	 39452.299	   271.052	    40.926	     0.239
966		965	 39523.545	    71.246	    40.957	     0.031
967		966	 39406.426	  -117.119	    40.793	    -0.164
968		967	 39745.593	   339.167	    41.102	     0.309
969		968	 39728.258	   -17.334	    41.042	    -0.060
970		969	 39728.826	     0.568	    41.000	    -0.042
971		970	 39817.380	    88.554	    41.049	     0.049
972		971	 39960.633	   143.252	    41.154	     0.105
973		972	 39900.759	   -59.874	    41.050	    -0.104
974		973	 40202.756	   301.997	    41.318	     0.268
975		974	 40179.439	   -23.317	    41.252	    -0.066
976		975	 40210.465	    31.026	    41.242	    -0.010
977		976	 40372.483	   162.018	    41.365	     0.124
978		977	 40588.855	   216.372	    41.544	     0.179
979		978	 40405.489	  -183.366	    41.314	    -0.230
980		979	 40799.156	   393.667	    41.674	     0.360
981		980	 40860.348	    61.191	    41.694	     0.020
982		981	 40844.265	   -16.083	    41.635	    -0.059
983		982	 41076.062	   231.797	    41.829	     0.194
984		983	 41103.594	    27.532	    41.814	    -0.015
985		984	 41166.739	    63.145	    41.836	     0.022
986		985	 41381.074	   214.335	    42.011	     0.175
987		986	 41498.635	   117.561	    42.088	     0.077
988		987	 41564.760	    66.125	    42.112	     0.024
989		988	 41480.910	   -83.850	    41.985	    -0.127
990		989	 41638.979	   158.069	    42.102	     0.117
991		990	 41833.668	   194.689	    42.256	     0.154
992		991	 41794.473	   -39.194	    42.174	    -0.082
993		992	 41973.203	   178.730	    42.312	     0.138
994		993	 42119.663	   146.459	    42.417	     0.105
995		994	 42202.051	    82.389	    42.457	     0.040
996		995	 42212.804	    10.753	    42.425	    -0.032
997		996	 42337.964	   125.160	    42.508	     0.083
998		997	 42460.794	   122.831	    42.589	     0.081
999		998	 42499.076	    38.281	    42.584	    -0.004
1000		999	 42706.420	   207.345	    42.749	     0.165
1001		1000	 42714.249	     7.828	    42.714	    -0.035
