#Size	#Para	 Time		 Diff		 Proc		 Diff
3		2	     0.130	     0.130	     0.065	     0.065
4		3	     0.249	     0.118	     0.083	     0.018
5		4	     0.525	     0.276	     0.131	     0.048
6		5	     0.708	     0.182	     0.142	     0.010
7		6	     0.997	     0.289	     0.166	     0.025
8		7	     1.332	     0.336	     0.190	     0.024
9		8	     1.724	     0.392	     0.216	     0.025
10		9	     2.239	     0.515	     0.249	     0.033
11		10	     2.958	     0.719	     0.296	     0.047
12		11	     3.476	     0.518	     0.316	     0.020
13		12	     4.114	     0.638	     0.343	     0.027
14		13	     4.895	     0.781	     0.377	     0.034
15		14	     5.682	     0.786	     0.406	     0.029
16		15	     6.547	     0.865	     0.436	     0.031
17		16	     7.443	     0.896	     0.465	     0.029
18		17	     8.519	     1.077	     0.501	     0.036
19		18	     9.658	     1.139	     0.537	     0.035
20		19	    10.791	     1.133	     0.568	     0.031
21		20	    12.164	     1.373	     0.608	     0.040
22		21	    13.194	     1.030	     0.628	     0.020
23		22	    13.999	     0.805	     0.636	     0.008
24		23	    15.400	     1.401	     0.670	     0.033
25		24	    16.756	     1.356	     0.698	     0.029
26		25	    18.270	     1.514	     0.731	     0.033
27		26	    19.865	     1.596	     0.764	     0.033
28		27	    21.378	     1.513	     0.792	     0.028
29		28	    23.165	     1.787	     0.827	     0.036
30		29	    24.844	     1.678	     0.857	     0.029
31		30	    26.925	     2.082	     0.898	     0.041
32		31	    28.613	     1.688	     0.923	     0.025
33		32	    31.274	     2.661	     0.977	     0.054
34		33	    32.610	     1.336	     0.988	     0.011
35		34	    34.446	     1.836	     1.013	     0.025
36		35	    36.894	     2.448	     1.054	     0.041
37		36	    38.949	     2.055	     1.082	     0.028
38		37	    41.140	     2.192	     1.112	     0.030
39		38	    43.430	     2.290	     1.143	     0.031
40		39	    46.124	     2.694	     1.183	     0.040
41		40	    49.372	     3.248	     1.234	     0.052
42		41	    51.109	     1.736	     1.247	     0.012
43		42	    54.134	     3.025	     1.289	     0.042
44		43	    56.442	     2.308	     1.313	     0.024
45		44	    59.961	     3.519	     1.363	     0.050
46		45	    62.526	     2.565	     1.389	     0.027
47		46	    65.561	     3.035	     1.425	     0.036
48		47	    66.968	     1.407	     1.425	    -0.000
49		48	    71.105	     4.138	     1.481	     0.057
50		49	    73.395	     2.290	     1.498	     0.017
51		50	    76.007	     2.612	     1.520	     0.022
52		51	    80.553	     4.546	     1.579	     0.059
53		52	    82.372	     1.819	     1.584	     0.005
54		53	    86.750	     4.378	     1.637	     0.053
55		54	    89.665	     2.915	     1.660	     0.024
56		55	    92.676	     3.011	     1.685	     0.025
57		56	    99.426	     6.750	     1.775	     0.090
58		57	   100.475	     1.049	     1.763	    -0.013
59		58	   104.253	     3.778	     1.797	     0.035
60		59	   108.178	     3.925	     1.834	     0.036
61		60	   112.383	     4.205	     1.873	     0.040
62		61	   116.150	     3.767	     1.904	     0.031
63		62	   119.921	     3.770	     1.934	     0.030
64		63	   123.360	     3.439	     1.958	     0.024
65		64	   129.189	     5.829	     2.019	     0.060
66		65	   131.744	     2.555	     2.027	     0.008
67		66	   135.055	     3.312	     2.046	     0.019
68		67	   140.867	     5.811	     2.102	     0.056
69		68	   144.389	     3.523	     2.123	     0.021
70		69	   148.654	     4.264	     2.154	     0.031
71		70	   153.740	     5.087	     2.196	     0.042
72		71	   187.599	    33.859	     2.642	     0.446
73		72	   172.694	   -14.905	     2.399	    -0.244
74		73	   167.987	    -4.707	     2.301	    -0.097
75		74	   171.067	     3.080	     2.312	     0.011
76		75	   177.999	     6.932	     2.373	     0.062
77		76	   181.863	     3.864	     2.393	     0.020
78		77	   188.393	     6.530	     2.447	     0.054
79		78	   212.032	    23.639	     2.718	     0.272
80		79	   195.360	   -16.672	     2.473	    -0.245
81		80	   202.643	     7.282	     2.533	     0.060
82		81	   206.999	     4.356	     2.556	     0.023
83		82	   214.157	     7.158	     2.612	     0.056
84		83	   219.506	     5.349	     2.645	     0.033
85		84	   238.626	    19.121	     2.841	     0.196
86		85	   227.667	   -10.959	     2.678	    -0.162
87		86	   235.632	     7.966	     2.740	     0.061
88		87	   249.756	    14.123	     2.871	     0.131
89		88	   244.701	    -5.055	     2.781	    -0.090
90		89	   263.700	    19.000	     2.963	     0.182
91		90	   259.038	    -4.663	     2.878	    -0.085
92		91	   270.964	    11.926	     2.978	     0.099
93		92	   269.322	    -1.642	     2.927	    -0.050
94		93	   275.514	     6.192	     2.963	     0.035
95		94	   282.056	     6.542	     3.001	     0.038
96		95	   302.654	    20.598	     3.186	     0.185
97		96	   303.210	     0.556	     3.158	    -0.027
98		97	   299.257	    -3.953	     3.085	    -0.073
99		98	   314.928	    15.670	     3.214	     0.128
100		99	   312.030	    -2.898	     3.152	    -0.062
101		100	   327.419	    15.389	     3.274	     0.122
102		101	   325.828	    -1.591	     3.226	    -0.048
103		102	   338.960	    13.132	     3.323	     0.097
104		103	   338.437	    -0.523	     3.286	    -0.037
105		104	   354.994	    16.557	     3.413	     0.128
106		105	   350.223	    -4.771	     3.335	    -0.078
107		106	   373.717	    23.494	     3.526	     0.190
108		107	   374.933	     1.216	     3.504	    -0.022
109		108	   373.278	    -1.655	     3.456	    -0.048
110		109	   389.049	    15.771	     3.569	     0.113
111		110	   388.044	    -1.005	     3.528	    -0.042
112		111	   404.396	    16.351	     3.643	     0.116
113		112	   411.190	     6.794	     3.671	     0.028
114		113	   421.484	    10.294	     3.730	     0.059
115		114	   419.232	    -2.252	     3.677	    -0.052
116		115	   437.013	    17.781	     3.800	     0.123
117		116	   450.938	    13.926	     3.887	     0.087
118		117	   451.203	     0.264	     3.856	    -0.031
119		118	   451.241	     0.038	     3.824	    -0.032
120		119	   456.949	     5.707	     3.840	     0.016
121		120	   474.956	    18.007	     3.958	     0.118
122		121	   483.280	     8.324	     3.994	     0.036
123		122	   501.588	    18.309	     4.111	     0.117
124		123	   497.517	    -4.071	     4.045	    -0.067
125		124	   506.557	     9.040	     4.085	     0.040
126		125	   520.477	    13.920	     4.164	     0.079
127		126	   527.716	     7.239	     4.188	     0.024
128		127	   528.536	     0.820	     4.162	    -0.027
129		128	   553.716	    25.179	     4.326	     0.164
130		129	   555.862	     2.146	     4.309	    -0.017
131		130	   564.193	     8.331	     4.340	     0.031
132		131	   569.327	     5.134	     4.346	     0.006
133		132	   580.158	    10.830	     4.395	     0.049
134		133	   588.052	     7.894	     4.421	     0.026
135		134	   587.988	    -0.064	     4.388	    -0.033
136		135	   607.266	    19.279	     4.498	     0.110
137		136	   618.399	    11.133	     4.547	     0.049
138		137	   637.812	    19.413	     4.656	     0.109
139		138	   635.134	    -2.678	     4.602	    -0.053
140		139	   647.155	    12.020	     4.656	     0.053
141		140	   658.337	    11.183	     4.702	     0.047
142		141	   663.641	     5.304	     4.707	     0.004
143		142	   674.500	    10.859	     4.750	     0.043
144		143	   693.224	    18.724	     4.848	     0.098
145		144	   691.320	    -1.904	     4.801	    -0.047
146		145	   711.040	    19.720	     4.904	     0.103
147		146	   712.962	     1.923	     4.883	    -0.020
148		147	   731.564	    18.601	     4.977	     0.093
149		148	   740.890	     9.326	     5.006	     0.029
150		149	   752.500	    11.610	     5.050	     0.044
151		150	   764.822	    12.322	     5.099	     0.048
152		151	   771.204	     6.382	     5.107	     0.008
153		152	   787.562	    16.358	     5.181	     0.074
154		153	   802.130	    14.568	     5.243	     0.061
155		154	   823.969	    21.839	     5.350	     0.108
156		155	   823.182	    -0.787	     5.311	    -0.040
157		156	   833.940	    10.758	     5.346	     0.035
158		157	   845.722	    11.782	     5.387	     0.041
159		158	   855.316	     9.594	     5.413	     0.027
160		159	   865.907	    10.591	     5.446	     0.033
161		160	   876.111	    10.205	     5.476	     0.030
162		161	   886.331	    10.220	     5.505	     0.029
163		162	   921.899	    35.568	     5.691	     0.186
164		163	   917.523	    -4.376	     5.629	    -0.062
165		164	   922.069	     4.546	     5.622	    -0.007
166		165	   928.471	     6.402	     5.627	     0.005
167		166	   943.230	    14.760	     5.682	     0.055
168		167	   966.716	    23.486	     5.789	     0.107
169		168	   967.877	     1.161	     5.761	    -0.028
170		169	   990.253	    22.377	     5.859	     0.098
171		170	   999.755	     9.502	     5.881	     0.021
172		171	  1002.156	     2.401	     5.861	    -0.020
173		172	  1022.329	    20.173	     5.944	     0.083
174		173	  1030.922	     8.593	     5.959	     0.015
175		174	  1036.806	     5.883	     5.959	    -0.000
176		175	  1057.174	    20.369	     6.041	     0.082
177		176	  1067.135	     9.961	     6.063	     0.022
178		177	  1085.817	    18.682	     6.135	     0.071
179		178	  1094.868	     9.051	     6.151	     0.016
180		179	  1109.878	    15.010	     6.200	     0.049
181		180	  1111.411	     1.533	     6.175	    -0.026
182		181	  1130.041	    18.630	     6.243	     0.069
183		182	  1148.147	    18.106	     6.308	     0.065
184		183	  1158.921	    10.774	     6.333	     0.024
185		184	  1162.109	     3.188	     6.316	    -0.017
186		185	  1190.118	    28.010	     6.433	     0.117
187		186	  1196.359	     6.241	     6.432	    -0.001
188		187	  1208.038	    11.679	     6.460	     0.028
189		188	  1219.487	    11.449	     6.487	     0.027
190		189	  1236.328	    16.841	     6.541	     0.055
191		190	  1245.900	     9.572	     6.557	     0.016
192		191	  1257.847	    11.947	     6.586	     0.028
193		192	  1271.415	    13.568	     6.622	     0.036
194		193	  1297.145	    25.730	     6.721	     0.099
195		194	  1300.598	     3.453	     6.704	    -0.017
196		195	  1321.157	    20.559	     6.775	     0.071
197		196	  1325.540	     4.382	     6.763	    -0.012
198		197	  1342.200	    16.660	     6.813	     0.050
199		198	  1366.090	    23.890	     6.899	     0.086
200		199	  1377.773	    11.683	     6.923	     0.024
201		200	  1391.196	    13.423	     6.956	     0.032
202		201	  1406.584	    15.388	     6.998	     0.042
203		202	  1424.196	    17.612	     7.050	     0.053
204		203	  1434.098	     9.903	     7.065	     0.014
205		204	  1447.614	    13.515	     7.096	     0.032
206		205	  1466.035	    18.421	     7.151	     0.055
207		206	  1477.706	    11.671	     7.173	     0.022
208		207	  1487.435	     9.729	     7.186	     0.012
209		208	  1506.939	    19.504	     7.245	     0.059
210		209	  1530.867	    23.928	     7.325	     0.080
211		210	  1555.388	    24.521	     7.407	     0.082
212		211	  1531.298	   -24.090	     7.257	    -0.149
213		212	  1544.135	    12.837	     7.284	     0.026
214		213	  1558.280	    14.145	     7.316	     0.032
215		214	  1578.048	    19.768	     7.374	     0.058
216		215	  1596.793	    18.746	     7.427	     0.053
217		216	  1626.255	    29.462	     7.529	     0.102
218		217	  1667.150	    40.895	     7.683	     0.154
219		218	  1693.130	    25.980	     7.767	     0.084
220		219	  1711.870	    18.741	     7.817	     0.050
221		220	  1722.547	    10.676	     7.830	     0.013
222		221	  1738.504	    15.957	     7.867	     0.037
223		222	  1764.021	    25.517	     7.946	     0.080
224		223	  1759.426	    -4.595	     7.890	    -0.056
225		224	  1803.438	    44.012	     8.051	     0.161
226		225	  1812.234	     8.796	     8.054	     0.003
227		226	  1828.100	    15.866	     8.089	     0.035
228		227	  1827.923	    -0.178	     8.053	    -0.036
229		228	  1865.614	    37.692	     8.183	     0.130
230		229	  1871.428	     5.814	     8.172	    -0.010
231		230	  1897.171	    25.742	     8.249	     0.076
232		231	  1909.664	    12.493	     8.267	     0.018
233		232	  1910.608	     0.945	     8.235	    -0.032
234		233	  1934.873	    24.265	     8.304	     0.069
235		234	  1970.652	    35.779	     8.422	     0.117
236		235	  1980.402	     9.751	     8.427	     0.006
237		236	  1995.172	    14.769	     8.454	     0.027
238		237	  2005.733	    10.561	     8.463	     0.009
239		238	  2015.822	    10.090	     8.470	     0.007
240		239	  2057.387	    41.564	     8.608	     0.138
241		240	  2063.826	     6.439	     8.599	    -0.009
242		241	  2079.127	    15.301	     8.627	     0.028
243		242	  2096.827	    17.700	     8.665	     0.037
244		243	  2118.217	    21.390	     8.717	     0.052
245		244	  2143.807	    25.590	     8.786	     0.069
246		245	  2142.796	    -1.011	     8.746	    -0.040
247		246	  2167.155	    24.359	     8.810	     0.063
248		247	  2189.437	    22.282	     8.864	     0.055
249		248	  2212.254	    22.818	     8.920	     0.056
250		249	  2208.263	    -3.991	     8.869	    -0.052
251		250	  2230.484	    22.221	     8.922	     0.053
252		251	  2265.151	    34.667	     9.025	     0.103
253		252	  2278.708	    13.557	     9.042	     0.018
254		253	  2300.714	    22.007	     9.094	     0.051
255		254	  2349.962	    49.248	     9.252	     0.158
256		255	  2365.075	    15.112	     9.275	     0.023
257		256	  2388.751	    23.676	     9.331	     0.056
258		257	  2415.486	    26.735	     9.399	     0.068
259		258	  2432.290	    16.804	     9.427	     0.029
260		259	  2451.783	    19.493	     9.466	     0.039
261		260	  2459.194	     7.411	     9.458	    -0.008
262		261	  2476.435	    17.241	     9.488	     0.030
263		262	  2514.512	    38.077	     9.597	     0.109
264		263	  2542.288	    27.775	     9.666	     0.069
265		264	  2550.943	     8.656	     9.663	    -0.004
266		265	  2554.803	     3.860	     9.641	    -0.022
267		266	  2576.832	    22.028	     9.687	     0.047
268		267	  2641.734	    64.902	     9.894	     0.207
269		268	  2621.752	   -19.982	     9.783	    -0.111
270		269	  2639.247	    17.495	     9.811	     0.029
271		270	  2659.655	    20.407	     9.851	     0.039
272		271	  2690.336	    30.681	     9.927	     0.077
273		272	  2887.357	   197.021	    10.615	     0.688
274		273	  2771.490	  -115.867	    10.152	    -0.463
275		274	  2700.157	   -71.333	     9.855	    -0.297
276		275	  2693.230	    -6.928	     9.794	    -0.061
277		276	  2736.898	    43.668	     9.916	     0.123
278		277	  2756.955	    20.058	     9.953	     0.037
279		278	  2760.113	     3.158	     9.928	    -0.024
280		279	  2793.778	    33.665	    10.014	     0.085
281		280	  2820.563	    26.784	    10.073	     0.060
282		281	  2845.442	    24.879	    10.126	     0.053
283		282	  2874.032	    28.590	    10.192	     0.065
284		283	  2883.176	     9.144	    10.188	    -0.004
285		284	  2896.149	    12.973	    10.198	     0.010
286		285	  2934.204	    38.056	    10.295	     0.098
287		286	  2936.802	     2.598	    10.269	    -0.027
288		287	  2968.469	    31.667	    10.343	     0.075
289		288	  3020.816	    52.346	    10.489	     0.146
290		289	  3006.298	   -14.518	    10.402	    -0.087
291		290	  3019.706	    13.408	    10.413	     0.010
292		291	  3052.519	    32.813	    10.490	     0.077
293		292	  3073.330	    20.812	    10.525	     0.035
294		293	  3094.535	    21.204	    10.562	     0.036
295		294	  3122.781	    28.246	    10.622	     0.060
296		295	  3128.222	     5.441	    10.604	    -0.018
297		296	  3166.009	    37.787	    10.696	     0.092
298		297	  3184.293	    18.284	    10.722	     0.026
299		298	  3190.513	     6.221	    10.706	    -0.015
300		299	  3216.458	    25.945	    10.757	     0.051
301		300	  3243.877	    27.419	    10.813	     0.056
302		301	  3286.522	    42.645	    10.919	     0.106
303		302	  3315.082	    28.560	    10.977	     0.058
304		303	  3324.752	     9.670	    10.973	    -0.004
305		304	  3357.148	    32.396	    11.043	     0.070
306		305	  3380.425	    23.277	    11.083	     0.040
307		306	  3425.993	    45.568	    11.196	     0.113
308		307	  3414.599	   -11.394	    11.122	    -0.074
309		308	  3448.022	    33.423	    11.195	     0.072
310		309	  3473.990	    25.968	    11.243	     0.048
311		310	  3498.230	    24.239	    11.285	     0.042
312		311	  3518.411	    20.181	    11.313	     0.029
313		312	  3537.519	    19.108	    11.338	     0.025
314		313	  3565.119	    27.600	    11.390	     0.052
315		314	  3585.855	    20.736	    11.420	     0.030
316		315	  3602.625	    16.770	    11.437	     0.017
317		316	  3629.246	    26.621	    11.485	     0.048
318		317	  3656.071	    26.825	    11.533	     0.048
319		318	  3675.419	    19.348	    11.558	     0.025
320		319	  3716.094	    40.675	    11.649	     0.091
321		320	  3730.638	    14.544	    11.658	     0.009
322		321	  3747.936	    17.298	    11.676	     0.018
323		322	  3802.769	    54.832	    11.810	     0.134
324		323	  3806.849	     4.080	    11.786	    -0.024
325		324	  3819.133	    12.284	    11.787	     0.002
326		325	  3853.569	    34.436	    11.857	     0.070
327		326	  3872.186	    18.617	    11.878	     0.021
328		327	  3902.549	    30.363	    11.934	     0.057
329		328	  3912.535	     9.987	    11.928	    -0.006
330		329	  3946.105	    33.569	    11.994	     0.066
331		330	  3982.483	    36.379	    12.068	     0.074
332		331	  3994.807	    12.323	    12.069	     0.001
333		332	  4015.244	    20.437	    12.094	     0.025
334		333	  4049.379	    34.136	    12.160	     0.066
335		334	  4072.092	    22.713	    12.192	     0.032
336		335	  4088.310	    16.218	    12.204	     0.012
337		336	  4115.237	    26.927	    12.248	     0.044
338		337	  4184.752	    69.515	    12.418	     0.170
339		338	  4357.007	   172.255	    12.891	     0.473
340		339	  4391.744	    34.737	    12.955	     0.064
341		340	  4432.856	    41.112	    13.038	     0.083
342		341	  4457.893	    25.037	    13.073	     0.035
343		342	  4457.306	    -0.587	    13.033	    -0.040
344		343	  4529.303	    71.997	    13.205	     0.172
345		344	  4571.659	    42.356	    13.290	     0.085
346		345	  4594.645	    22.986	    13.318	     0.028
347		346	  4624.299	    29.654	    13.365	     0.047
348		347	  4636.789	    12.490	    13.363	    -0.003
349		348	  4673.574	    36.785	    13.430	     0.067
350		349	  4670.200	    -3.374	    13.382	    -0.048
351		350	  4742.702	    72.502	    13.551	     0.169
352		351	  4750.775	     8.073	    13.535	    -0.016
353		352	  4767.735	    16.960	    13.545	     0.010
354		353	  4812.741	    45.006	    13.634	     0.089
355		354	  4812.214	    -0.527	    13.594	    -0.040
356		355	  4866.051	    53.838	    13.707	     0.113
357		356	  4896.610	    30.559	    13.755	     0.047
358		357	  4902.005	     5.395	    13.731	    -0.023
359		358	  4939.622	    37.617	    13.798	     0.067
360		359	  4958.866	    19.244	    13.813	     0.015
361		360	  4988.179	    29.314	    13.856	     0.043
362		361	  5016.369	    28.190	    13.896	     0.040
363		362	  5061.270	    44.901	    13.981	     0.086
364		363	  5082.960	    21.690	    14.003	     0.021
365		364	  5105.734	    22.774	    14.027	     0.024
366		365	  5147.527	    41.793	    14.103	     0.076
367		366	  5188.712	    41.185	    14.177	     0.074
368		367	  5179.986	    -8.725	    14.114	    -0.062
369		368	  5252.949	    72.963	    14.274	     0.160
370		369	  5232.692	   -20.257	    14.181	    -0.094
371		370	  5292.932	    60.240	    14.305	     0.124
372		371	  5325.559	    32.627	    14.355	     0.049
373		372	  5339.119	    13.560	    14.352	    -0.002
374		373	  5371.090	    31.971	    14.400	     0.047
375		374	  5385.517	    14.427	    14.400	     0.000
376		375	  5441.582	    56.065	    14.511	     0.111
377		376	  5464.031	    22.449	    14.532	     0.021
378		377	  5479.364	    15.333	    14.534	     0.002
379		378	  5536.618	    57.254	    14.647	     0.113
380		379	  5521.660	   -14.957	    14.569	    -0.078
381		380	  5583.824	    62.163	    14.694	     0.125
382		381	  5616.676	    32.852	    14.742	     0.048
383		382	  5615.960	    -0.716	    14.701	    -0.040
384		383	  5655.369	    39.409	    14.766	     0.065
385		384	  5704.673	    49.304	    14.856	     0.090
386		385	  5733.581	    28.908	    14.892	     0.036
387		386	  5764.517	    30.936	    14.934	     0.042
388		387	  5760.317	    -4.200	    14.885	    -0.049
389		388	  5824.181	    63.864	    15.011	     0.126
390		389	  5831.919	     7.738	    14.992	    -0.019
391		390	  5901.486	    69.567	    15.132	     0.140
392		391	  5903.369	     1.884	    15.098	    -0.034
393		392	  5942.931	    39.562	    15.161	     0.062
394		393	  5980.320	    37.388	    15.217	     0.057
395		394	  6000.357	    20.038	    15.229	     0.012
396		395	  6050.105	    49.747	    15.317	     0.087
397		396	  6055.919	     5.814	    15.293	    -0.024
398		397	  6099.251	    43.332	    15.363	     0.071
399		398	  6145.234	    45.983	    15.440	     0.077
400		399	  6180.579	    35.345	    15.490	     0.050
401		400	  6223.058	    42.479	    15.558	     0.067
402		401	  6240.244	    17.186	    15.562	     0.004
403		402	  6300.713	    60.469	    15.673	     0.112
404		403	  6325.538	    24.825	    15.696	     0.023
405		404	  6350.814	    25.276	    15.720	     0.024
406		405	  6399.710	    48.896	    15.802	     0.082
407		406	  6411.968	    12.259	    15.793	    -0.009
408		407	  6491.501	    79.533	    15.950	     0.157
409		408	  6527.425	    35.924	    15.999	     0.049
410		409	  6546.560	    19.135	    16.006	     0.008
411		410	  6584.442	    37.883	    16.060	     0.053
412		411	  6618.846	    34.404	    16.104	     0.045
413		412	  6347.406	  -271.440	    15.406	    -0.698
414		413	  6378.323	    30.916	    15.444	     0.038
415		414	  6384.443	     6.120	    15.421	    -0.023
416		415	  6440.673	    56.231	    15.520	     0.098
417		416	  6453.685	    13.012	    15.514	    -0.006
418		417	  6490.116	    36.432	    15.564	     0.050
419		418	  6518.189	    28.073	    15.594	     0.030
420		419	  6555.050	    36.861	    15.645	     0.051
421		420	  6572.141	    17.091	    15.648	     0.003
422		421	  6610.276	    38.134	    15.701	     0.053
423		422	  6661.053	    50.778	    15.784	     0.083
424		423	  6660.181	    -0.872	    15.745	    -0.039
425		424	  6719.720	    59.539	    15.848	     0.103
426		425	  6739.782	    20.062	    15.858	     0.010
427		426	  6772.727	    32.945	    15.898	     0.040
428		427	  6802.308	    29.581	    15.930	     0.032
429		428	  6848.183	    45.875	    16.000	     0.070
430		429	  6863.988	    15.805	    16.000	    -0.000
431		430	  6913.238	    49.251	    16.077	     0.077
432		431	  6952.357	    39.119	    16.131	     0.053
433		432	  6986.555	    34.198	    16.173	     0.042
434		433	  7002.817	    16.262	    16.173	     0.000
435		434	  7047.356	    44.539	    16.238	     0.065
436		435	  7073.741	    26.385	    16.261	     0.023
437		436	  7106.740	    32.999	    16.300	     0.038
438		437	  7152.673	    45.933	    16.368	     0.068
439		438	  7178.245	    25.571	    16.389	     0.021
440		439	  7239.516	    61.271	    16.491	     0.102
441		440	  7256.168	    16.652	    16.491	     0.000
442		441	  7258.516	     2.348	    16.459	    -0.032
443		442	  7312.210	    53.694	    16.543	     0.084
444		443	  7365.147	    52.937	    16.626	     0.082
445		444	  7379.931	    14.784	    16.621	    -0.004
446		445	  7399.712	    19.782	    16.629	     0.007
447		446	  7443.965	    44.252	    16.691	     0.062
448		447	  7523.128	    79.163	    16.830	     0.140
449		448	  7522.182	    -0.946	    16.791	    -0.040
450		449	  7541.596	    19.414	    16.796	     0.006
451		450	  7595.347	    53.751	    16.879	     0.082
452		451	  7607.316	    11.969	    16.868	    -0.011
453		452	  7648.267	    40.951	    16.921	     0.053
454		453	  7686.545	    38.279	    16.968	     0.047
455		454	  7731.200	    44.655	    17.029	     0.061
456		455	  7792.973	    61.773	    17.127	     0.098
457		456	  7800.273	     7.300	    17.106	    -0.022
458		457	  7822.256	    21.984	    17.117	     0.011
459		458	  7870.064	    47.808	    17.184	     0.067
460		459	  7917.206	    47.142	    17.249	     0.065
461		460	  7930.331	    13.125	    17.240	    -0.009
462		461	  7952.944	    22.613	    17.252	     0.012
463		462	  8053.794	   100.850	    17.432	     0.181
464		463	  8030.680	   -23.114	    17.345	    -0.088
465		464	  8072.671	    41.991	    17.398	     0.053
466		465	  8095.988	    23.317	    17.411	     0.013
467		466	  8163.539	    67.551	    17.518	     0.108
468		467	  8176.229	    12.690	    17.508	    -0.010
469		468	  8225.083	    48.854	    17.575	     0.067
470		469	  8275.154	    50.071	    17.644	     0.069
471		470	  8332.931	    57.776	    17.730	     0.085
472		471	  8387.913	    54.982	    17.809	     0.079
473		472	  8417.588	    29.675	    17.834	     0.025
474		473	  8446.698	    29.110	    17.858	     0.024
475		474	  8462.621	    15.923	    17.854	    -0.004
476		475	  8517.212	    54.590	    17.931	     0.077
477		476	  8591.662	    74.450	    18.050	     0.119
478		477	  8593.818	     2.157	    18.016	    -0.033
479		478	  8644.143	    50.325	    18.084	     0.068
480		479	  8673.428	    29.285	    18.107	     0.023
481		480	  8699.752	    26.324	    18.124	     0.017
482		481	  8735.248	    35.495	    18.161	     0.036
483		482	  8756.052	    20.804	    18.166	     0.005
484		483	  8860.690	   104.638	    18.345	     0.179
485		484	  8866.035	     5.345	    18.318	    -0.027
486		485	  8890.372	    24.337	    18.331	     0.012
487		486	  8908.493	    18.121	    18.330	    -0.000
488		487	  8951.650	    43.157	    18.381	     0.051
489		488	  8996.582	    44.932	    18.436	     0.054
490		489	  9014.265	    17.683	    18.434	    -0.002
491		490	  9133.229	   118.964	    18.639	     0.205
492		491	  9129.464	    -3.765	    18.594	    -0.046
493		492	  9157.183	    27.718	    18.612	     0.019
494		493	  9191.322	    34.139	    18.644	     0.031
495		494	  9226.092	    34.770	    18.676	     0.033
496		495	  9258.725	    32.633	    18.704	     0.028
497		496	  9346.788	    88.063	    18.844	     0.140
498		497	  9344.644	    -2.144	    18.802	    -0.042
499		498	  9377.791	    33.147	    18.831	     0.029
500		499	  9433.671	    55.880	    18.905	     0.074
501		500	  9466.313	    32.642	    18.933	     0.027
502		501	  9490.431	    24.118	    18.943	     0.010
503		502	  9526.373	    35.943	    18.977	     0.034
504		503	  9618.113	    91.740	    19.121	     0.145
505		504	  9616.906	    -1.207	    19.081	    -0.040
506		505	  9670.669	    53.763	    19.150	     0.069
507		506	  9684.859	    14.189	    19.140	    -0.010
508		507	  9725.484	    40.626	    19.182	     0.042
509		508	  9778.890	    53.406	    19.250	     0.067
510		509	  9860.835	    81.945	    19.373	     0.123
511		510	 10183.606	   322.771	    19.968	     0.595
512		511	 10246.116	    62.510	    20.051	     0.083
513		512	 10278.779	    32.664	    20.076	     0.025
514		513	 10304.401	    25.622	    20.087	     0.011
515		514	 10378.032	    73.631	    20.191	     0.104
516		515	 10433.676	    55.645	    20.260	     0.069
517		516	 10437.571	     3.894	    20.228	    -0.032
518		517	 10506.461	    68.890	    20.322	     0.094
519		518	 10539.419	    32.958	    20.346	     0.024
520		519	 10559.497	    20.078	    20.346	    -0.001
521		520	 10640.876	    81.379	    20.463	     0.117
522		521	 10661.450	    20.574	    20.463	     0.000
523		522	 10676.631	    15.181	    20.453	    -0.010
524		523	 10760.630	    83.999	    20.575	     0.122
525		524	 10784.829	    24.199	    20.582	     0.007
526		525	 10809.474	    24.646	    20.589	     0.008
527		526	 10905.441	    95.966	    20.733	     0.143
528		527	 10941.930	    36.489	    20.763	     0.030
529		528	 10952.084	    10.154	    20.743	    -0.020
530		529	 11016.020	    63.937	    20.824	     0.082
531		530	 11036.623	    20.602	    20.824	    -0.000
532		531	 11102.210	    65.587	    20.908	     0.084
533		532	 11155.578	    53.368	    20.969	     0.061
534		533	 11155.428	    -0.149	    20.930	    -0.040
535		534	 11300.190	   144.762	    21.161	     0.232
536		535	 11325.445	    25.255	    21.169	     0.008
537		536	 11440.988	   115.543	    21.345	     0.176
538		537	 11432.699	    -8.289	    21.290	    -0.055
539		538	 11505.590	    72.892	    21.386	     0.096
540		539	 11521.101	    15.511	    21.375	    -0.011
541		540	 11550.068	    28.967	    21.389	     0.014
542		541	 11662.081	   112.013	    21.557	     0.168
543		542	 11754.350	    92.269	    21.687	     0.130
544		543	 11688.628	   -65.722	    21.526	    -0.161
545		544	 11755.479	    66.850	    21.609	     0.083
546		545	 11782.643	    27.165	    21.620	     0.010
547		546	 11887.385	   104.741	    21.772	     0.152
548		547	 11897.703	    10.318	    21.751	    -0.021
549		548	 11920.271	    22.568	    21.752	     0.001
550		549	 11995.657	    75.387	    21.850	     0.098
551		550	 12018.787	    23.130	    21.852	     0.002
552		551	 12077.580	    58.793	    21.919	     0.067
553		552	 12111.818	    34.238	    21.942	     0.022
554		553	 12127.705	    15.887	    21.931	    -0.011
555		554	 12191.462	    63.757	    22.006	     0.075
556		555	 12249.487	    58.025	    22.071	     0.065
557		556	 12321.829	    72.343	    22.162	     0.090
558		557	 12341.422	    19.593	    22.157	    -0.005
559		558	 12389.397	    47.975	    22.203	     0.046
560		559	 12449.032	    59.634	    22.270	     0.067
561		560	 12494.342	    45.310	    22.311	     0.041
562		561	 12563.834	    69.492	    22.395	     0.084
563		562	 12609.251	    45.418	    22.436	     0.041
564		563	 12637.357	    28.106	    22.446	     0.010
565		564	 12687.722	    50.364	    22.496	     0.050
566		565	 12746.078	    58.357	    22.559	     0.063
567		566	 12854.672	   108.593	    22.711	     0.152
568		567	 12797.765	   -56.907	    22.571	    -0.140
569		568	 12879.610	    81.846	    22.675	     0.104
570		569	 12896.776	    17.166	    22.666	    -0.010
571		570	 12997.560	   100.784	    22.803	     0.137
572		571	 13034.571	    37.011	    22.828	     0.025
573		572	 13035.459	     0.888	    22.789	    -0.038
574		573	 13124.702	    89.243	    22.905	     0.116
575		574	 13172.869	    48.167	    22.949	     0.044
576		575	 13256.005	    83.136	    23.054	     0.105
577		576	 13335.778	    79.773	    23.152	     0.098
578		577	 13374.408	    38.630	    23.179	     0.027
579		578	 13397.355	    22.947	    23.179	    -0.000
580		579	 13524.420	   127.065	    23.358	     0.179
581		580	 13545.746	    21.326	    23.355	    -0.004
582		581	 13532.265	   -13.481	    23.291	    -0.063
583		582	 13595.263	    62.999	    23.360	     0.068
584		583	 13673.949	    78.685	    23.454	     0.095
585		584	 13740.849	    66.901	    23.529	     0.074
586		585	 13781.052	    40.202	    23.557	     0.029
587		586	 13826.145	    45.093	    23.594	     0.037
588		587	 13841.268	    15.123	    23.580	    -0.014
589		588	 13923.828	    82.560	    23.680	     0.100
590		589	 13937.185	    13.357	    23.662	    -0.018
591		590	 13969.772	    32.587	    23.678	     0.015
592		591	 14028.776	    59.004	    23.737	     0.060
593		592	 14149.541	   120.764	    23.901	     0.164
594		593	 14130.720	   -18.821	    23.829	    -0.072
595		594	 14195.982	    65.262	    23.899	     0.070
596		595	 14243.814	    47.832	    23.939	     0.040
597		596	 14355.417	   111.604	    24.086	     0.147
598		597	 14359.747	     4.329	    24.053	    -0.033
599		598	 14412.801	    53.054	    24.102	     0.048
600		599	 14483.159	    70.359	    24.179	     0.077
601		600	 14538.085	    54.926	    24.230	     0.051
602		601	 14654.301	   116.216	    24.383	     0.153
603		602	 14591.074	   -63.226	    24.238	    -0.146
604		603	 14710.696	   119.622	    24.396	     0.158
605		604	 14745.927	    35.230	    24.414	     0.018
606		605	 14806.464	    60.538	    24.473	     0.060
607		606	 14801.303	    -5.161	    24.425	    -0.049
608		607	 14892.828	    91.525	    24.535	     0.111
609		608	 14906.924	    14.097	    24.518	    -0.017
610		609	 15044.501	   137.576	    24.704	     0.186
611		610	 15028.743	   -15.758	    24.637	    -0.066
612		611	 15065.306	    36.563	    24.657	     0.020
613		612	 15172.332	   107.026	    24.791	     0.135
614		613	 15176.404	     4.073	    24.758	    -0.034
615		614	 15242.953	    66.549	    24.826	     0.068
616		615	 15275.142	    32.189	    24.838	     0.012
617		616	 15405.590	   130.448	    25.009	     0.171
618		617	 15401.499	    -4.091	    24.962	    -0.047
619		618	 15427.447	    25.947	    24.964	     0.002
620		619	 15519.917	    92.471	    25.073	     0.109
621		620	 15595.666	    75.749	    25.154	     0.082
622		621	 15639.080	    43.414	    25.184	     0.029
623		622	 15688.884	    49.805	    25.223	     0.040
624		623	 15693.524	     4.640	    25.190	    -0.033
625		624	 15786.526	    93.001	    25.299	     0.109
626		625	 15797.921	    11.395	    25.277	    -0.022
627		626	 15843.332	    45.411	    25.309	     0.032
628		627	 15877.867	    34.534	    25.324	     0.015
629		628	 16008.658	   130.792	    25.491	     0.168
630		629	 16000.391	    -8.268	    25.438	    -0.054
631		630	 16050.372	    49.981	    25.477	     0.039
632		631	 16169.764	   119.392	    25.626	     0.149
633		632	 16147.412	   -22.352	    25.550	    -0.076
634		633	 16239.131	    91.719	    25.654	     0.105
635		634	 16272.758	    33.627	    25.667	     0.013
636		635	 16346.483	    73.725	    25.742	     0.076
637		636	 16380.536	    34.054	    25.756	     0.013
638		637	 16434.292	    53.756	    25.800	     0.044
639		638	 16499.098	    64.805	    25.861	     0.061
640		639	 16612.219	   113.121	    25.997	     0.137
641		640	 16584.768	   -27.451	    25.914	    -0.084
642		641	 16620.391	    35.623	    25.929	     0.015
643		642	 16751.026	   130.635	    26.092	     0.163
644		643	 16821.024	    69.998	    26.160	     0.068
645		644	 16839.033	    18.008	    26.148	    -0.013
646		645	 16875.383	    36.350	    26.163	     0.016
647		646	 16976.093	   100.710	    26.279	     0.115
648		647	 16965.735	   -10.358	    26.222	    -0.057
649		648	 17026.258	    60.523	    26.275	     0.053
650		649	 17130.382	   104.125	    26.395	     0.120
651		650	 17172.009	    41.627	    26.418	     0.023
652		651	 17192.067	    20.058	    26.409	    -0.010
653		652	 17290.817	    98.749	    26.520	     0.111
654		653	 17368.975	    78.158	    26.599	     0.079
655		654	 17393.280	    24.306	    26.595	    -0.004
656		655	 17415.165	    21.885	    26.588	    -0.007
657		656	 17517.006	   101.841	    26.703	     0.115
658		657	 17587.830	    70.824	    26.770	     0.067
659		658	 17589.111	     1.281	    26.731	    -0.039
660		659	 17724.688	   135.576	    26.896	     0.165
661		660	 17753.256	    28.568	    26.899	     0.003
662		661	 17771.987	    18.732	    26.887	    -0.012
663		662	 17858.035	    86.048	    26.976	     0.089
664		663	 17973.735	   115.700	    27.110	     0.134
665		664	 17991.116	    17.382	    27.095	    -0.015
666		665	 18047.397	    56.281	    27.139	     0.044
667		666	 18128.173	    80.776	    27.219	     0.081
668		667	 18144.443	    16.269	    27.203	    -0.016
669		668	 18211.748	    67.306	    27.263	     0.060
670		669	 18337.879	   126.131	    27.411	     0.148
671		670	 18348.809	    10.931	    27.386	    -0.025
672		671	 18397.760	    48.950	    27.418	     0.032
673		672	 18463.787	    66.027	    27.476	     0.057
674		673	 18567.810	   104.023	    27.590	     0.114
675		674	 18556.539	   -11.271	    27.532	    -0.058
676		675	 18593.334	    36.794	    27.546	     0.014
677		676	 18751.780	   158.446	    27.739	     0.194
678		677	 18751.508	    -0.271	    27.698	    -0.041
679		678	 18784.222	    32.713	    27.705	     0.007
680		679	 18919.419	   135.197	    27.864	     0.158
681		680	 18958.646	    39.227	    27.880	     0.017
682		681	 18941.532	   -17.114	    27.814	    -0.066
683		682	 19055.243	   113.711	    27.940	     0.126
684		683	 19139.597	    84.354	    28.023	     0.083
685		684	 19137.722	    -1.875	    27.979	    -0.044
686		685	 19262.193	   124.471	    28.120	     0.141
687		686	 19261.863	    -0.330	    28.079	    -0.041
688		687	 19373.416	   111.553	    28.200	     0.122
689		688	 19455.519	    82.103	    28.278	     0.078
690		689	 19450.059	    -5.460	    28.229	    -0.049
691		690	 19505.422	    55.362	    28.269	     0.039
692		691	 19617.258	   111.836	    28.390	     0.121
693		692	 19644.490	    27.232	    28.388	    -0.002
694		693	 19682.290	    37.800	    28.402	     0.014
695		694	 19766.410	    84.120	    28.482	     0.080
696		695	 19828.299	    61.889	    28.530	     0.048
697		696	 19871.793	    43.494	    28.551	     0.022
698		697	 19961.853	    90.060	    28.640	     0.088
699		698	 20030.725	    68.872	    28.697	     0.058
700		699	 20087.319	    56.594	    28.737	     0.040
701		700	 20169.805	    82.486	    28.814	     0.077
702		701	 20225.677	    55.872	    28.853	     0.039
703		702	 20251.695	    26.018	    28.849	    -0.004
704		703	 20410.918	   159.224	    29.034	     0.185
705		704	 20429.085	    18.166	    29.019	    -0.015
706		705	 20427.041	    -2.044	    28.975	    -0.044
707		706	 20539.978	   112.937	    29.093	     0.119
708		707	 20561.409	    21.431	    29.083	    -0.011
709		708	 20575.516	    14.107	    29.061	    -0.021
710		709	 20703.247	   127.731	    29.201	     0.139
711		710	 20756.205	    52.958	    29.234	     0.033
712		711	 20790.929	    34.724	    29.242	     0.008
713		712	 20927.988	   137.059	    29.393	     0.151
714		713	 20954.756	    26.768	    29.390	    -0.004
715		714	 20961.983	     7.228	    29.359	    -0.031
716		715	 21130.875	   168.891	    29.554	     0.195
717		716	 21132.932	     2.057	    29.515	    -0.038
718		717	 21141.726	     8.795	    29.486	    -0.029
719		718	 21290.905	   149.179	    29.653	     0.167
720		719	 21313.015	    22.110	    29.643	    -0.010
721		720	 21401.043	    88.028	    29.724	     0.081
722		721	 21421.107	    20.064	    29.710	    -0.013
723		722	 21539.225	   118.118	    29.833	     0.122
724		723	 21571.067	    31.842	    29.836	     0.003
725		724	 21606.047	    34.981	    29.843	     0.007
726		725	 21738.128	   132.081	    29.984	     0.141
727		726	 21856.807	   118.679	    30.106	     0.122
728		727	 21889.978	    33.170	    30.110	     0.004
729		728	 21907.255	    17.277	    30.092	    -0.018
730		729	 22031.113	   123.857	    30.221	     0.129
731		730	 22134.336	   103.224	    30.321	     0.100
732		731	 22122.308	   -12.029	    30.263	    -0.058
733		732	 22235.425	   113.118	    30.376	     0.113
734		733	 22245.888	    10.462	    30.349	    -0.027
735		734	 22383.204	   137.316	    30.495	     0.146
736		735	 22423.144	    39.940	    30.508	     0.013
737		736	 22456.559	    33.415	    30.512	     0.004
738		737	 22634.329	   177.770	    30.711	     0.200
739		738	 22638.826	     4.497	    30.676	    -0.036
740		739	 22679.487	    40.661	    30.689	     0.014
741		740	 22713.122	    33.635	    30.693	     0.004
742		741	 22769.344	    56.222	    30.728	     0.034
743		742	 22908.785	   139.441	    30.874	     0.147
744		743	 22888.174	   -20.611	    30.805	    -0.069
745		744	 23039.702	   151.528	    30.967	     0.162
746		745	 23049.545	     9.843	    30.939	    -0.028
747		746	 23070.615	    21.070	    30.926	    -0.013
748		747	 23244.669	   174.054	    31.117	     0.192
749		748	 23215.546	   -29.123	    31.037	    -0.081
750		749	 23303.867	    88.321	    31.113	     0.076
751		750	 23450.159	   146.292	    31.267	     0.154
752		751	 23501.413	    51.254	    31.293	     0.027
753		752	 23597.942	    96.529	    31.380	     0.087
754		753	 23607.028	     9.086	    31.351	    -0.030
755		754	 23724.193	   117.165	    31.464	     0.114
756		755	 23855.883	   131.690	    31.597	     0.133
757		756	 23798.069	   -57.814	    31.479	    -0.118
758		757	 23966.740	   168.671	    31.660	     0.181
759		758	 23991.519	    24.779	    31.651	    -0.009
760		759	 24013.364	    21.845	    31.638	    -0.013
761		760	 24155.746	   142.382	    31.784	     0.146
762		761	 24157.126	     1.380	    31.744	    -0.040
763		762	 24301.956	   144.830	    31.892	     0.148
764		763	 24344.881	    42.924	    31.907	     0.014
765		764	 24437.945	    93.064	    31.987	     0.080
766		765	 24464.283	    26.338	    31.979	    -0.007
767		766	 24498.081	    33.798	    31.982	     0.002
768		767	 24636.055	   137.975	    32.120	     0.138
769		768	 24708.026	    71.970	    32.172	     0.052
770		769	 24813.025	   105.000	    32.267	     0.095
771		770	 24869.813	    56.787	    32.298	     0.032
772		771	 24897.895	    28.082	    32.293	    -0.005
773		772	 25035.114	   137.219	    32.429	     0.136
774		773	 25053.861	    18.748	    32.411	    -0.018
775		774	 25132.062	    78.201	    32.470	     0.059
776		775	 25254.867	   122.806	    32.587	     0.117
777		776	 25318.149	    63.281	    32.626	     0.040
778		777	 25356.925	    38.777	    32.634	     0.008
779		778	 25368.976	    12.050	    32.608	    -0.026
780		779	 25492.297	   123.321	    32.724	     0.116
781		780	 25523.802	    31.505	    32.723	    -0.002
782		781	 25681.208	   157.406	    32.882	     0.160
783		782	 25751.051	    69.843	    32.930	     0.047
784		783	 25765.429	    14.378	    32.906	    -0.024
785		784	 25814.521	    49.092	    32.927	     0.021
786		785	 25899.453	    84.932	    32.993	     0.066
787		786	 26036.893	   137.440	    33.126	     0.133
788		787	 26120.245	    83.352	    33.190	     0.064
789		788	 26156.043	    35.798	    33.193	     0.003
790		789	 26298.729	   142.685	    33.332	     0.139
791		790	 26366.556	    67.827	    33.375	     0.044
792		791	 26386.202	    19.646	    33.358	    -0.017
793		792	 26474.221	    88.020	    33.427	     0.069
794		793	 26628.410	   154.189	    33.579	     0.152
795		794	 26565.220	   -63.190	    33.457	    -0.122
796		795	 26817.648	   252.428	    33.733	     0.275
797		796	 26761.697	   -55.951	    33.620	    -0.113
798		797	 26938.881	   177.185	    33.800	     0.180
799		798	 26939.709	     0.828	    33.759	    -0.041
800		799	 26997.128	    57.420	    33.789	     0.030
801		800	 27057.226	    60.097	    33.822	     0.033
802		801	 27201.677	   144.451	    33.960	     0.138
803		802	 26805.958	  -395.719	    33.424	    -0.536
804		803	 26537.920	  -268.038	    33.048	    -0.375
805		804	 26678.304	   140.384	    33.182	     0.134
806		805	 26630.433	   -47.872	    33.081	    -0.101
807		806	 26749.240	   118.807	    33.188	     0.106
808		807	 26748.689	    -0.551	    33.146	    -0.042
809		808	 26907.123	   158.434	    33.301	     0.155
810		809	 26987.012	    79.889	    33.358	     0.058
811		810	 27107.377	   120.365	    33.466	     0.107
812		811	 27114.504	     7.127	    33.433	    -0.032
813		812	 27187.716	    73.212	    33.482	     0.049
814		813	 27248.989	    61.273	    33.517	     0.034
815		814	 27335.251	    86.262	    33.581	     0.065
816		815	 27430.574	    95.323	    33.657	     0.076
817		816	 27435.297	     4.724	    33.622	    -0.035
818		817	 27607.306	   172.009	    33.791	     0.169
819		818	 27645.864	    38.558	    33.797	     0.006
820		819	 27703.069	    57.205	    33.825	     0.029
821		820	 27752.643	    49.573	    33.845	     0.019
822		821	 27884.179	   131.536	    33.964	     0.119
823		822	 27909.229	    25.050	    33.953	    -0.011
824		823	 27968.947	    59.718	    33.984	     0.031
825		824	 28078.694	   109.747	    34.076	     0.092
826		825	 28123.127	    44.433	    34.089	     0.013
827		826	 28219.187	    96.061	    34.164	     0.075
828		827	 28307.766	    88.578	    34.229	     0.066
829		828	 28308.935	     1.169	    34.190	    -0.040
830		829	 28454.099	   145.164	    34.323	     0.134
831		830	 28544.836	    90.737	    34.391	     0.068
832		831	 28541.805	    -3.031	    34.346	    -0.045
833		832	 28636.365	    94.560	    34.419	     0.072
834		833	 28673.649	    37.283	    34.422	     0.003
835		834	 28806.985	   133.336	    34.541	     0.119
836		835	 28873.624	    66.639	    34.579	     0.038
837		836	 28989.968	   116.344	    34.677	     0.098
838		837	 29012.465	    22.497	    34.662	    -0.015
839		838	 29107.325	    94.859	    34.734	     0.072
840		839	 29191.417	    84.092	    34.793	     0.059
841		840	 29297.319	   105.902	    34.878	     0.085
842		841	 29355.550	    58.231	    34.906	     0.028
843		842	 29501.538	   145.988	    35.037	     0.132
844		843	 29560.832	    59.294	    35.066	     0.029
845		844	 29648.280	    87.448	    35.128	     0.062
846		845	 29663.313	    15.033	    35.105	    -0.024
847		846	 29771.188	   107.875	    35.191	     0.086
848		847	 29796.750	    25.562	    35.179	    -0.011
849		848	 29896.492	    99.741	    35.255	     0.076
850		849	 29992.391	    95.899	    35.327	     0.071
851		850	 30055.858	    63.467	    35.360	     0.033
852		851	 30156.115	   100.257	    35.436	     0.076
853		852	 30310.384	   154.269	    35.576	     0.139
854		853	 30291.756	   -18.628	    35.512	    -0.064
855		854	 30381.736	    89.980	    35.576	     0.064
856		855	 30477.779	    96.043	    35.647	     0.071
857		856	 30610.065	   132.286	    35.759	     0.113
858		857	 30634.105	    24.040	    35.746	    -0.014
859		858	 30747.824	   113.719	    35.837	     0.091
860		859	 30760.998	    13.174	    35.810	    -0.026
861		860	 30913.573	   152.575	    35.946	     0.136
862		861	 30974.589	    61.016	    35.975	     0.029
863		862	 31060.596	    86.007	    36.033	     0.058
864		863	 31197.322	   136.727	    36.150	     0.117
865		864	 31334.516	   137.194	    36.267	     0.117
866		865	 31348.246	    13.730	    36.241	    -0.026
867		866	 31477.254	   129.008	    36.348	     0.107
868		867	 31568.580	    91.326	    36.411	     0.063
869		868	 31509.636	   -58.944	    36.301	    -0.110
870		869	 31695.826	   186.190	    36.474	     0.172
871		870	 31696.124	     0.298	    36.432	    -0.042
872		871	 31778.187	    82.063	    36.485	     0.052
873		872	 31819.734	    41.547	    36.491	     0.006
874		873	 31986.935	   167.201	    36.640	     0.150
875		874	 32027.063	    40.129	    36.644	     0.004
876		875	 32108.504	    81.440	    36.695	     0.051
877		876	 32143.851	    35.347	    36.694	    -0.002
878		877	 32290.628	   146.777	    36.819	     0.126
879		878	 32359.390	    68.762	    36.856	     0.036
880		879	 32463.228	   103.838	    36.932	     0.076
881		880	 32509.643	    46.415	    36.943	     0.011
882		881	 32550.276	    40.633	    36.947	     0.004
883		882	 32701.360	   151.083	    37.076	     0.129
884		883	 32723.339	    21.979	    37.059	    -0.017
885		884	 32849.485	   126.146	    37.160	     0.101
886		885	 32908.281	    58.796	    37.184	     0.024
887		886	 33065.046	   156.765	    37.319	     0.135
888		887	 33017.668	   -47.378	    37.224	    -0.095
889		888	 33205.978	   188.309	    37.394	     0.170
890		889	 33274.588	    68.610	    37.429	     0.035
891		890	 33330.270	    55.681	    37.450	     0.021
892		891	 33460.107	   129.838	    37.553	     0.104
893		892	 33554.526	    94.419	    37.617	     0.064
894		893	 33609.470	    54.944	    37.637	     0.019
895		894	 33636.988	    27.518	    37.625	    -0.011
896		895	 33862.015	   225.027	    37.835	     0.209
897		896	 33837.586	   -24.429	    37.765	    -0.069
898		897	 33956.989	   119.403	    37.856	     0.091
899		898	 34084.915	   127.925	    37.956	     0.100
900		899	 34076.003	    -8.912	    37.904	    -0.052
901		900	 34238.265	   162.262	    38.043	     0.138
902		901	 34260.914	    22.649	    38.025	    -0.017
903		902	 34312.715	    51.801	    38.041	     0.015
904		903	 34521.993	   209.278	    38.230	     0.190
905		904	 34513.693	    -8.300	    38.179	    -0.051
906		905	 34560.963	    47.270	    38.189	     0.010
907		906	 34619.423	    58.460	    38.211	     0.022
908		907	 34753.305	   133.883	    38.317	     0.105
909		908	 34742.967	   -10.339	    38.263	    -0.054
910		909	 34956.080	   213.113	    38.456	     0.192
911		910	 34914.397	   -41.683	    38.367	    -0.088
912		911	 35073.975	   159.578	    38.501	     0.133
913		912	 35161.707	    87.732	    38.555	     0.054
914		913	 35286.678	   124.971	    38.649	     0.095
915		914	 35334.783	    48.105	    38.659	     0.010
916		915	 35373.645	    38.862	    38.660	     0.000
917		916	 35513.455	   139.810	    38.770	     0.110
918		917	 35680.779	   167.323	    38.910	     0.140
919		918	 35668.472	   -12.307	    38.855	    -0.056
920		919	 35872.888	   204.416	    39.035	     0.180
921		920	 35961.595	    88.707	    39.089	     0.054
922		921	 35974.302	    12.707	    39.060	    -0.029
923		922	 36110.826	   136.525	    39.166	     0.106
924		923	 36150.109	    39.282	    39.166	     0.000
925		924	 36233.381	    83.272	    39.214	     0.048
926		925	 36402.374	   168.992	    39.354	     0.140
927		926	 36451.306	    48.932	    39.364	     0.010
928		927	 36597.813	   146.508	    39.480	     0.116
929		928	 36672.428	    74.615	    39.518	     0.038
930		929	 36779.881	   107.452	    39.591	     0.073
931		930	 36902.605	   122.724	    39.680	     0.089
932		931	 36944.129	    41.524	    39.682	     0.002
933		932	 36989.128	    44.999	    39.688	     0.006
934		933	 37091.584	   102.456	    39.755	     0.067
935		934	 37201.420	   109.836	    39.830	     0.075
936		935	 37277.093	    75.673	    39.869	     0.038
937		936	 37313.153	    36.060	    39.864	    -0.004
938		937	 37448.626	   135.473	    39.967	     0.102
939		938	 37642.551	   193.925	    40.131	     0.164
940		939	 37573.909	   -68.641	    40.015	    -0.116
941		940	 37733.082	   159.173	    40.142	     0.127
942		941	 37841.596	   108.514	    40.214	     0.073
943		942	 37843.014	     1.418	    40.173	    -0.041
944		943	 38049.240	   206.226	    40.349	     0.176
945		944	 38088.962	    39.722	    40.348	    -0.001
946		945	 38173.701	    84.738	    40.395	     0.047
947		946	 38345.857	   172.157	    40.535	     0.139
948		947	 38360.460	    14.603	    40.507	    -0.027
949		948	 38454.201	    93.740	    40.564	     0.056
950		949	 38539.324	    85.124	    40.610	     0.047
951		950	 38569.501	    30.177	    40.599	    -0.011
952		951	 38673.927	   104.427	    40.667	     0.067
953		952	 38834.871	   160.943	    40.793	     0.126
954		953	 38763.491	   -71.380	    40.675	    -0.118
955		954	 38934.875	   171.385	    40.812	     0.137
956		955	 38981.656	    46.780	    40.818	     0.006
957		956	 39022.210	    40.554	    40.818	    -0.000
958		957	 39235.265	   213.055	    40.998	     0.180
959		958	 39278.242	    42.977	    41.000	     0.002
960		959	 39312.386	    34.144	    40.993	    -0.007
961		960	 39483.032	   170.646	    41.128	     0.135
962		961	 39582.995	    99.963	    41.189	     0.061
963		962	 39584.262	     1.266	    41.148	    -0.041
964		963	 39770.395	   186.134	    41.298	     0.151
965		964	 39808.422	    38.027	    41.295	    -0.003
966		965	 39935.715	   127.293	    41.384	     0.089
967		966	 40015.396	    79.681	    41.424	     0.040
968		967	 40073.082	    57.686	    41.441	     0.017
969		968	 40141.297	    68.215	    41.468	     0.028
970		969	 40279.952	   138.655	    41.569	     0.100
971		970	 40340.090	    60.138	    41.588	     0.019
972		971	 40513.076	   172.986	    41.723	     0.135
973		972	 40605.444	    92.368	    41.775	     0.052
974		973	 40648.218	    42.774	    41.776	     0.001
975		974	 40701.372	    53.154	    41.788	     0.012
976		975	 40844.205	   142.833	    41.891	     0.104
977		976	 40936.078	    91.873	    41.943	     0.051
978		977	 41005.166	    69.088	    41.970	     0.028
979		978	 41148.674	   143.509	    42.074	     0.104
980		979	 41351.004	   202.330	    42.238	     0.164
981		980	 41439.400	    88.396	    42.285	     0.047
982		981	 41482.177	    42.777	    42.286	     0.001
983		982	 41613.938	   131.761	    42.377	     0.091
984		983	 41655.276	    41.339	    42.376	    -0.001
985		984	 41707.915	    52.639	    42.386	     0.010
986		985	 41890.839	   182.924	    42.529	     0.143
987		986	 41904.830	    13.991	    42.500	    -0.029
988		987	 42012.196	   107.365	    42.566	     0.066
989		988	 42137.467	   125.272	    42.649	     0.084
990		989	 42177.468	    40.000	    42.647	    -0.003
991		990	 42245.670	    68.202	    42.672	     0.026
992		991	 42316.117	    70.447	    42.700	     0.028
993		992	 42496.872	   180.755	    42.840	     0.139
994		993	 42582.109	    85.237	    42.882	     0.043
995		994	 42659.677	    77.568	    42.917	     0.035
996		995	 42732.854	    73.177	    42.948	     0.030
997		996	 42874.502	   141.648	    43.047	     0.099
998		997	 42876.249	     1.747	    43.005	    -0.041
999		998	 42994.229	   117.980	    43.080	     0.075
1000		999	 43060.622	    66.393	    43.104	     0.023
1001		1000	 43220.258	   159.636	    43.220	     0.117
