#Size	#Para	 Time		 Diff		 Proc		 Diff
3		2	     0.124	     0.124	     0.062	     0.062
4		3	     0.280	     0.156	     0.093	     0.032
5		4	     0.549	     0.269	     0.137	     0.044
6		5	     0.719	     0.170	     0.144	     0.007
7		6	     1.065	     0.346	     0.178	     0.034
8		7	     1.348	     0.283	     0.193	     0.015
9		8	     1.731	     0.383	     0.216	     0.024
10		9	     2.225	     0.494	     0.247	     0.031
11		10	     2.909	     0.684	     0.291	     0.044
12		11	     3.496	     0.587	     0.318	     0.027
13		12	     4.086	     0.590	     0.341	     0.023
14		13	     4.816	     0.730	     0.370	     0.030
15		14	     5.638	     0.822	     0.403	     0.032
16		15	     6.458	     0.821	     0.431	     0.028
17		16	     7.397	     0.939	     0.462	     0.032
18		17	     8.333	     0.935	     0.490	     0.028
19		18	     9.497	     1.164	     0.528	     0.037
20		19	    10.599	     1.102	     0.558	     0.030
21		20	    12.045	     1.446	     0.602	     0.044
22		21	    13.494	     1.449	     0.643	     0.040
23		22	    14.597	     1.103	     0.663	     0.021
24		23	    15.581	     0.984	     0.677	     0.014
25		24	    17.224	     1.643	     0.718	     0.040
26		25	    18.721	     1.497	     0.749	     0.031
27		26	    20.267	     1.546	     0.780	     0.031
28		27	    21.954	     1.686	     0.813	     0.034
29		28	    23.753	     1.800	     0.848	     0.035
30		29	    25.698	     1.945	     0.886	     0.038
31		30	    27.881	     2.182	     0.929	     0.043
32		31	    29.250	     1.369	     0.944	     0.014
33		32	    31.691	     2.441	     0.990	     0.047
34		33	    34.008	     2.316	     1.031	     0.040
35		34	    35.599	     1.591	     1.047	     0.016
36		35	    37.772	     2.173	     1.079	     0.032
37		36	    40.246	     2.475	     1.118	     0.039
38		37	    42.458	     2.212	     1.148	     0.030
39		38	    44.873	     2.415	     1.181	     0.033
40		39	    47.917	     3.043	     1.229	     0.048
41		40	    50.368	     2.451	     1.259	     0.031
42		41	    52.568	     2.199	     1.282	     0.023
43		42	    56.469	     3.901	     1.344	     0.062
44		43	    58.132	     1.663	     1.352	     0.007
45		44	    61.633	     3.502	     1.401	     0.049
46		45	    64.399	     2.766	     1.431	     0.030
47		46	    67.093	     2.694	     1.459	     0.027
48		47	    69.536	     2.443	     1.479	     0.021
49		48	    73.616	     4.080	     1.534	     0.054
50		49	    76.703	     3.087	     1.565	     0.032
51		50	    78.449	     1.746	     1.569	     0.004
52		51	    81.334	     2.885	     1.595	     0.026
53		52	    85.133	     3.799	     1.637	     0.042
54		53	    88.048	     2.915	     1.661	     0.024
55		54	    90.906	     2.858	     1.683	     0.022
56		55	    95.332	     4.426	     1.733	     0.050
57		56	    98.682	     3.349	     1.762	     0.029
58		57	   101.216	     2.534	     1.776	     0.014
59		58	   106.827	     5.612	     1.842	     0.066
60		59	   112.146	     5.318	     1.901	     0.059
61		60	   115.119	     2.973	     1.919	     0.018
62		61	   119.552	     4.433	     1.960	     0.041
63		62	   123.287	     3.736	     1.989	     0.029
64		63	   128.254	     4.967	     2.036	     0.047
65		64	   133.255	     5.001	     2.082	     0.046
66		65	   135.574	     2.318	     2.086	     0.004
67		66	   139.104	     3.530	     2.108	     0.022
68		67	   144.836	     5.732	     2.162	     0.054
69		68	   149.373	     4.537	     2.197	     0.035
70		69	   154.477	     5.104	     2.239	     0.042
71		70	   156.839	     2.362	     2.241	     0.002
72		71	   162.448	     5.609	     2.288	     0.047
73		72	   166.592	     4.143	     2.314	     0.026
74		73	   171.479	     4.888	     2.349	     0.035
75		74	   177.770	     6.290	     2.402	     0.053
76		75	   181.935	     4.165	     2.426	     0.024
77		76	   186.814	     4.880	     2.458	     0.032
78		77	   192.312	     5.498	     2.498	     0.039
79		78	   217.530	    25.218	     2.789	     0.291
80		79	   200.903	   -16.627	     2.543	    -0.246
81		80	   208.533	     7.630	     2.607	     0.064
82		81	   212.309	     3.776	     2.621	     0.014
83		82	   217.064	     4.755	     2.647	     0.026
84		83	   222.484	     5.420	     2.681	     0.033
85		84	   238.265	    15.781	     2.836	     0.156
86		85	   234.867	    -3.398	     2.763	    -0.073
87		86	   241.726	     6.860	     2.811	     0.048
88		87	   253.981	    12.254	     2.919	     0.109
89		88	   254.451	     0.470	     2.891	    -0.028
90		89	   267.591	    13.140	     3.007	     0.115
91		90	   262.886	    -4.705	     2.921	    -0.086
92		91	   283.376	    20.490	     3.114	     0.193
93		92	   275.022	    -8.354	     2.989	    -0.125
94		93	   285.719	    10.697	     3.072	     0.083
95		94	   289.998	     4.278	     3.085	     0.013
96		95	   302.428	    12.430	     3.183	     0.098
97		96	   306.559	     4.131	     3.193	     0.010
98		97	   308.200	     1.642	     3.177	    -0.016
99		98	   321.096	    12.896	     3.276	     0.099
100		99	   317.760	    -3.336	     3.210	    -0.067
101		100	   336.328	    18.568	     3.363	     0.154
102		101	   334.921	    -1.407	     3.316	    -0.047
103		102	   348.731	    13.809	     3.419	     0.103
104		103	   347.627	    -1.103	     3.375	    -0.044
105		104	   365.088	    17.461	     3.510	     0.135
106		105	   362.364	    -2.724	     3.451	    -0.059
107		106	   378.672	    16.309	     3.572	     0.121
108		107	   382.898	     4.226	     3.578	     0.006
109		108	   396.606	    13.707	     3.672	     0.094
110		109	   412.190	    15.584	     3.782	     0.109
111		110	   409.339	    -2.851	     3.721	    -0.060
112		111	   417.577	     8.238	     3.762	     0.041
113		112	   419.976	     2.399	     3.750	    -0.012
114		113	   426.827	     6.851	     3.777	     0.027
115		114	   430.572	     3.745	     3.777	    -0.000
116		115	   447.206	    16.634	     3.889	     0.112
117		116	   452.390	     5.184	     3.900	     0.011
118		117	   462.893	    10.503	     3.956	     0.056
119		118	   459.227	    -3.666	     3.892	    -0.065
120		119	   471.391	    12.164	     3.961	     0.070
121		120	   486.118	    14.727	     4.051	     0.090
122		121	   491.664	     5.546	     4.063	     0.012
123		122	   499.208	     7.544	     4.092	     0.029
124		123	   509.392	    10.183	     4.141	     0.050
125		124	   518.110	     8.718	     4.178	     0.037
126		125	   523.216	     5.106	     4.186	     0.007
127		126	   539.771	    16.555	     4.284	     0.098
128		127	   542.748	     2.977	     4.274	    -0.010
129		128	   558.588	    15.840	     4.364	     0.090
130		129	   564.437	     5.849	     4.375	     0.012
131		130	   579.022	    14.585	     4.454	     0.079
132		131	   586.707	     7.685	     4.479	     0.025
133		132	   592.055	     5.348	     4.485	     0.007
134		133	   601.316	     9.261	     4.521	     0.036
135		134	   602.812	     1.496	     4.499	    -0.023
136		135	   621.804	    18.992	     4.606	     0.107
137		136	   629.878	     8.074	     4.631	     0.025
138		137	   646.479	    16.601	     4.719	     0.087
139		138	   649.125	     2.645	     4.704	    -0.015
140		139	   657.256	     8.131	     4.728	     0.025
141		140	   668.010	    10.754	     4.772	     0.043
142		141	   673.794	     5.784	     4.779	     0.007
143		142	   688.339	    14.544	     4.847	     0.069
144		143	   705.612	    17.274	     4.934	     0.087
145		144	   706.255	     0.643	     4.905	    -0.030
146		145	   725.866	    19.611	     5.006	     0.101
147		146	   729.983	     4.117	     5.000	    -0.006
148		147	   745.438	    15.455	     5.071	     0.071
149		148	   756.061	    10.623	     5.109	     0.038
150		149	   764.307	     8.247	     5.130	     0.021
151		150	   776.388	    12.081	     5.176	     0.046
152		151	   788.931	    12.543	     5.225	     0.049
153		152	   796.365	     7.434	     5.239	     0.015
154		153	   818.913	    22.548	     5.352	     0.113
155		154	   824.027	     5.114	     5.351	    -0.002
156		155	   837.700	    13.672	     5.405	     0.054
157		156	   846.265	     8.565	     5.425	     0.020
158		157	   858.469	    12.205	     5.468	     0.043
159		158	   870.329	    11.859	     5.508	     0.040
160		159	   879.586	     9.257	     5.532	     0.024
161		160	   891.172	    11.586	     5.570	     0.038
162		161	   904.219	    13.047	     5.616	     0.046
163		162	   914.774	    10.556	     5.647	     0.030
164		163	   925.782	    11.008	     5.680	     0.033
165		164	   938.139	    12.357	     5.720	     0.041
166		165	   954.176	    16.037	     5.783	     0.063
167		166	   962.852	     8.676	     5.800	     0.017
168		167	   983.581	    20.728	     5.890	     0.089
169		168	   984.449	     0.868	     5.860	    -0.030
170		169	   999.750	    15.301	     5.916	     0.056
171		170	  1010.671	    10.921	     5.945	     0.029
172		171	  1019.408	     8.737	     5.961	     0.016
173		172	  1040.918	    21.510	     6.052	     0.090
174		173	  1044.333	     3.416	     6.037	    -0.015
175		174	  1056.375	    12.041	     6.071	     0.035
176		175	  1076.932	    20.557	     6.154	     0.083
177		176	  1087.677	    10.745	     6.180	     0.026
178		177	  1101.765	    14.088	     6.225	     0.045
179		178	  1109.399	     7.634	     6.233	     0.008
180		179	  1126.888	    17.488	     6.295	     0.063
181		180	  1130.706	     3.819	     6.282	    -0.014
182		181	  1150.100	    19.394	     6.354	     0.072
183		182	  1166.555	    16.455	     6.410	     0.056
184		183	  1175.047	     8.492	     6.421	     0.011
185		184	  1215.336	    40.289	     6.605	     0.184
186		185	  1187.148	   -28.188	     6.417	    -0.188
187		186	  1185.319	    -1.829	     6.373	    -0.044
188		187	  1198.119	    12.799	     6.407	     0.034
189		188	  1207.494	     9.375	     6.423	     0.016
190		189	  1223.376	    15.883	     6.473	     0.050
191		190	  1267.082	    43.706	     6.669	     0.196
192		191	  1276.091	     9.009	     6.681	     0.012
193		192	  1292.500	    16.408	     6.732	     0.051
194		193	  1321.114	    28.614	     6.845	     0.113
195		194	  1321.790	     0.676	     6.813	    -0.032
196		195	  1336.397	    14.607	     6.853	     0.040
197		196	  1349.423	    13.026	     6.885	     0.031
198		197	  1362.551	    13.128	     6.917	     0.032
199		198	  1389.331	    26.780	     7.017	     0.100
200		199	  1361.479	   -27.852	     6.842	    -0.175
201		200	  1377.263	    15.784	     6.886	     0.045
202		201	  1388.674	    11.410	     6.909	     0.023
203		202	  1398.979	    10.305	     6.926	     0.017
204		203	  1414.294	    15.316	     6.967	     0.041
205		204	  1430.335	    16.041	     7.011	     0.044
206		205	  1445.486	    15.151	     7.051	     0.040
207		206	  1456.666	    11.179	     7.071	     0.020
208		207	  1472.030	    15.365	     7.111	     0.040
209		208	  1489.439	    17.409	     7.161	     0.050
210		209	  1517.676	    28.237	     7.262	     0.101
211		210	  1524.765	     7.089	     7.261	    -0.001
212		211	  1538.562	    13.796	     7.292	     0.031
213		212	  1544.392	     5.830	     7.285	    -0.007
214		213	  1568.694	    24.302	     7.365	     0.080
215		214	  1582.957	    14.263	     7.397	     0.032
216		215	  1604.959	    22.003	     7.465	     0.068
217		216	  1625.597	    20.638	     7.526	     0.061
218		217	  1639.893	    14.296	     7.557	     0.031
219		218	  1655.451	    15.557	     7.594	     0.037
220		219	  1671.373	    15.923	     7.632	     0.038
221		220	  1684.405	    13.032	     7.656	     0.025
222		221	  1703.480	    19.075	     7.708	     0.052
223		222	  1725.042	    21.563	     7.770	     0.062
224		223	  1732.219	     7.176	     7.768	    -0.003
225		224	  1815.472	    83.254	     8.105	     0.337
226		225	  1778.188	   -37.284	     7.903	    -0.202
227		226	  1787.860	     9.671	     7.911	     0.008
228		227	  1802.704	    14.844	     7.941	     0.031
229		228	  1824.638	    21.934	     8.003	     0.061
230		229	  1843.215	    18.576	     8.049	     0.046
231		230	  1858.264	    15.049	     8.079	     0.030
232		231	  1874.310	    16.046	     8.114	     0.034
233		232	  1882.330	     8.020	     8.113	    -0.000
234		233	  1901.345	    19.015	     8.160	     0.047
235		234	  1921.111	    19.766	     8.210	     0.050
236		235	  1946.619	    25.508	     8.283	     0.074
237		236	  1964.114	    17.496	     8.323	     0.039
238		237	  1971.602	     7.488	     8.319	    -0.004
239		238	  1986.208	    14.606	     8.345	     0.026
240		239	  2011.286	    25.078	     8.415	     0.070
241		240	  2029.799	    18.513	     8.457	     0.042
242		241	  2039.705	     9.906	     8.464	     0.006
243		242	  2064.622	    24.917	     8.531	     0.068
244		243	  2080.118	    15.496	     8.560	     0.029
245		244	  2105.064	    24.946	     8.627	     0.067
246		245	  2108.284	     3.220	     8.605	    -0.022
247		246	  2131.876	    23.592	     8.666	     0.061
248		247	  2146.417	    14.541	     8.690	     0.024
249		248	  2167.369	    20.952	     8.739	     0.049
250		249	  2173.576	     6.208	     8.729	    -0.010
251		250	  2197.044	    23.468	     8.788	     0.059
252		251	  2225.284	    28.240	     8.866	     0.077
253		252	  2239.113	    13.829	     8.885	     0.020
254		253	  2309.008	    69.895	     9.127	     0.241
255		254	  2318.671	     9.663	     9.129	     0.002
256		255	  2336.457	    17.786	     9.163	     0.034
257		256	  2362.737	    26.281	     9.229	     0.067
258		257	  2380.417	    17.680	     9.262	     0.033
259		258	  2410.083	    29.665	     9.341	     0.079
260		259	  2420.306	    10.223	     9.345	     0.003
261		260	  2432.522	    12.215	     9.356	     0.011
262		261	  2441.629	     9.108	     9.355	    -0.001
263		262	  2475.518	    33.889	     9.449	     0.094
264		263	  2498.917	    23.399	     9.502	     0.053
265		264	  2521.204	    22.286	     9.550	     0.048
266		265	  2521.178	    -0.025	     9.514	    -0.036
267		266	  2542.176	    20.998	     9.557	     0.043
268		267	  2568.759	    26.583	     9.621	     0.064
269		268	  2589.628	    20.869	     9.663	     0.042
270		269	  2603.571	    13.942	     9.679	     0.016
271		270	  2628.158	    24.587	     9.734	     0.055
272		271	  2643.605	    15.447	     9.755	     0.021
273		272	  2663.140	    19.535	     9.791	     0.036
274		273	  2686.951	    23.811	     9.842	     0.051
275		274	  2716.573	    29.622	     9.914	     0.072
276		275	  2719.056	     2.483	     9.887	    -0.027
277		276	  2801.255	    82.199	    10.149	     0.262
278		277	  2771.426	   -29.829	    10.005	    -0.144
279		278	  2784.937	    13.511	    10.018	     0.013
280		279	  2821.282	    36.345	    10.112	     0.094
281		280	  2857.426	    36.144	    10.205	     0.093
282		281	  2870.248	    12.821	    10.214	     0.009
283		282	  2896.217	    25.969	    10.270	     0.056
284		283	  2914.729	    18.512	    10.299	     0.029
285		284	  2930.351	    15.621	    10.318	     0.019
286		285	  2957.064	    26.714	    10.376	     0.058
287		286	  2967.622	    10.557	    10.376	     0.001
288		287	  2995.094	    27.472	    10.436	     0.060
289		288	  3024.731	    29.637	    10.503	     0.067
290		289	  3032.547	     7.816	    10.493	    -0.009
291		290	  3056.206	    23.659	    10.539	     0.045
292		291	  3080.235	    24.028	    10.585	     0.046
293		292	  3111.093	    30.858	    10.654	     0.069
294		293	  3121.776	    10.684	    10.655	     0.000
295		294	  3146.483	    24.707	    10.702	     0.048
296		295	  3167.357	    20.875	    10.737	     0.034
297		296	  3290.720	   123.362	    11.117	     0.380
298		297	  3219.725	   -70.994	    10.841	    -0.276
299		298	  3229.168	     9.443	    10.836	    -0.005
300		299	  3263.028	    33.860	    10.913	     0.077
301		300	  3286.116	    23.088	    10.954	     0.041
302		301	  3311.253	    25.137	    11.001	     0.047
303		302	  3340.030	    28.777	    11.060	     0.059
304		303	  3361.806	    21.776	    11.095	     0.035
305		304	  3389.267	    27.461	    11.149	     0.054
306		305	  3418.071	    28.804	    11.207	     0.058
307		306	  3437.748	    19.677	    11.234	     0.028
308		307	  3456.689	    18.941	    11.260	     0.025
309		308	  3484.223	    27.534	    11.312	     0.053
310		309	  3500.973	    16.750	    11.330	     0.018
311		310	  3522.413	    21.441	    11.363	     0.033
312		311	  3556.116	    33.702	    11.434	     0.072
313		312	  3581.825	    25.709	    11.480	     0.046
314		313	  3651.381	    69.556	    11.666	     0.186
315		314	  3623.386	   -27.995	    11.539	    -0.126
316		315	  3636.301	    12.915	    11.544	     0.004
317		316	  3678.842	    42.541	    11.642	     0.098
318		317	  3692.088	    13.246	    11.647	     0.005
319		318	  3716.070	    23.982	    11.686	     0.039
320		319	  3738.809	    22.739	    11.720	     0.035
321		320	  3764.417	    25.608	    11.764	     0.043
322		321	  3789.281	    24.864	    11.805	     0.041
323		322	  3820.157	    30.875	    11.864	     0.059
324		323	  3839.248	    19.091	    11.886	     0.022
325		324	  3860.079	    20.831	    11.914	     0.028
326		325	  3875.929	    15.850	    11.926	     0.012
327		326	  3901.899	    25.970	    11.969	     0.043
328		327	  3921.712	    19.813	    11.993	     0.024
329		328	  3983.978	    62.267	    12.146	     0.153
330		329	  4037.999	    54.021	    12.274	     0.127
331		330	  4018.702	   -19.297	    12.178	    -0.096
332		331	  4033.725	    15.023	    12.186	     0.009
333		332	  4067.892	    34.167	    12.253	     0.066
334		333	  4092.657	    24.765	    12.290	     0.038
335		334	  4087.601	    -5.056	    12.238	    -0.052
336		335	  4020.998	   -66.603	    12.003	    -0.235
337		336	  4050.145	    29.147	    12.054	     0.051
338		337	  4093.992	    43.848	    12.148	     0.094
339		338	  4095.877	     1.885	    12.118	    -0.030
340		339	  4136.358	    40.480	    12.202	     0.084
341		340	  4154.887	    18.529	    12.220	     0.019
342		341	  4175.408	    20.521	    12.245	     0.024
343		342	  4205.423	    30.015	    12.297	     0.052
344		343	  4294.325	    88.902	    12.520	     0.223
345		344	  4269.875	   -24.450	    12.412	    -0.107
346		345	  4296.831	    26.956	    12.455	     0.042
347		346	  4317.975	    21.144	    12.480	     0.025
348		347	  4345.646	    27.670	    12.523	     0.044
349		348	  4387.048	    41.402	    12.606	     0.083
350		349	  4401.644	    14.596	    12.612	     0.006
351		350	  4423.414	    21.770	    12.638	     0.026
352		351	  4446.377	    22.964	    12.668	     0.029
353		352	  4474.282	    27.904	    12.711	     0.043
354		353	  4515.375	    41.093	    12.791	     0.080
355		354	  4534.230	    18.855	    12.809	     0.017
356		355	  4547.695	    13.465	    12.810	     0.002
357		356	  4640.821	    93.127	    13.036	     0.226
358		357	  4616.759	   -24.063	    12.932	    -0.104
359		358	  4639.687	    22.928	    12.960	     0.028
360		359	  4663.964	    24.277	    12.992	     0.032
361		360	  4685.522	    21.558	    13.015	     0.024
362		361	  4707.141	    21.619	    13.039	     0.024
363		362	  4745.617	    38.476	    13.109	     0.070
364		363	  4770.806	    25.188	    13.143	     0.033
365		364	  4804.920	    34.115	    13.200	     0.058
366		365	  4827.892	    22.972	    13.227	     0.027
367		366	  4847.809	    19.917	    13.245	     0.018
368		367	  4863.863	    16.054	    13.253	     0.008
369		368	  4943.932	    80.069	    13.435	     0.182
370		369	  4928.753	   -15.178	    13.357	    -0.078
371		370	  4953.890	    25.137	    13.389	     0.032
372		371	  5000.040	    46.150	    13.477	     0.088
373		372	  5019.300	    19.260	    13.493	     0.016
374		373	  5040.742	    21.441	    13.514	     0.021
375		374	  5063.676	    22.934	    13.539	     0.025
376		375	  5098.816	    35.140	    13.597	     0.058
377		376	  5128.941	    30.125	    13.641	     0.044
378		377	  5157.348	    28.407	    13.680	     0.039
379		378	  5185.956	    28.607	    13.719	     0.039
380		379	  5206.326	    20.370	    13.737	     0.018
381		380	  5328.719	   122.393	    14.023	     0.286
382		381	  5273.168	   -55.551	    13.840	    -0.183
383		382	  5292.466	    19.298	    13.855	     0.014
384		383	  5307.321	    14.855	    13.857	     0.003
385		384	  5353.567	    46.246	    13.942	     0.084
386		385	  5368.097	    14.531	    13.943	     0.002
387		386	  5405.911	    37.813	    14.005	     0.062
388		387	  5434.459	    28.548	    14.043	     0.038
389		388	  5459.763	    25.304	    14.072	     0.029
390		389	  5497.001	    37.238	    14.131	     0.060
391		390	  5510.043	    13.043	    14.128	    -0.003
392		391	  5619.948	   109.905	    14.373	     0.245
393		392	  5574.745	   -45.202	    14.221	    -0.152
394		393	  5623.836	    49.091	    14.310	     0.089
395		394	  5642.423	    18.587	    14.321	     0.011
396		395	  5654.484	    12.061	    14.315	    -0.006
397		396	  5700.395	    45.911	    14.395	     0.080
398		397	  5749.501	    49.106	    14.482	     0.087
399		398	  5753.955	     4.454	    14.457	    -0.025
400		399	  5792.163	    38.208	    14.517	     0.060
401		400	  5835.490	    43.326	    14.589	     0.072
402		401	  5968.027	   132.537	    14.883	     0.294
403		402	  5896.425	   -71.601	    14.668	    -0.215
404		403	  5921.799	    25.374	    14.694	     0.027
405		404	  5955.801	    34.001	    14.742	     0.048
406		405	  5957.810	     2.010	    14.711	    -0.031
407		406	  5957.003	    -0.807	    14.672	    -0.038
408		407	  6035.326	    78.322	    14.829	     0.156
409		408	  6069.205	    33.879	    14.876	     0.047
410		409	  6074.172	     4.968	    14.851	    -0.024
411		410	  6104.470	    30.298	    14.889	     0.038
412		411	  6216.017	   111.548	    15.124	     0.235
413		412	  6185.389	   -30.629	    15.013	    -0.111
414		413	  6213.763	    28.374	    15.045	     0.032
415		414	  6234.824	    21.061	    15.060	     0.015
416		415	  6287.767	    52.943	    15.151	     0.091
417		416	  6293.530	     5.764	    15.129	    -0.023
418		417	  6340.300	    46.769	    15.205	     0.076
419		418	  6372.814	    32.515	    15.246	     0.041
420		419	  6384.199	    11.385	    15.237	    -0.009
421		420	  6466.999	    82.800	    15.398	     0.161
422		421	  6470.612	     3.613	    15.370	    -0.028
423		422	  6510.443	    39.831	    15.428	     0.058
424		423	  6518.819	     8.375	    15.411	    -0.017
425		424	  6563.988	    45.169	    15.481	     0.070
426		425	  6599.942	    35.954	    15.529	     0.048
427		426	  6622.335	    22.393	    15.545	     0.016
428		427	  6651.691	    29.357	    15.578	     0.032
429		428	  6693.412	    41.720	    15.639	     0.061
430		429	  6759.180	    65.768	    15.756	     0.117
431		430	  6755.466	    -3.714	    15.710	    -0.045
432		431	  6780.046	    24.580	    15.731	     0.021
433		432	  6807.708	    27.662	    15.759	     0.028
434		433	  6846.747	    39.039	    15.812	     0.054
435		434	  6867.657	    20.910	    15.824	     0.012
436		435	  6914.785	    47.128	    15.896	     0.072
437		436	  6946.790	    32.005	    15.933	     0.037
438		437	  6991.043	    44.253	    15.998	     0.065
439		438	  7098.916	   107.873	    16.208	     0.210
440		439	  7047.843	   -51.073	    16.054	    -0.153
441		440	  7079.061	    31.217	    16.089	     0.034
442		441	  7091.945	    12.885	    16.082	    -0.007
443		442	  7144.566	    52.621	    16.164	     0.083
444		443	  7195.628	    51.062	    16.243	     0.079
445		444	  7193.908	    -1.720	    16.202	    -0.040
446		445	  7241.267	    47.359	    16.273	     0.070
447		446	  7339.439	    98.172	    16.456	     0.184
448		447	  7303.455	   -35.984	    16.339	    -0.117
449		448	  7355.258	    51.803	    16.418	     0.079
450		449	  7381.131	    25.872	    16.439	     0.021
451		450	  7409.665	    28.534	    16.466	     0.027
452		451	  7448.352	    38.687	    16.515	     0.049
453		452	  7501.094	    52.742	    16.595	     0.080
454		453	  7495.471	    -5.622	    16.546	    -0.049
455		454	  7647.850	   152.379	    16.845	     0.299
456		455	  7589.177	   -58.673	    16.680	    -0.166
457		456	  7632.736	    43.559	    16.738	     0.059
458		457	  7650.373	    17.637	    16.740	     0.002
459		458	  7665.115	    14.743	    16.736	    -0.004
460		459	  7729.701	    64.585	    16.840	     0.104
461		460	  7771.045	    41.344	    16.894	     0.053
462		461	  7771.696	     0.651	    16.858	    -0.035
463		462	  7878.680	   106.985	    17.053	     0.195
464		463	  7887.500	     8.820	    17.036	    -0.018
465		464	  7890.980	     3.480	    17.006	    -0.029
466		465	  7924.037	    33.057	    17.041	     0.035
467		466	  7991.290	    67.252	    17.149	     0.108
468		467	  7999.243	     7.954	    17.129	    -0.020
469		468	  8026.368	    27.124	    17.150	     0.021
470		469	  8139.374	   113.007	    17.355	     0.204
471		470	  8098.819	   -40.555	    17.232	    -0.123
472		471	  8176.996	    78.177	    17.361	     0.129
473		472	  8194.328	    17.332	    17.361	    -0.000
474		473	  8247.086	    52.758	    17.436	     0.075
475		474	  8269.339	    22.254	    17.446	     0.010
476		475	  8317.888	    48.549	    17.511	     0.065
477		476	  8426.993	   109.105	    17.704	     0.192
478		477	  8372.434	   -54.559	    17.552	    -0.151
479		478	  8420.261	    47.827	    17.616	     0.063
480		479	  8454.242	    33.981	    17.650	     0.034
481		480	  8481.708	    27.466	    17.670	     0.020
482		481	  8538.982	    57.274	    17.753	     0.082
483		482	  8569.291	    30.309	    17.779	     0.026
484		483	  8662.499	    93.208	    17.935	     0.156
485		484	  8659.322	    -3.178	    17.891	    -0.044
486		485	  8680.118	    20.796	    17.897	     0.006
487		486	  8716.080	    35.963	    17.934	     0.037
488		487	  8755.016	    38.935	    17.977	     0.043
489		488	  8792.361	    37.345	    18.017	     0.040
490		489	  8803.582	    11.221	    18.003	    -0.014
491		490	  8932.461	   128.879	    18.230	     0.226
492		491	  8914.040	   -18.421	    18.155	    -0.075
493		492	  8942.263	    28.223	    18.175	     0.020
494		493	  8974.426	    32.163	    18.204	     0.028
495		494	  9031.337	    56.911	    18.282	     0.078
496		495	  9048.760	    17.422	    18.280	    -0.002
497		496	  9099.874	    51.115	    18.347	     0.066
498		497	  9246.155	   146.280	    18.604	     0.257
499		498	  9188.562	   -57.593	    18.451	    -0.153
500		499	  9203.323	    14.761	    18.444	    -0.007
501		500	  9257.817	    54.494	    18.516	     0.072
