#Size	#Para	 Time		 Diff		 Proc		 Diff
3		2	     0.133	     0.133	     0.066	     0.066
4		3	     0.253	     0.120	     0.084	     0.018
5		4	     0.526	     0.273	     0.131	     0.047
6		5	     0.677	     0.151	     0.135	     0.004
7		6	     0.948	     0.271	     0.158	     0.023
8		7	     1.359	     0.411	     0.194	     0.036
9		8	     1.694	     0.336	     0.212	     0.018
10		9	     2.231	     0.536	     0.248	     0.036
11		10	     2.831	     0.601	     0.283	     0.035
12		11	     3.424	     0.593	     0.311	     0.028
13		12	     4.000	     0.576	     0.333	     0.022
14		13	     4.730	     0.730	     0.364	     0.031
15		14	     5.515	     0.785	     0.394	     0.030
16		15	     6.481	     0.966	     0.432	     0.038
17		16	     7.387	     0.906	     0.462	     0.030
18		17	     8.493	     1.106	     0.500	     0.038
19		18	     9.449	     0.956	     0.525	     0.025
20		19	    10.444	     0.995	     0.550	     0.025
21		20	    11.658	     1.214	     0.583	     0.033
22		21	    13.432	     1.775	     0.640	     0.057
23		22	    14.262	     0.830	     0.648	     0.009
24		23	    15.352	     1.090	     0.667	     0.019
25		24	    16.928	     1.576	     0.705	     0.038
26		25	    18.381	     1.452	     0.735	     0.030
27		26	    19.902	     1.522	     0.765	     0.030
28		27	    21.562	     1.659	     0.799	     0.033
29		28	    23.387	     1.825	     0.835	     0.037
30		29	    25.144	     1.757	     0.867	     0.032
31		30	    27.283	     2.139	     0.909	     0.042
32		31	    28.751	     1.468	     0.927	     0.018
33		32	    31.200	     2.450	     0.975	     0.048
34		33	    32.992	     1.791	     1.000	     0.025
35		34	    35.029	     2.037	     1.030	     0.031
36		35	    37.263	     2.234	     1.065	     0.034
37		36	    39.509	     2.246	     1.097	     0.033
38		37	    41.798	     2.289	     1.130	     0.032
39		38	    43.868	     2.070	     1.154	     0.025
40		39	    46.649	     2.781	     1.196	     0.042
41		40	    49.332	     2.683	     1.233	     0.037
42		41	    51.444	     2.112	     1.255	     0.021
43		42	    54.123	     2.679	     1.289	     0.034
44		43	    56.543	     2.420	     1.315	     0.026
45		44	    59.199	     2.656	     1.345	     0.030
46		45	    62.892	     3.694	     1.398	     0.052
47		46	    65.223	     2.331	     1.418	     0.020
48		47	    67.777	     2.554	     1.442	     0.024
49		48	    71.513	     3.736	     1.490	     0.048
50		49	    75.181	     3.669	     1.534	     0.044
51		50	    77.189	     2.008	     1.544	     0.009
52		51	    80.571	     3.382	     1.580	     0.036
53		52	    83.721	     3.150	     1.610	     0.030
54		53	    87.175	     3.454	     1.645	     0.035
55		54	    89.365	     2.190	     1.655	     0.010
56		55	    94.356	     4.991	     1.716	     0.061
57		56	    97.943	     3.587	     1.749	     0.033
58		57	   100.394	     2.451	     1.761	     0.012
59		58	   104.891	     4.496	     1.808	     0.047
60		59	   109.359	     4.468	     1.854	     0.045
61		60	   112.691	     3.332	     1.878	     0.025
62		61	   116.515	     3.824	     1.910	     0.032
63		62	   119.684	     3.169	     1.930	     0.020
64		63	   125.034	     5.351	     1.985	     0.054
65		64	   129.386	     4.352	     2.022	     0.037
66		65	   132.421	     3.035	     2.037	     0.016
67		66	   135.562	     3.141	     2.054	     0.017
68		67	   141.035	     5.473	     2.105	     0.051
69		68	   146.461	     5.426	     2.154	     0.049
70		69	   150.041	     3.580	     2.175	     0.021
71		70	   152.867	     2.826	     2.184	     0.009
72		71	   159.211	     6.344	     2.242	     0.059
73		72	   164.005	     4.795	     2.278	     0.035
74		73	   168.900	     4.895	     2.314	     0.036
75		74	   173.458	     4.558	     2.344	     0.030
76		75	   177.257	     3.799	     2.363	     0.019
77		76	   182.889	     5.632	     2.406	     0.043
78		77	   188.944	     6.055	     2.454	     0.047
79		78	   236.286	    47.342	     3.029	     0.575
80		79	   197.881	   -38.405	     2.505	    -0.524
81		80	   203.425	     5.544	     2.543	     0.038
82		81	   208.531	     5.106	     2.574	     0.032
83		82	   213.053	     4.522	     2.598	     0.024
84		83	   218.648	     5.594	     2.634	     0.036
85		84	   234.611	    15.963	     2.793	     0.159
86		85	   230.226	    -4.384	     2.709	    -0.084
87		86	   239.017	     8.791	     2.779	     0.071
88		87	   256.983	    17.966	     2.954	     0.175
89		88	   248.478	    -8.505	     2.824	    -0.130
90		89	   262.736	    14.258	     2.952	     0.128
91		90	   257.755	    -4.981	     2.864	    -0.088
92		91	   274.101	    16.346	     3.012	     0.148
93		92	   270.847	    -3.254	     2.944	    -0.068
94		93	   278.469	     7.622	     2.994	     0.050
95		94	   283.903	     5.434	     3.020	     0.026
96		95	   298.726	    14.822	     3.144	     0.124
97		96	   304.542	     5.816	     3.172	     0.028
98		97	   304.784	     0.242	     3.142	    -0.030
99		98	   316.464	    11.681	     3.229	     0.087
100		99	   312.452	    -4.012	     3.156	    -0.073
101		100	   331.463	    19.011	     3.315	     0.159
102		101	   329.413	    -2.050	     3.262	    -0.053
103		102	   349.230	    19.816	     3.424	     0.162
104		103	   339.826	    -9.403	     3.299	    -0.125
105		104	   359.630	    19.804	     3.458	     0.159
106		105	   356.135	    -3.495	     3.392	    -0.066
107		106	   372.254	    16.119	     3.512	     0.120
108		107	   377.274	     5.020	     3.526	     0.014
109		108	   378.897	     1.623	     3.508	    -0.018
110		109	   394.484	    15.586	     3.619	     0.111
111		110	   390.825	    -3.659	     3.553	    -0.066
112		111	   407.647	    16.823	     3.672	     0.120
113		112	   414.515	     6.868	     3.701	     0.029
114		113	   421.603	     7.087	     3.731	     0.030
115		114	   422.921	     1.318	     3.710	    -0.021
116		115	   438.597	    15.676	     3.814	     0.104
117		116	   446.494	     7.897	     3.849	     0.035
118		117	   454.442	     7.947	     3.884	     0.035
119		118	   451.670	    -2.772	     3.828	    -0.056
120		119	   462.320	    10.650	     3.885	     0.057
121		120	   479.699	    17.380	     3.997	     0.112
122		121	   492.709	    13.010	     4.072	     0.074
123		122	   493.396	     0.687	     4.044	    -0.028
124		123	   503.407	    10.010	     4.093	     0.049
125		124	   508.799	     5.393	     4.103	     0.010
126		125	   516.744	     7.944	     4.134	     0.031
127		126	   535.002	    18.258	     4.246	     0.112
128		127	   532.546	    -2.456	     4.193	    -0.053
129		128	   549.489	    16.943	     4.293	     0.100
130		129	   556.998	     7.509	     4.318	     0.025
131		130	   565.741	     8.743	     4.352	     0.034
132		131	   575.123	     9.382	     4.390	     0.038
133		132	   583.072	     7.949	     4.417	     0.027
134		133	   594.387	    11.315	     4.469	     0.052
135		134	   591.097	    -3.290	     4.411	    -0.058
136		135	   613.411	    22.314	     4.544	     0.133
137		136	   620.405	     6.994	     4.562	     0.018
138		137	   639.225	    18.821	     4.666	     0.104
139		138	   639.315	     0.090	     4.633	    -0.033
140		139	   651.173	    11.858	     4.685	     0.052
141		140	   656.106	     4.933	     4.686	     0.002
142		141	   663.602	     7.496	     4.706	     0.020
143		142	   676.975	    13.372	     4.767	     0.061
144		143	   694.868	    17.893	     4.859	     0.092
145		144	   695.427	     0.560	     4.829	    -0.030
146		145	   714.488	    19.061	     4.928	     0.098
147		146	   715.436	     0.948	     4.900	    -0.027
148		147	   735.312	    19.876	     5.002	     0.102
149		148	   751.017	    15.705	     5.074	     0.072
150		149	   753.636	     2.619	     5.058	    -0.016
151		150	   764.274	    10.638	     5.095	     0.037
152		151	   775.810	    11.536	     5.138	     0.043
153		152	   786.947	    11.137	     5.177	     0.039
154		153	   807.553	    20.607	     5.278	     0.101
155		154	   816.496	     8.943	     5.302	     0.024
156		155	   828.253	    11.756	     5.344	     0.042
157		156	   840.446	    12.194	     5.387	     0.044
158		157	   858.028	    17.581	     5.465	     0.078
159		158	   861.320	     3.293	     5.451	    -0.014
160		159	   871.873	    10.553	     5.483	     0.032
161		160	   882.822	    10.948	     5.518	     0.034
162		161	   895.632	    12.810	     5.563	     0.045
163		162	   911.150	    15.519	     5.624	     0.061
164		163	   917.164	     6.014	     5.627	     0.002
165		164	   929.484	    12.320	     5.668	     0.041
166		165	   937.573	     8.089	     5.682	     0.015
167		166	   952.868	    15.295	     5.740	     0.058
168		167	   970.615	    17.747	     5.812	     0.072
169		168	   978.688	     8.073	     5.826	     0.013
170		169	   984.972	     6.285	     5.828	     0.003
171		170	  1005.294	    20.321	     5.913	     0.085
172		171	  1010.265	     4.972	     5.908	    -0.006
173		172	  1026.870	    16.605	     5.970	     0.062
174		173	  1032.244	     5.374	     5.967	    -0.003
175		174	  1044.358	    12.114	     6.002	     0.035
176		175	  1069.442	    25.084	     6.111	     0.109
177		176	  1075.886	     6.444	     6.113	     0.002
178		177	  1088.782	    12.896	     6.151	     0.038
179		178	  1101.913	    13.132	     6.191	     0.039
180		179	  1115.578	    13.665	     6.232	     0.042
181		180	  1117.190	     1.612	     6.207	    -0.026
182		181	  1138.511	    21.321	     6.290	     0.084
183		182	  1149.003	    10.491	     6.313	     0.023
184		183	  1165.064	    16.062	     6.366	     0.053
185		184	  1165.847	     0.783	     6.336	    -0.030
186		185	  1191.114	    25.267	     6.438	     0.102
187		186	  1201.872	    10.758	     6.462	     0.023
188		187	  1218.977	    17.105	     6.519	     0.057
189		188	  1226.344	     7.367	     6.523	     0.005
190		189	  1240.836	    14.493	     6.565	     0.042
191		190	  1252.817	    11.980	     6.594	     0.029
192		191	  1265.735	    12.918	     6.627	     0.033
193		192	  1276.432	    10.696	     6.648	     0.021
194		193	  1302.713	    26.281	     6.750	     0.102
195		194	  1307.096	     4.383	     6.738	    -0.012
196		195	  1331.621	    24.525	     6.829	     0.091
197		196	  1333.220	     1.600	     6.802	    -0.027
198		197	  1345.662	    12.441	     6.831	     0.029
199		198	  1371.166	    25.504	     6.925	     0.094
200		199	  1385.212	    14.046	     6.961	     0.036
201		200	  1394.066	     8.854	     6.970	     0.009
202		201	  1359.516	   -34.550	     6.764	    -0.207
203		202	  1377.740	    18.224	     6.820	     0.057
204		203	  1387.930	    10.190	     6.837	     0.017
205		204	  1404.678	    16.748	     6.886	     0.049
206		205	  1416.092	    11.414	     6.908	     0.022
207		206	  1432.060	    15.968	     6.952	     0.044
208		207	  1477.710	    45.650	     7.139	     0.187
209		208	  1457.750	   -19.960	     7.008	    -0.130
210		209	  1479.591	    21.840	     7.079	     0.071
211		210	  1493.774	    14.184	     7.113	     0.034
212		211	  1507.854	    14.080	     7.146	     0.033
213		212	  1514.094	     6.239	     7.142	    -0.004
214		213	  1536.972	    22.878	     7.216	     0.074
215		214	  1560.393	    23.422	     7.292	     0.076
216		215	  1570.590	    10.196	     7.305	     0.014
217		216	  1594.166	    23.576	     7.380	     0.075
218		217	  1612.078	    17.912	     7.429	     0.049
219		218	  1626.915	    14.837	     7.463	     0.034
220		219	  1639.280	    12.366	     7.485	     0.022
221		220	  1654.053	    14.772	     7.518	     0.033
222		221	  1672.970	    18.917	     7.570	     0.052
223		222	  1693.082	    20.112	     7.626	     0.056
224		223	  1699.810	     6.728	     7.622	    -0.004
225		224	  1734.987	    35.177	     7.745	     0.123
226		225	  1744.131	     9.144	     7.752	     0.006
227		226	  1753.200	     9.069	     7.758	     0.006
228		227	  1766.155	    12.955	     7.780	     0.023
229		228	  1788.644	    22.489	     7.845	     0.065
230		229	  1804.431	    15.787	     7.880	     0.035
231		230	  1820.882	    16.450	     7.917	     0.037
232		231	  1837.308	    16.427	     7.954	     0.037
233		232	  1846.382	     9.074	     7.959	     0.005
234		233	  1863.701	    17.318	     7.999	     0.040
235		234	  1887.464	    23.763	     8.066	     0.067
236		235	  1909.176	    21.713	     8.124	     0.058
237		236	  1922.711	    13.535	     8.147	     0.023
238		237	  1933.853	    11.142	     8.160	     0.013
239		238	  1949.221	    15.368	     8.190	     0.030
240		239	  1971.129	    21.908	     8.247	     0.057
241		240	  1989.904	    18.775	     8.291	     0.044
242		241	  2017.154	    27.250	     8.370	     0.079
243		242	  2015.290	    -1.864	     8.328	    -0.042
244		243	  2042.643	    27.353	     8.406	     0.078
245		244	  2065.161	    22.519	     8.464	     0.058
246		245	  2070.022	     4.861	     8.449	    -0.015
247		246	  2095.472	    25.449	     8.518	     0.069
248		247	  2106.402	    10.931	     8.528	     0.010
249		248	  2123.772	    17.370	     8.564	     0.036
250		249	  2134.356	    10.584	     8.572	     0.008
251		250	  2153.053	    18.697	     8.612	     0.041
252		251	  2182.470	    29.418	     8.695	     0.083
253		252	  2195.779	    13.309	     8.713	     0.018
254		253	  2221.997	    26.218	     8.783	     0.069
255		254	  2264.539	    42.542	     8.916	     0.133
256		255	  2290.169	    25.630	     8.981	     0.066
257		256	  2310.602	    20.432	     9.026	     0.045
258		257	  2335.021	    24.419	     9.086	     0.060
259		258	  2356.455	    21.434	     9.134	     0.048
260		259	  2372.953	    16.498	     9.162	     0.028
261		260	  2381.758	     8.806	     9.161	    -0.001
262		261	  2392.990	    11.232	     9.169	     0.008
263		262	  2425.180	    32.190	     9.256	     0.088
264		263	  2448.793	    23.613	     9.311	     0.055
265		264	  2462.497	    13.704	     9.328	     0.017
266		265	  2473.000	    10.503	     9.332	     0.004
267		266	  2500.172	    27.172	     9.399	     0.067
268		267	  2529.330	    29.157	     9.473	     0.074
269		268	  2533.402	     4.072	     9.453	    -0.020
270		269	  2558.457	    25.055	     9.511	     0.058
271		270	  2575.241	    16.784	     9.538	     0.027
272		271	  2592.750	    17.509	     9.567	     0.029
273		272	  2617.690	    24.940	     9.624	     0.057
274		273	  2631.113	    13.423	     9.638	     0.014
275		274	  2657.239	    26.126	     9.698	     0.060
276		275	  2672.982	    15.744	     9.720	     0.022
277		276	  2701.130	    28.148	     9.787	     0.067
278		277	  2717.578	    16.448	     9.811	     0.024
279		278	  2731.393	    13.814	     9.825	     0.014
280		279	  2755.881	    24.488	     9.878	     0.053
281		280	  2789.968	    34.087	     9.964	     0.086
282		281	  2810.090	    20.121	    10.000	     0.036
283		282	  2837.690	    27.600	    10.063	     0.062
284		283	  2850.751	    13.062	    10.073	     0.011
285		284	  2870.683	    19.932	    10.108	     0.035
286		285	  2900.461	    29.778	    10.177	     0.069
287		286	  2916.577	    16.115	    10.198	     0.021
288		287	  2944.781	    28.204	    10.261	     0.063
289		288	  2977.798	    33.017	    10.340	     0.079
290		289	  2976.260	    -1.538	    10.298	    -0.041
291		290	  2999.057	    22.797	    10.342	     0.043
292		291	  3026.257	    27.200	    10.400	     0.058
293		292	  3052.221	    25.964	    10.453	     0.053
294		293	  3065.580	    13.359	    10.463	     0.010
295		294	  3083.185	    17.605	    10.487	     0.024
296		295	  3103.003	    19.818	    10.519	     0.032
297		296	  3129.872	    26.870	    10.574	     0.055
298		297	  3152.873	    23.001	    10.616	     0.042
299		298	  3164.316	    11.443	    10.619	     0.003
300		299	  3194.980	    30.664	    10.686	     0.067
301		300	  3218.231	    23.251	    10.727	     0.042
302		301	  3250.860	    32.629	    10.800	     0.073
303		302	  3273.519	    22.659	    10.839	     0.039
304		303	  3301.211	    27.692	    10.895	     0.056
305		304	  3318.828	    17.617	    10.917	     0.022
306		305	  3346.406	    27.577	    10.972	     0.055
307		306	  3370.716	    24.310	    11.015	     0.044
308		307	  3400.415	    29.699	    11.076	     0.061
309		308	  3415.679	    15.264	    11.090	     0.014
310		309	  3429.583	    13.904	    11.099	     0.009
311		310	  3459.791	    30.208	    11.161	     0.062
312		311	  3473.928	    14.138	    11.170	     0.010
313		312	  3511.593	    37.665	    11.255	     0.085
314		313	  3524.818	    13.225	    11.261	     0.006
315		314	  3547.141	    22.322	    11.297	     0.035
316		315	  3564.818	    17.678	    11.317	     0.020
317		316	  3602.508	    37.690	    11.400	     0.083
318		317	  3614.036	    11.528	    11.401	     0.000
319		318	  3642.957	    28.921	    11.456	     0.055
320		319	  3661.118	    18.161	    11.477	     0.021
321		320	  3686.637	    25.519	    11.521	     0.044
322		321	  3714.619	    27.982	    11.572	     0.051
323		322	  3736.260	    21.641	    11.603	     0.031
324		323	  3782.262	    46.002	    11.710	     0.106
325		324	  3789.008	     6.747	    11.694	    -0.015
326		325	  3809.718	    20.710	    11.722	     0.028
327		326	  3832.955	    23.237	    11.758	     0.035
328		327	  3849.629	    16.673	    11.773	     0.015
329		328	  3876.257	    26.628	    11.818	     0.045
330		329	  3921.584	    45.327	    11.920	     0.102
331		330	  3939.248	    17.664	    11.937	     0.017
332		331	  3948.320	     9.072	    11.928	    -0.009
333		332	  3984.741	    36.421	    12.002	     0.074
334		333	  3980.271	    -4.471	    11.953	    -0.049
335		334	  3924.813	   -55.458	    11.751	    -0.202
336		335	  3937.798	    12.985	    11.755	     0.004
337		336	  3971.310	    33.513	    11.819	     0.065
338		337	  4003.870	    32.560	    11.881	     0.062
339		338	  4039.790	    35.920	    11.952	     0.071
340		339	  4051.326	    11.536	    11.951	    -0.001
341		340	  4082.158	    30.832	    12.006	     0.056
342		341	  4096.655	    14.497	    12.014	     0.007
343		342	  4119.958	    23.303	    12.047	     0.033
344		343	  4157.372	    37.414	    12.121	     0.074
345		344	  4184.971	    27.599	    12.166	     0.045
346		345	  4223.036	    38.065	    12.241	     0.075
347		346	  4232.018	     8.982	    12.231	    -0.009
348		347	  4258.510	    26.492	    12.272	     0.041
349		348	  4296.147	    37.637	    12.345	     0.073
350		349	  4319.309	    23.162	    12.376	     0.031
351		350	  4339.209	    19.900	    12.398	     0.021
352		351	  4364.072	    24.863	    12.433	     0.036
353		352	  4479.180	   115.108	    12.725	     0.292
354		353	  4544.687	    65.508	    12.874	     0.150
355		354	  4567.732	    23.045	    12.903	     0.029
356		355	  4492.001	   -75.731	    12.654	    -0.250
357		356	  4500.857	     8.855	    12.643	    -0.011
358		357	  4522.725	    21.869	    12.669	     0.026
359		358	  4551.740	    29.015	    12.714	     0.046
360		359	  4566.125	    14.385	    12.719	     0.005
361		360	  4591.444	    25.318	    12.754	     0.035
362		361	  4618.860	    27.417	    12.795	     0.041
363		362	  4654.105	    35.245	    12.857	     0.062
364		363	  4681.715	    27.610	    12.897	     0.041
365		364	  4711.653	    29.939	    12.944	     0.047
366		365	  4743.665	    32.012	    12.996	     0.052
367		366	  4765.498	    21.833	    13.020	     0.024
368		367	  4783.265	    17.767	    13.033	     0.013
369		368	  4807.781	    24.515	    13.065	     0.031
370		369	  4828.372	    20.591	    13.085	     0.020
371		370	  4857.324	    28.952	    13.128	     0.043
372		371	  4902.237	    44.913	    13.214	     0.086
373		372	  4920.482	    18.245	    13.227	     0.014
374		373	  4942.933	    22.451	    13.252	     0.025
375		374	  4966.584	    23.651	    13.280	     0.028
376		375	  4995.392	    28.808	    13.321	     0.041
377		376	  5024.180	    28.788	    13.362	     0.041
378		377	  5162.221	   138.041	    13.693	     0.331
379		378	  5217.229	    55.009	    13.802	     0.109
380		379	  5237.974	    20.745	    13.821	     0.018
381		380	  5227.071	   -10.904	    13.755	    -0.065
382		381	  5160.726	   -66.344	    13.545	    -0.210
383		382	  5192.305	    31.579	    13.592	     0.047
384		383	  5218.656	    26.350	    13.626	     0.033
385		384	  5246.520	    27.864	    13.663	     0.037
386		385	  5275.306	    28.786	    13.702	     0.039
387		386	  5312.992	    37.687	    13.764	     0.062
388		387	  5318.714	     5.722	    13.743	    -0.021
389		388	  5452.486	   133.772	    14.053	     0.309
390		389	  5530.496	    78.010	    14.217	     0.164
391		390	  5412.882	  -117.614	    13.879	    -0.338
392		391	  5447.004	    34.122	    13.931	     0.052
393		392	  5468.249	    21.245	    13.950	     0.019
394		393	  5506.532	    38.283	    14.012	     0.062
395		394	  5526.253	    19.720	    14.026	     0.014
396		395	  5559.297	    33.044	    14.074	     0.048
397		396	  5593.930	    34.634	    14.126	     0.052
398		397	  5613.251	    19.321	    14.139	     0.013
399		398	  5642.355	    29.104	    14.177	     0.038
400		399	  5721.750	    79.395	    14.340	     0.163
401		400	  5721.752	     0.002	    14.304	    -0.036
402		401	  5756.613	    34.860	    14.356	     0.051
403		402	  5782.152	    25.540	    14.383	     0.028
404		403	  5811.991	    29.838	    14.422	     0.038
405		404	  5849.344	    37.353	    14.479	     0.057
406		405	  5865.944	    16.600	    14.484	     0.005
407		406	  5920.859	    54.915	    14.583	     0.100
408		407	  5942.116	    21.258	    14.600	     0.016
409		408	  5984.059	    41.943	    14.667	     0.067
410		409	  6021.405	    37.346	    14.722	     0.055
411		410	  6045.015	    23.610	    14.744	     0.022
412		411	  6074.785	    29.770	    14.780	     0.037
413		412	  6113.798	    39.014	    14.839	     0.059
414		413	  6143.166	    29.368	    14.874	     0.035
415		414	  6161.051	    17.885	    14.882	     0.007
416		415	  6199.120	    38.069	    14.938	     0.056
417		416	  6223.781	    24.661	    14.961	     0.023
418		417	  6270.865	    47.085	    15.038	     0.077
419		418	  6307.763	    36.898	    15.090	     0.052
420		419	  6322.284	    14.521	    15.089	    -0.001
421		420	  6344.411	    22.126	    15.106	     0.017
422		421	  6379.302	    34.891	    15.153	     0.047
423		422	  6419.338	    40.036	    15.212	     0.059
424		423	  6437.510	    18.173	    15.219	     0.007
425		424	  6475.480	    37.969	    15.272	     0.054
426		425	  6513.907	    38.428	    15.327	     0.054
427		426	  6540.171	    26.263	    15.353	     0.026
428		427	  6567.977	    27.806	    15.382	     0.029
429		428	  6624.536	    56.559	    15.478	     0.096
430		429	  6625.441	     0.905	    15.444	    -0.034
431		430	  6666.559	    41.118	    15.504	     0.060
432		431	  6696.293	    29.733	    15.537	     0.033
433		432	  6733.974	    37.681	    15.588	     0.051
434		433	  6760.374	    26.400	    15.613	     0.025
435		434	  6793.361	    32.987	    15.653	     0.040
436		435	  6823.139	    29.778	    15.685	     0.032
437		436	  6901.631	    78.492	    15.829	     0.144
438		437	  6888.795	   -12.836	    15.764	    -0.066
439		438	  6914.065	    25.270	    15.786	     0.022
440		439	  6953.243	    39.178	    15.839	     0.053
441		440	  6988.066	    34.823	    15.882	     0.043
442		441	  7001.412	    13.346	    15.876	    -0.006
443		442	  7063.549	    62.136	    15.981	     0.105
444		443	  7080.630	    17.081	    15.983	     0.002
445		444	  7111.654	    31.024	    16.017	     0.034
446		445	  7161.812	    50.159	    16.094	     0.077
447		446	  7187.125	    25.313	    16.115	     0.021
448		447	  7215.616	    28.491	    16.142	     0.028
449		448	  7251.519	    35.902	    16.186	     0.044
450		449	  7295.533	    44.014	    16.248	     0.062
451		450	  7316.440	    20.907	    16.259	     0.010
452		451	  7353.193	    36.753	    16.304	     0.045
453		452	  7390.100	    36.907	    16.350	     0.046
454		453	  7427.455	    37.356	    16.396	     0.046
455		454	  7453.011	    25.555	    16.416	     0.020
456		455	  7483.055	    30.044	    16.446	     0.030
457		456	  7518.072	    35.017	    16.487	     0.041
458		457	  7552.227	    34.155	    16.526	     0.039
459		458	  7579.879	    27.652	    16.550	     0.024
460		459	  7616.140	    36.261	    16.593	     0.043
461		460	  7645.787	    29.647	    16.621	     0.028
462		461	  7688.897	    43.110	    16.679	     0.057
463		462	  7710.712	    21.815	    16.690	     0.011
464		463	  7756.719	    46.007	    16.753	     0.063
465		464	  7789.996	    33.277	    16.789	     0.036
466		465	  7814.570	    24.575	    16.806	     0.017
467		466	  7873.048	    58.478	    16.895	     0.089
468		467	  7888.293	    15.245	    16.891	    -0.004
469		468	  7947.074	    58.781	    16.981	     0.090
470		469	  7973.058	    25.984	    17.000	     0.019
471		470	  8018.333	    45.275	    17.060	     0.060
472		471	  8066.504	    48.170	    17.126	     0.066
473		472	  8104.693	    38.190	    17.171	     0.045
474		473	  8143.938	    39.244	    17.218	     0.047
475		474	  8165.895	    21.958	    17.228	     0.010
476		475	  8204.245	    38.350	    17.272	     0.044
477		476	  8252.864	    48.619	    17.338	     0.066
478		477	  8272.167	    19.303	    17.342	     0.004
479		478	  8309.393	    37.226	    17.384	     0.042
480		479	  8350.154	    40.761	    17.432	     0.049
481		480	  8380.873	    30.719	    17.460	     0.028
482		481	  8421.991	    41.118	    17.509	     0.049
483		482	  8476.555	    54.564	    17.586	     0.077
484		483	  8527.602	    51.047	    17.655	     0.069
485		484	  8551.604	    24.002	    17.669	     0.013
486		485	  8573.321	    21.717	    17.677	     0.008
487		486	  8605.013	    31.692	    17.706	     0.029
488		487	  8640.049	    35.036	    17.741	     0.036
489		488	  8681.089	    41.041	    17.789	     0.048
490		489	  8720.444	    39.355	    17.833	     0.044
491		490	  8756.120	    35.676	    17.870	     0.036
492		491	  8797.520	    41.400	    17.918	     0.048
493		492	  8849.573	    52.053	    17.987	     0.069
494		493	  8887.502	    37.929	    18.027	     0.040
495		494	  8909.261	    21.759	    18.035	     0.008
496		495	  8947.049	    37.788	    18.075	     0.040
497		496	  9022.591	    75.542	    18.191	     0.116
498		497	  9008.492	   -14.099	    18.126	    -0.065
499		498	  9042.850	    34.358	    18.158	     0.033
500		499	  9095.269	    52.419	    18.227	     0.069
501		500	  9129.359	    34.090	    18.259	     0.032
